Division,WeightClassKg,Place,Name,Team,BodyweightKg,Best3SquatKg,Best3BenchKg,Best3DeadliftKg,TotalKg,Equipment,Event,Sex,BirthDate
Boys,51.71,1,Tyler Morrow,Copperas Cove,50.26,167.83,90.72,206.38,464.93,Single-ply,SBD,M,
Boys,51.71,2,Coal Aylesworth,Burleson Centennial,50.8,133.81,79.38,149.69,362.87,Single-ply,SBD,M,
Boys,51.71,3,Isaac Rios,Killeen Ellison,49.8,136.08,86.18,133.81,356.07,Single-ply,SBD,M,
Boys,51.71,4,Alfred Garcia,San Antonio Southwest,50.44,142.88,72.57,136.08,351.53,Single-ply,SBD,M,
Boys,51.71,5,Corey Casey,Del Valle,50.35,120.2,74.84,131.54,326.59,Single-ply,SBD,M,
Boys,51.71,6,Ethan Peace,Waxahachie,51.62,113.4,56.7,133.81,303.91,Single-ply,SBD,M,
Boys,51.71,7,Zackary Villarreal,Waco Midway,51.07,108.86,65.77,113.4,288.03,Single-ply,SBD,M,
Boys,51.71,8,Matthew Sobeck,Bastrop Cedar Creek,48.72,113.4,49.9,113.4,276.69,Single-ply,SBD,M,
Boys,51.71,9,Judah Pigg,San Marcos,49.53,97.52,52.16,111.13,260.82,Single-ply,SBD,M,
Boys,51.71,10,Collin Gascon,Belton,47.81,90.72,54.43,104.33,249.48,Single-ply,SBD,M,
Boys,51.71,11,Brandon Bower,Seguin,50.8,88.45,45.36,79.38,213.19,Single-ply,SBD,M,
Boys,51.71,DQ,Nick Perez,Belton,50.17,,,,,Single-ply,SBD,M,
Boys,55.79,1,Brayden Bromonsky,Kyle Lehman,53.89,240.4,108.86,233.6,582.87,Single-ply,SBD,M,
Boys,55.79,2,Tommy Hession,College Station,54.61,204.12,95.25,188.24,487.61,Single-ply,SBD,M,
Boys,55.79,3,Ryan Mccullough,Burleson,54.16,158.76,92.99,165.56,417.3,Single-ply,SBD,M,
Boys,55.79,4,Reese Janda,Seguin,55.16,165.56,92.99,142.88,401.43,Single-ply,SBD,M,
Boys,55.79,5,Enrique Reyes,Marble Falls,55.7,154.22,79.38,167.83,401.43,Single-ply,SBD,M,
Boys,55.79,6,Jonah Lopez,San Antonio Memorial,54.34,149.69,81.65,163.29,394.63,Single-ply,SBD,M,
Boys,55.79,7,Gavin Salinas,Liberty Hill,55.25,142.88,92.99,156.49,392.36,Single-ply,SBD,M,
Boys,55.79,8,Isaac Jones,Belton,55.52,140.61,90.72,161.03,392.36,Single-ply,SBD,M,
Boys,55.79,9,Onesimo Esquivel,San Marcos,54.07,147.42,74.84,161.03,383.29,Single-ply,SBD,M,
Boys,55.79,10,Alan Cruz,Buda Johnson,54.25,147.42,83.91,147.42,378.75,Single-ply,SBD,M,
Boys,55.79,11,Marc Perez,San Antonio Southwest Legacy,55.52,151.95,70.31,147.42,369.68,Single-ply,SBD,M,
Boys,55.79,12,Dakota Justus,Joshua,54.7,124.74,79.38,158.76,362.87,Single-ply,SBD,M,
Boys,59.87,1,Jacob Vasquez #1,Kyle Lehman,59.6,231.33,111.13,229.06,571.53,Single-ply,SBD,M,
Boys,59.87,2,Paul Herrera,Floresville,58.33,170.1,111.13,181.44,462.66,Single-ply,SBD,M,
Boys,59.87,3,Eric Esquivel,Kyle Lehman,58.88,165.56,104.33,190.51,460.4,Single-ply,SBD,M,
Boys,59.87,4,Richard Willess,Belton,59.24,161.03,102.06,190.51,453.59,Single-ply,SBD,M,
Boys,59.87,5,Josh Soliz,Seguin,58.06,172.37,104.33,174.63,451.32,Single-ply,SBD,M,
Boys,59.87,6,Jose Rios,Kyle Lehman,59.87,165.56,97.52,167.83,430.91,Single-ply,SBD,M,
Boys,59.87,7,Jaren Green,Killeen Ellison,58.97,142.88,92.99,174.63,410.5,Single-ply,SBD,M,
Boys,59.87,8,Christian Negrete,Burleson,59.24,161.03,83.91,165.56,410.5,Single-ply,SBD,M,
Boys,59.87,9,Julian Enriquez,Buda Johnson,58.42,158.76,92.99,156.49,408.23,Single-ply,SBD,M,
Boys,59.87,10,Miguel Elizarraras,Floresville,58.79,154.22,83.91,167.83,405.97,Single-ply,SBD,M,
Boys,59.87,11,Rene Jimenez,San Antonio Memorial,59.69,142.88,86.18,158.76,387.82,Single-ply,SBD,M,
Boys,59.87,DQ,Ian Collins,Manor,58.15,145.15,102.06,,,Single-ply,SBD,M,
Boys,67.13,1,Nolan Haden,Ennis,64.41,260.82,163.29,240.4,664.51,Single-ply,SBD,M,
Boys,67.13,2,Michael Aguilar,San Antonio East Central,66.13,210.92,122.47,210.92,544.31,Single-ply,SBD,M,
Boys,67.13,3,Lupe Ibarra,Floresville,65.23,213.19,129.27,197.31,539.77,Single-ply,SBD,M,
Boys,67.13,4,Michael Brown #21,Burleson Centennial,66.77,213.19,120.2,190.51,523.9,Single-ply,SBD,M,
Boys,67.13,5,Angel Longoria #2,Belton,65.5,195.04,131.54,195.04,521.63,Single-ply,SBD,M,
Boys,67.13,6,Will Eckford,Liberty Hill,66.86,195.04,124.74,190.51,510.29,Single-ply,SBD,M,
Boys,67.13,7,Ladavon Springs-Hargrove,Waco,,181.44,129.27,195.04,505.76,Single-ply,SBD,M,
Boys,67.13,8,Trenton Jonsson,Cleburne,66.59,204.12,106.59,195.04,505.76,Single-ply,SBD,M,
Boys,67.13,9,Aidan Flores,Seguin,64.86,192.78,111.13,199.58,503.49,Single-ply,SBD,M,
Boys,67.13,10,Gavin LaFleur,Floresville,65.95,204.12,117.93,176.9,498.95,Single-ply,SBD,M,
Boys,67.13,11,Avery Marshall,Manor,66.04,190.51,106.59,192.78,489.88,Single-ply,SBD,M,
Boys,67.13,12,Christian Jeanes,Kyle Lehman,66.04,170.1,111.13,204.12,485.34,Single-ply,SBD,M,
Boys,74.84,1,Jordan McKenzie #1,Midlothian,73.3,272.16,156.49,240.4,669.05,Single-ply,SBD,M,
Boys,74.84,2,Jonathan Cranford,Burleson,73.57,254.01,158.76,251.74,664.51,Single-ply,SBD,M,
Boys,74.84,3,Diego Macedo,Kyle Lehman,73.48,265.35,136.08,222.26,623.69,Single-ply,SBD,M,
Boys,74.84,4,Ethan Hall,College Station,73.57,254.01,127.01,226.8,607.81,Single-ply,SBD,M,
Boys,74.84,5,Dax Lott,Waxahachie,73.48,222.26,188.24,192.78,603.28,Single-ply,SBD,M,
Boys,74.84,6,Zane Bolding,Hutto,73.03,208.65,136.08,231.33,576.06,Single-ply,SBD,M,
Boys,74.84,7,Colby Johnson,Elgin,73.48,222.26,129.27,206.38,557.92,Single-ply,SBD,M,
Boys,74.84,8,Jacob Reece,Bastrop,72.76,224.53,113.4,204.12,542.04,Single-ply,SBD,M,
Boys,74.84,9,Joel Salazar,Seguin,73.84,201.85,120.2,215.46,537.51,Single-ply,SBD,M,
Boys,74.84,10,Amir Johnson,Brenham,74.84,210.92,113.4,204.12,528.44,Single-ply,SBD,M,
Boys,74.84,DQ,Michael Martinez,Ennis,72.57,,,,,Single-ply,SBD,M,
Boys,74.84,DQ,Alex Villareal,San Antonio Memorial,72.57,,,,,Single-ply,SBD,M,
Boys,74.84,DQ,Joseph James,Killeen Ellison,74.66,,,,,Single-ply,SBD,M,
Boys,82.1,1,Roman Anderson,Pflugerville Hendrickson,81.01,283.5,170.1,224.53,678.12,Single-ply,SBD,M,
Boys,82.1,2,Brayden Gardner,Ennis,79.29,260.82,181.44,229.06,671.32,Single-ply,SBD,M,
Boys,82.1,3,Caleb Esparza,Kyle Lehman,80.83,294.84,142.88,219.99,657.71,Single-ply,SBD,M,
Boys,82.1,4,Brock Slaydon,College Station A&M Cons,81.19,267.62,151.95,226.8,646.37,Single-ply,SBD,M,
Boys,82.1,5,Tyrese Francis,Copperas Cove,78.2,258.55,149.69,226.8,635.03,Single-ply,SBD,M,
Boys,82.1,6,Dylan Basham,San Marcos,80.2,229.06,161.03,240.4,630.49,Single-ply,SBD,M,
Boys,82.1,7,John Leandro,Seguin,80.92,224.53,142.88,263.08,630.49,Single-ply,SBD,M,
Boys,82.1,8,Joe Maldonado,Marble Falls,81.74,265.35,113.4,235.87,614.62,Single-ply,SBD,M,
Boys,82.1,9,Dj May,College Station A&M Cons,80.47,265.35,120.2,226.8,612.35,Single-ply,SBD,M,
Boys,82.1,10,Reid Bynum,Liberty Hill,82.1,229.06,145.15,215.46,589.67,Single-ply,SBD,M,
Boys,82.1,11,Michael Martinez,Seguin,80.56,226.8,145.15,192.78,564.72,Single-ply,SBD,M,
Boys,82.1,12,Andrew Freese,Burleson,80.65,210.92,115.67,226.8,553.38,Single-ply,SBD,M,
Boys,89.81,1,Kenny Long,Burleson Centennial,87.91,281.23,181.44,265.35,728.02,Single-ply,SBD,M,
Boys,89.81,2,Luis Trujillo,Elgin,87.36,260.82,170.1,276.69,707.6,Single-ply,SBD,M,
Boys,89.81,3,Abdias Castillo,Elgin,88.09,274.42,165.56,233.6,673.58,Single-ply,SBD,M,
Boys,89.81,4,Micah Young,San Antonio Southside,88.63,265.35,136.08,263.08,664.51,Single-ply,SBD,M,
Boys,89.81,5,Ryan Pena,San Antonio Southwest,84.91,254.01,156.49,244.94,655.44,Single-ply,SBD,M,
Boys,89.81,6,Isaiah Claveron,Burleson,89.45,244.94,129.27,235.87,610.08,Single-ply,SBD,M,
Boys,89.81,7,Ej Ezar,Bryan Rudder,86.18,226.8,129.27,215.46,571.53,Single-ply,SBD,M,
Boys,89.81,8,Bradley Gonzales,Buda Johnson,88.54,242.67,142.88,183.7,569.26,Single-ply,SBD,M,
Boys,89.81,9,Jonah Pigg,San Marcos,88.45,217.72,129.27,208.65,555.65,Single-ply,SBD,M,
Boys,89.81,10,Trenton Blew,Burleson,88.63,222.26,122.47,199.58,544.31,Single-ply,SBD,M,
Boys,89.81,DQ,Sam Meeker,Ennis,85,256.28,151.95,,,Single-ply,SBD,M,
Boys,89.81,DQ,Marcus Oliva,Lockhart,88.9,229.06,167.83,,,Single-ply,SBD,M,
Boys,99.79,1,Luke Miles,College Station,98.61,278.96,161.03,288.03,728.02,Single-ply,SBD,M,
Boys,99.79,2,Aidyn Schwarzer,Burleson,96.89,258.55,151.95,294.84,705.34,Single-ply,SBD,M,
Boys,99.79,3,Aidan Keith,Pflugerville Hendrickson,98.79,267.62,174.63,247.21,689.46,Single-ply,SBD,M,
Boys,99.79,4,Cirilo Gonzales,Manor,99.06,256.28,170.1,249.48,675.85,Single-ply,SBD,M,
Boys,99.79,5,Jerry Torres,Bastrop Cedar Creek,97.16,260.82,140.61,256.28,657.71,Single-ply,SBD,M,
Boys,99.79,6,Jarrett Austin,Burleson,99.06,254.01,151.95,251.74,657.71,Single-ply,SBD,M,
Boys,99.79,7,James Williams #16,Killeen Ellison,99.16,278.96,145.15,233.6,657.71,Single-ply,SBD,M,
Boys,99.79,8,Jacob Maldonado,Marble Falls,96.8,258.55,145.15,249.48,653.17,Single-ply,SBD,M,
Boys,99.79,9,Travis Pehl,San Antonio East Central,97.43,247.21,165.56,219.99,632.76,Single-ply,SBD,M,
Boys,99.79,10,Christian Lopez #9,Bastrop,95.71,238.14,154.22,233.6,625.96,Single-ply,SBD,M,
Boys,99.79,11,Thomas Thornburg,Georgetown East View,92.99,244.94,136.08,229.06,610.08,Single-ply,SBD,M,
Boys,99.79,DQ,Jonah Meyers,Belton,91.81,,,,,Single-ply,SBD,M,
Boys,109.77,1,Zeke Sheridan,Killeen Ellison,104.51,263.08,151.95,272.16,687.19,Single-ply,SBD,M,
Boys,109.77,2,Ethan Tullos-Chapa,San Antonio Southwest Legacy,107.32,267.62,174.63,235.87,678.12,Single-ply,SBD,M,
Boys,109.77,3,Jace Martin,Midlothian,106.59,283.5,136.08,247.21,666.78,Single-ply,SBD,M,
Boys,109.77,4,Clark Griffin,San Antonio Southwest,101.7,258.55,149.69,249.48,657.71,Single-ply,SBD,M,
Boys,109.77,5,Zack Perez,San Marcos,106.96,251.74,161.03,226.8,639.57,Single-ply,SBD,M,
Boys,109.77,6,Cesar Martínez,Bryan,102.06,226.8,145.15,238.14,610.08,Single-ply,SBD,M,
Boys,109.77,7,Klayton Sheffield,College Station A&M Cons,104.6,240.4,147.42,213.19,601.01,Single-ply,SBD,M,
Boys,109.77,8,Izaiah Perry,Burleson,104.42,224.53,156.49,210.92,591.94,Single-ply,SBD,M,
Boys,109.77,DQ,Lyndon Williams,Bryan Rudder,105.87,,,,,Single-ply,SBD,M,
Boys,109.77,DQ,Armando Molina,Killeen Ellison,107.5,,,,,Single-ply,SBD,M,
Boys,109.77,DQ,Juan Mora,Hutto,103.6,,,,,Single-ply,SBD,M,
Boys,109.77,DQ,Cody Wilkerson,San Antonio Southside,108.95,,,,,Single-ply,SBD,M,
Boys,124.74,1,Kaleb Thompkins,Midlothian,117.03,272.16,183.7,260.82,716.68,Single-ply,SBD,M,
Boys,124.74,2,Josh Rodriguez,Cleburne,116.03,249.48,172.37,258.55,680.39,Single-ply,SBD,M,
Boys,124.74,3,Alexander Handy,Bastrop Cedar Creek,121.29,267.62,142.88,260.82,671.32,Single-ply,SBD,M,
Boys,124.74,4,John Robolloso,Elgin,123.01,294.84,154.22,222.26,671.32,Single-ply,SBD,M,
Boys,124.74,5,Michael Pinones,San Antonio East Central,122.2,254.01,172.37,242.67,669.05,Single-ply,SBD,M,
Boys,124.74,6,Jalen Miller,Kyle Lehman,121.2,265.35,142.88,254.01,662.24,Single-ply,SBD,M,
Boys,124.74,7,Bradley Gregory,Joshua,112.76,288.03,145.15,226.8,659.98,Single-ply,SBD,M,
Boys,124.74,8,Jackson Harrison,Liberty Hill,120.84,276.69,149.69,226.8,653.17,Single-ply,SBD,M,
Boys,124.74,9,William Rangel,Bastrop Cedar Creek,116.03,267.62,154.22,219.99,641.83,Single-ply,SBD,M,
Boys,124.74,10,Austin Pennington,Bryan,122.02,235.87,127.01,247.21,610.08,Single-ply,SBD,M,
Boys,124.74,DQ,Reid White,Ennis,123.38,226.8,165.56,,,Single-ply,SBD,M,
Boys,124.74,DQ,JonTavion Workman,Bryan,124.19,249.48,154.22,,,Single-ply,SBD,M,
Boys,124.74,DQ,Nicolas Veles,San Antonio Southwest Legacy,121.47,229.06,163.29,,,Single-ply,SBD,M,
Boys,139.71,1,Jordan Hood,Elgin,138.16,317.51,199.58,299.37,816.47,Single-ply,SBD,M,
Boys,139.71,2,Ty Thornton,Manor,133.36,272.16,190.51,283.5,746.16,Single-ply,SBD,M,
Boys,139.71,3,Josh Jett,Georgetown,127.01,276.69,161.03,231.33,669.05,Single-ply,SBD,M,
Boys,139.71,4,Brody Nors,Burleson Centennial,128.64,240.4,179.17,242.67,662.24,Single-ply,SBD,M,
Boys,139.71,5,Ivan Garcia,San Antonio Memorial,135.26,278.96,158.76,208.65,646.37,Single-ply,SBD,M,
Boys,139.71,6,Dan Llanez,Copperas Cove,139.62,260.82,138.35,238.14,637.3,Single-ply,SBD,M,
Boys,139.71,7,Chandler Poggensee,Burleson,126.37,256.28,170.1,204.12,630.49,Single-ply,SBD,M,
Boys,139.71,8,Diego Salazar,Pflugerville Connally,127.73,249.48,142.88,226.8,619.15,Single-ply,SBD,M,
Boys,139.71,9,Raul Saucedo,Del Valle,130.73,242.67,154.22,219.99,616.89,Single-ply,SBD,M,
Boys,139.71,10,Ethan Escamilla,Brenham,138.16,226.8,136.08,238.14,601.01,Single-ply,SBD,M,
Boys,139.71,DQ,Jason Batiste,Bryan Rudder,129.46,317.51,124.74,,,Single-ply,SBD,M,
Boys,139.71,DQ,Easthan Mendez,San Marcos,138.07,283.5,163.29,,,Single-ply,SBD,M,
Boys,139.71+,1,Josh Rangel,Cleburne,149.5,340.19,190.51,272.16,802.86,Single-ply,SBD,M,
Boys,139.71+,2,Thomas Holman,Copperas Cove,160.75,285.76,183.7,244.94,714.41,Single-ply,SBD,M,
Boys,139.71+,3,Jo'Vaughn Holmes,College Station,141.79,317.51,165.56,226.8,709.87,Single-ply,SBD,M,
Boys,139.71+,4,Xavier Perez #2,Ennis,147.33,310.71,158.76,233.6,703.07,Single-ply,SBD,M,
Boys,139.71+,5,Jaxson Langford,Killeen Ellison,199.58,272.16,174.63,210.92,657.71,Single-ply,SBD,M,
Boys,139.71+,6,Nathan Simons,Corsicana,146.87,244.94,165.56,197.31,607.81,Single-ply,SBD,M,
Boys,139.71+,7,Lumont Jackson,Cleburne,141.34,242.67,145.15,217.72,605.55,Single-ply,SBD,M,
Boys,139.71+,8,Dustyn McLane,Burleson,172.37,229.06,163.29,206.38,598.74,Single-ply,SBD,M,
Boys,139.71+,9,Kenneth Teters,Midlothian,172.55,249.48,142.88,204.12,596.47,Single-ply,SBD,M,
Boys,139.71+,10,Jacob Williams,Kyle Lehman,152.77,190.51,136.08,190.51,517.1,Single-ply,SBD,M,
Boys,139.71+,DQ,Keanu Ramirez,Killeen Ellison,158.67,,,,,Single-ply,SBD,M,
Boys,139.71+,DQ,Isaiah Arguello,Manor,164.38,272.16,181.44,,,Single-ply,SBD,M,
Boys,,NS,Jaron Jackson,Bryan,,,,,,Single-ply,SBD,M,
Boys,,NS,Keanu Jones,Brenham,,,,,,Single-ply,SBD,M,
Boys,,NS,Jonathan Guerrero,Waxahachie,,,,,,Single-ply,SBD,M,
