Division,WeightClassKg,Place,Name,Team,BodyweightKg,Best3SquatKg,Best3BenchKg,Best3DeadliftKg,TotalKg,Equipment,Event,Sex,BirthDate
Boys,51.71,1,Jacob Guerrero,Yorktown,51.62,147.42,90.72,142.88,381.02,Single-ply,SBD,M,
Boys,51.71,2,Gentry Doyle,Flatonia,49.44,90.72,58.97,104.33,254.01,Single-ply,SBD,M,
Boys,51.71,3,Max Wickens,Sealy,49.9,102.06,58.97,92.99,254.01,Single-ply,SBD,M,
Boys,51.71,4,Hardy Hay,Weimar,46.72,65.77,38.56,74.84,179.17,Single-ply,SBD,M,
Boys,55.79,1,Bryan Peralta,Yorktown,54.88,142.88,72.57,142.88,358.34,Single-ply,SBD,M,
Boys,55.79,2,Juan Perez,Sealy,54.43,131.54,74.84,149.69,356.07,Single-ply,SBD,M,
Boys,55.79,3,Drayton Mazac,Sealy,52.62,115.67,61.23,142.88,319.78,Single-ply,SBD,M,
Boys,59.87,1,Dylan Thaxton,Sealy,59.42,167.83,95.25,176.9,439.98,Single-ply,SBD,M,
Boys,59.87,2,Weslee Novosad,Sealy,58.51,151.95,77.11,170.1,399.16,Single-ply,SBD,M,
Boys,59.87,3,Dakota Ford,Weimar,59.87,129.27,72.57,147.42,349.27,Single-ply,SBD,M,
Boys,67.13,1,Max Mock,Sealy,66.22,158.76,97.52,170.1,426.38,Single-ply,SBD,M,
Boys,67.13,2,Bradley Garbs,Sealy,62.14,149.69,83.91,158.76,392.36,Single-ply,SBD,M,
Boys,67.13,3,Waylon Schimcek,Weimar,65.32,142.88,81.65,165.56,390.09,Single-ply,SBD,M,
Boys,67.13,4,Felipe Olmos,Flatonia,64.86,127.01,88.45,122.47,337.93,Single-ply,SBD,M,
Boys,74.84,1,Corey Riley,Sealy,73.94,199.58,117.93,219.99,537.51,Single-ply,SBD,M,
Boys,74.84,2,Jackson Osborne,Sealy,73.48,174.63,111.13,176.9,462.66,Single-ply,SBD,M,
Boys,74.84,3,Aiden Gonzales,Flatonia,72.12,163.29,106.59,185.97,455.86,Single-ply,SBD,M,
Boys,74.84,4,Christopher Hickmon,Navasota,74.84,122.47,65.77,161.03,349.27,Single-ply,SBD,M,
Boys,74.84,5,Paden Reddock,Flatonia,70.31,120.2,88.45,136.08,344.73,Single-ply,SBD,M,
Boys,82.1,1,Phillip Ramirez,Flatonia,80.29,161.03,92.99,170.1,424.11,Single-ply,SBD,M,
Boys,82.1,2,Austin Stech,Weimar,78.02,149.69,88.45,167.83,405.97,Single-ply,SBD,M,
Boys,89.81,1,Ethan Hart,Sealy,88,181.44,136.08,204.12,521.63,Single-ply,SBD,M,
Boys,89.81,2,Juan Ferretiz,Weimar,89.81,165.56,83.91,204.12,453.59,Single-ply,SBD,M,
Boys,89.81,3,Josh Martin #2,Flatonia,83.91,170.1,111.13,167.83,449.06,Single-ply,SBD,M,
Boys,89.81,4,Jose Arriaga,Sealy,88.9,165.56,97.52,174.63,437.72,Single-ply,SBD,M,
Boys,89.81,5,Jonathan Almilla,Weimar,83.91,136.08,83.91,167.83,387.82,Single-ply,SBD,M,
Boys,99.79,1,Josh Ramirez,Flatonia,91.63,226.8,124.74,204.12,555.65,Single-ply,SBD,M,
Boys,99.79,2,Weston Pavlik,Weimar,97.98,140.61,83.91,172.37,396.89,Single-ply,SBD,M,
Boys,99.79,3,Xavier Haynes,Navasota,95.25,129.27,79.38,181.44,390.09,Single-ply,SBD,M,
Boys,99.79,4,Chance Risner,Navasota,90.72,133.81,97.52,151.95,383.29,Single-ply,SBD,M,
Boys,99.79,5,Isaac Vasquez,Flatonia,95.25,129.27,81.65,127.01,337.93,Single-ply,SBD,M,
Boys,99.79,6,Drew Chavez,Navasota,97.52,115.67,70.31,147.42,333.39,Single-ply,SBD,M,
Boys,99.79,7,Colby Ingram,Navasota,99.34,111.13,70.31,124.74,306.17,Single-ply,SBD,M,
Boys,109.77,1,Yahir Alvarez,Sealy,105.23,206.38,129.27,226.8,562.45,Single-ply,SBD,M,
Boys,109.77,2,Andres Tobias,Navasota,101.15,161.03,92.99,181.44,435.45,Single-ply,SBD,M,
Boys,109.77,3,Mathew Sosa,Navasota,109.32,165.56,68.04,161.03,394.63,Single-ply,SBD,M,
Boys,109.77,4,Emanuel Gayton,Weimar,107.95,161.03,79.38,151.95,392.36,Single-ply,SBD,M,
Boys,109.77,5,Connor Ruppert,Yorktown,103.87,136.08,83.91,136.08,356.07,Single-ply,SBD,M,
Boys,109.77,6,David Romero,Navasota,103.87,133.81,79.38,142.88,356.07,Single-ply,SBD,M,
Boys,109.77,7,Jacob Arellano,Navasota,108.86,115.67,70.31,140.61,326.59,Single-ply,SBD,M,
Boys,124.74,1,Ethan Pompa,Yorktown,112.49,204.12,102.06,183.7,489.88,Single-ply,SBD,M,
Boys,124.74,2,Davon Walles,Flatonia,119.29,181.44,111.13,183.7,476.27,Single-ply,SBD,M,
Boys,139.71,2,Hunter Hall,Yorktown,135.62,142.88,92.99,170.1,405.97,Single-ply,SBD,M,
Boys,139.71+,1,Taden Alvarado,Flatonia,147.42,265.35,142.88,199.58,607.81,Single-ply,SBD,M,
