Division,WeightClassKg,Place,Name,Team,BodyweightKg,Best3SquatKg,Best3BenchKg,Best3DeadliftKg,TotalKg,Equipment,Event,Sex
Boys,51.71,1,Danny Rivera,Ponder,48.9,111.13,56.7,108.86,276.69,Single-ply,SBD,M
Boys,51.71,2,J. Paul Axtell,Olney,47.99,90.72,54.43,102.06,247.21,Single-ply,SBD,M
Boys,51.71,DQ,Adrian Lopez #4,Wichita Falls,51.62,99.79,,,,Single-ply,SBD,M
Boys,59.87,1,Armani Donaldson,Wichita Falls,55.97,151.95,99.79,156.49,408.23,Single-ply,SBD,M
Boys,55.79,2,Devonte Perez,Wichita Falls Rider,55.79,124.74,74.84,124.74,324.32,Single-ply,SBD,M
Boys,55.79,3,Jacob Jackson,Vernon,54.43,102.06,68.04,115.67,285.76,Single-ply,SBD,M
Boys,55.79,DQ,Kamrey Wiley,Wichita Falls,55.25,133.81,,,,Single-ply,SBD,M
Boys,59.87,1,Camron Senters,Burkburnett,58.51,204.12,92.99,195.04,492.15,Single-ply,SBD,M
Boys,59.87,2,Tony Carrillo,Graham,59.33,140.61,88.45,174.63,403.7,Single-ply,SBD,M
Boys,67.13,3,Derrick Siebman,Childress,59.96,140.61,83.91,154.22,378.75,Single-ply,SBD,M
Boys,59.87,4,Tristan Niles,Burkburnett,58.6,131.54,72.57,136.08,340.19,Single-ply,SBD,M
Boys,59.87,5,Rody Fenoglio,Henrietta,58.51,102.06,72.57,113.4,288.03,Single-ply,SBD,M
Boys,59.87,DQ,Juan Aranda,Childress,59.87,,,,,Single-ply,SBD,M
Boys,59.87,DQ,Noah Bullard,Olney,57.52,97.52,,,,Single-ply,SBD,M
Boys,67.13,1,Juan Martinez,Graham,64.41,179.17,129.27,192.78,501.22,Single-ply,SBD,M
Boys,67.13,2,Essie Woodard,Wichita Falls,66.41,158.76,92.99,183.7,435.45,Single-ply,SBD,M
Boys,67.13,3,Marcus Garza,Graham,60.24,163.29,95.25,165.56,424.11,Single-ply,SBD,M
Boys,74.84,4,Austin Armagost,Burkburnett,67.31,145.15,95.25,154.22,394.63,Single-ply,SBD,M
Boys,74.84,5,Chase Kurszewski,Burkburnett,67.22,154.22,86.18,145.15,385.55,Single-ply,SBD,M
Boys,67.13,6,Taylor Kelley #2,Wichita Falls Rider,64.14,115.67,72.57,147.42,335.66,Single-ply,SBD,M
Boys,67.13,7,John Losoya,Wichita Falls,67.04,127.01,72.57,136.08,335.66,Single-ply,SBD,M
Boys,67.13,8,Dylan Davidson,Childress,67.13,102.06,72.57,124.74,299.37,Single-ply,SBD,M
Boys,67.13,9,Aaron James,Childress,65.14,108.86,77.11,108.86,294.84,Single-ply,SBD,M
Boys,67.13,10,Justin Ottoway,Seymour,66.68,83.91,79.38,90.72,254.01,Single-ply,SBD,M
Boys,67.13,DQ,Corrie Luster,Vernon,67.13,,,,,Single-ply,SBD,M
Boys,74.84,DQ,Javan Brown,Burkburnett,67.31,92.99,,,,Single-ply,SBD,M
Boys,67.13,DQ,Andrew Mangum,Wichita Falls City View,63.05,124.74,,,,Single-ply,SBD,M
Boys,74.84,1,Tri Hoang,Wichita Falls City View,74.84,233.6,113.4,251.74,598.74,Single-ply,SBD,M
Boys,74.84,2,Colton Bailey,Wichita Falls Rider,73.84,213.19,115.67,206.38,535.24,Single-ply,SBD,M
Boys,74.84,3,Dalton Day,Henrietta,71.94,197.31,124.74,190.51,512.56,Single-ply,SBD,M
Boys,74.84,4,Brandon Guerrero,Childress,72.03,181.44,106.59,215.46,503.49,Single-ply,SBD,M
Boys,82.1,5,Steven Blankenship,Graham,74.93,179.17,127.01,190.51,496.68,Single-ply,SBD,M
Boys,82.1,6,Kieantae Czarnek,Wichita Falls City View,74.93,183.7,102.06,183.7,469.47,Single-ply,SBD,M
Boys,82.1,7,Zac Hollingsworth,Burkburnett,74.93,181.44,117.93,167.83,467.2,Single-ply,SBD,M
Boys,74.84,8,Ross Mullins,Olney,73.12,158.76,97.52,183.7,439.98,Single-ply,SBD,M
Boys,74.84,9,Ricardo Carrillo,Wichita Falls City View,73.94,145.15,97.52,183.7,426.38,Single-ply,SBD,M
Boys,74.84,10,Dylan Horton,Graham,71.58,163.29,92.99,161.03,417.3,Single-ply,SBD,M
Boys,74.84,11,Jd Lopez,Childress,72.48,154.22,104.33,158.76,417.3,Single-ply,SBD,M
Boys,82.1,12,Elijah Hull,Wichita Falls Hirschi,75.02,149.69,83.91,158.76,392.36,Single-ply,SBD,M
Boys,74.84,13,Brendan Beach,Ponder,73.3,149.69,95.25,145.15,390.09,Single-ply,SBD,M
Boys,74.84,14,Bobby Ingram,Burkburnett,73.21,145.15,86.18,147.42,378.75,Single-ply,SBD,M
Boys,74.84,15,Magnum Sampson,Ponder,73.84,136.08,77.11,145.15,358.34,Single-ply,SBD,M
Boys,74.84,16,John Mitchell #4,Seymour,71.12,127.01,83.91,142.88,353.8,Single-ply,SBD,M
Boys,74.84,17,Aaron Fraga,Wichita Falls,74.12,120.2,83.91,133.81,337.93,Single-ply,SBD,M
Boys,74.84,18,David Garza,Vernon,67.68,113.4,92.99,129.27,335.66,Single-ply,SBD,M
Boys,74.84,19,Landon Bale,Burkburnett,73.57,111.13,70.31,145.15,326.59,Single-ply,SBD,M
Boys,74.84,20,Noah Hayes,Nocona,73.66,81.65,72.57,102.06,256.28,Single-ply,SBD,M
Boys,74.84,DQ,Deon Mitchell,Wichita Falls Hirschi,74.84,,,,,Single-ply,SBD,M
Boys,74.84,DQ,Brinkman Wes,Wichita Falls Notre Dame,70.31,,,,,Single-ply,SBD,M
Boys,74.84,DQ,Quentin Sims,Wichita Falls,74.39,158.76,,,,Single-ply,SBD,M
Boys,74.84,DQ,Dane McDonald,Wichita Falls,74.12,127.01,,,,Single-ply,SBD,M
Boys,74.84,DQ,Tristian Willard,Nocona,71.3,136.08,79.38,,,Single-ply,SBD,M
Boys,82.1,1,Brennan Sooter,Ponder,75.21,226.8,131.54,206.38,564.72,Single-ply,SBD,M
Boys,82.1,2,Michael Elmore,Graham,81.83,204.12,145.15,181.44,530.7,Single-ply,SBD,M
Boys,82.1,3,Taylor Littleton,Ponder,81.56,192.78,136.08,192.78,521.63,Single-ply,SBD,M
Boys,89.81,4,Tristan Sosa,Wichita Falls,82.19,154.22,113.4,163.29,430.91,Single-ply,SBD,M
Boys,82.1,5,Caleb Levell,Wichita Falls Rider,78.65,163.29,88.45,161.03,412.77,Single-ply,SBD,M
Boys,82.1,6,Brandon Dodson,Ponder,76.57,158.76,86.18,158.76,403.7,Single-ply,SBD,M
Boys,82.1,7,Trevor Williams,Olney,76.66,133.81,92.99,174.63,401.43,Single-ply,SBD,M
Boys,82.1,8,Zack Macmahen,Vernon,80.2,136.08,83.91,179.17,399.16,Single-ply,SBD,M
Boys,82.1,9,Will Coleman,Wichita Falls Rider,80.1,142.88,97.52,154.22,394.63,Single-ply,SBD,M
Boys,82.1,10,Justin Goodwin,Childress,81.1,149.69,92.99,145.15,387.82,Single-ply,SBD,M
Boys,82.1,11,Alex Guerrero #2,Childress,79.83,129.27,99.79,136.08,365.14,Single-ply,SBD,M
Boys,82.1,12,Chase Galyean,Childress,79.74,136.08,86.18,133.81,356.07,Single-ply,SBD,M
Boys,82.1,13,Colin Davis,Vernon,79.92,124.74,83.91,127.01,335.66,Single-ply,SBD,M
Boys,82.1,14,Colton Sims,Vernon,75.66,104.33,43.09,145.15,292.57,Single-ply,SBD,M
Boys,82.1,DQ,Wolfe Hunter,Wichita Falls Notre Dame,81.1,190.51,,,,Single-ply,SBD,M
Boys,89.81,DQ,Tyree Jenks-Browning,Wichita Falls Hirschi,82.28,188.24,117.93,,,Single-ply,SBD,M
Boys,89.81,1,Chris Rogers,Burkburnett,84.82,226.8,136.08,204.12,566.99,Single-ply,SBD,M
Boys,89.81,2,Alex Joplin,Burkburnett,88.63,188.24,129.27,179.17,496.68,Single-ply,SBD,M
Boys,89.81,3,Jaymes Upchurch,Burkburnett,85.37,165.56,136.08,183.7,485.34,Single-ply,SBD,M
Boys,89.81,4,Bohner Cottongame,Graham,88.27,183.7,102.06,188.24,474,Single-ply,SBD,M
Boys,89.81,5,Andrew Rodriguez,Wichita Falls City View,87.54,172.37,113.4,183.7,469.47,Single-ply,SBD,M
Boys,89.81,6,Zack Tayntor,Wichita Falls Rider,89.81,165.56,97.52,156.49,419.57,Single-ply,SBD,M
Boys,89.81,7,Carlon Christian,Wichita Falls Rider,87.36,151.95,83.91,156.49,392.36,Single-ply,SBD,M
Boys,99.79,8,Trey Leighton,Childress,89.99,145.15,74.84,140.61,360.61,Single-ply,SBD,M
Boys,89.81,9,Reagan Lambert,Childress,89.81,117.93,79.38,129.27,326.59,Single-ply,SBD,M
Boys,89.81,10,Tristan Urquizo,Vernon,89.09,120.2,81.65,115.67,317.51,Single-ply,SBD,M
Boys,89.81,DQ,Chris Jones #20,Vernon,89.81,,,,,Single-ply,SBD,M
Boys,89.81,DQ,Blake Cooper,Childress,89.81,,,,,Single-ply,SBD,M
Boys,89.81,DQ,Trevor Methvin,Vernon,84.64,,,,,Single-ply,SBD,M
Boys,89.81,DQ,Ramo Guerra,Wichita Falls City View,86.09,136.08,,,,Single-ply,SBD,M
Boys,99.79,1,Ronnie Killen,Wichita Falls City View,96.34,165.56,86.18,170.1,421.84,Single-ply,SBD,M
Boys,99.79,2,Josh Gentry,Burkburnett,97.16,147.42,111.13,149.69,408.23,Single-ply,SBD,M
Boys,99.79,3,Parker Sorge,Wichita Falls Rider,98.52,154.22,92.99,154.22,401.43,Single-ply,SBD,M
Boys,99.79,4,Allen Mullis,Ponder,90.17,140.61,97.52,156.49,394.63,Single-ply,SBD,M
Boys,99.79,5,Nick Thompson,Ponder,98.43,147.42,90.72,147.42,385.55,Single-ply,SBD,M
Boys,99.79,6,Jacob Boswell,Burkburnett,90.26,129.27,72.57,140.61,342.46,Single-ply,SBD,M
Boys,99.79,7,Arturo Villalobos,Wichita Falls City View,92.08,127.01,79.38,136.08,342.46,Single-ply,SBD,M
Boys,99.79,8,Justin Wagner,Ponder,97.43,136.08,79.38,127.01,342.46,Single-ply,SBD,M
Boys,99.79,DQ,Zack McCoy,Childress,99.79,,,,,Single-ply,SBD,M
Boys,99.79,DQ,Devin Daume,Graham,95.44,,,,,Single-ply,SBD,M
Boys,99.79,DQ,Chris Gallagher,Wichita Falls,98.43,197.31,,,,Single-ply,SBD,M
Boys,109.77,1,Chris Aivaliotis,Ponder,105.96,226.8,136.08,215.46,578.33,Single-ply,SBD,M
Boys,109.77,2,Derek Baynes,Graham,106.68,217.72,136.08,188.24,542.04,Single-ply,SBD,M
Boys,109.77,3,Mark Munoz,Childress,104.78,181.44,120.2,181.44,483.08,Single-ply,SBD,M
Boys,109.77,4,Jackson Towery,Nocona,103.42,179.17,95.25,181.44,455.86,Single-ply,SBD,M
Boys,109.77,5,Travis Zimple,Wichita Falls Rider,106.96,154.22,97.52,165.56,417.3,Single-ply,SBD,M
Boys,109.77,6,Enrique Aleman,Vernon,108.32,131.54,88.45,163.29,383.29,Single-ply,SBD,M
Boys,109.77,7,Ryan Lambert,Childress,100.97,136.08,92.99,145.15,374.21,Single-ply,SBD,M
Boys,109.77,8,Drew Filkens,Nocona,106.96,138.35,83.91,117.93,340.19,Single-ply,SBD,M
Boys,109.77,DQ,Juan Arrendondo,Graham,109.77,,,,,Single-ply,SBD,M
Boys,109.77,DQ,Tyler Whitten,Childress,109.77,,,,,Single-ply,SBD,M
Boys,109.77,DQ,Marcus Arenivar,Wichita Falls Hirschi,109.77,,,,,Single-ply,SBD,M
Boys,109.77,DQ,Derek Wolfe,Archer City,101.79,,,,,Single-ply,SBD,M
Boys,124.74,1,Ricky Clark,Burkburnett,119.57,265.35,165.56,204.12,635.03,Single-ply,SBD,M
Boys,124.74,2,Celso Guerrero,Childress,119.84,204.12,151.95,215.46,571.53,Single-ply,SBD,M
Boys,124.74,3,Nick Diaz,Wichita Falls Hirschi,122.29,192.78,120.2,197.31,510.29,Single-ply,SBD,M
Boys,124.74,4,Kye Esteves,Wichita Falls Rider,114.31,183.7,108.86,204.12,496.68,Single-ply,SBD,M
Boys,124.74,5,Sammy Serrano,Graham,121.56,204.12,108.86,181.44,494.42,Single-ply,SBD,M
Boys,124.74,6,Michael Skyles,Childress,121.56,174.63,108.86,163.29,446.79,Single-ply,SBD,M
Boys,124.74,7,Tanner Harsh,Archer City,113.58,151.95,104.33,181.44,437.72,Single-ply,SBD,M
Boys,124.74,8,Jacob Poole,Ponder,119.11,111.13,61.23,108.86,281.23,Single-ply,SBD,M
Boys,124.74,DQ,Jimbo Bentley,Childress,124.74,,,,,Single-ply,SBD,M
Boys,124.74,DQ,Tito Guerreo,Childress,124.74,,,,,Single-ply,SBD,M
Boys,124.74,DQ,Ty Tipton,Childress,124.74,,,,,Single-ply,SBD,M
Boys,124.74,DQ,John Brock,Henrietta,119.48,,,,,Single-ply,SBD,M
Boys,124.74,DQ,Orion Rodriguez,Wichita Falls,113.58,,,,,Single-ply,SBD,M
Boys,124.74,DQ,Leonard Crone,Wichita Falls City View,115.58,149.69,,,,Single-ply,SBD,M
Boys,124.74+,1,Ryan Ford,Wichita Falls City View,127.73,156.49,108.86,158.76,424.11,Single-ply,SBD,M
Boys,124.74+,2,Ty Whitson,Wichita Falls Rider,125.19,124.74,104.33,149.69,378.75,Single-ply,SBD,M
Boys,124.74+,3,Quentin Jones,Wichita Falls City View,131.27,113.4,83.91,156.49,353.8,Single-ply,SBD,M
Boys,124.74+,DQ,Zach Graham,Nocona,141.7,158.76,97.52,,,Single-ply,SBD,M
Boys,124.74+,DQ,Andrew Wilson,Vernon,166.38,,,,,Single-ply,SBD,M
