Division,WeightClassKg,Place,Name,Team,BodyweightKg,Best3SquatKg,Best3BenchKg,Best3DeadliftKg,TotalKg,Equipment,Event,Sex
Boys,51.71,1,Ross Cowart,Huntsville,50.62,102.06,61.23,124.74,288.03,Single-ply,SBD,M
Boys,51.71,2,Corey Ford,Livingston,46.18,88.45,43.09,77.11,208.65,Single-ply,SBD,M
Boys,51.71,DQ,Elishah Simpson,Beaumont Ozen,51.26,81.65,,,,Single-ply,SBD,M
Boys,59.87,DQ,Julian Perez,Beaumont West Brook,56.02,,,,,Single-ply,SBD,M
Boys,55.79,DQ,Cody Stroks,New Caney,53.43,,,,,Single-ply,SBD,M
Boys,55.79,3,Chase Watson,Shepherd,55.34,120.2,72.57,122.47,315.25,Single-ply,SBD,M
Boys,59.87,4,Ryan Levy,Beaumont West Brook,55.97,97.52,72.57,138.35,308.44,Single-ply,SBD,M
Boys,55.79,5,Connor Orozco,Huffman Hargrave,55.79,113.4,63.5,102.06,278.96,Single-ply,SBD,M
Boys,55.79,6,Mikey Rodgers,Huffman Hargrave,54.07,90.72,63.5,117.93,272.16,Single-ply,SBD,M
Boys,67.13,1,Brandon Coon,Conroe Caney Creek,60.06,181.44,77.11,181.44,439.98,Single-ply,SBD,M
Boys,67.13,2,Drew Alverez,Beaumont West Brook,60.06,138.35,81.65,158.76,378.75,Single-ply,SBD,M
Boys,59.87,DQ,Matt Rice,Conroe Oak Ridge,59.69,115.67,,,,Single-ply,SBD,M
Boys,67.13,1,Deroddrick Hadnot,Jasper,66.04,226.8,140.61,229.06,596.47,Single-ply,SBD,M
Boys,67.13,2,Tyler Marcel,Conroe Oak Ridge,65.95,201.85,133.81,229.06,564.72,Single-ply,SBD,M
Boys,67.13,3,Eric Stanfield,Livingston,66.41,219.99,104.33,165.56,489.88,Single-ply,SBD,M
Boys,74.84,4,Cesar Marroquin,Huffman Hargrave,67.22,183.7,104.33,167.83,455.86,Single-ply,SBD,M
Boys,67.13,5,Dallan Sneed,Livingston,66.77,163.29,104.33,183.7,451.32,Single-ply,SBD,M
Boys,74.84,6,Fernando Mendez,Conroe Caney Creek,67.31,174.63,79.38,181.44,435.45,Single-ply,SBD,M
Boys,67.13,7,Trent Taylor,Shepherd,62.14,151.95,88.45,163.29,403.7,Single-ply,SBD,M
Boys,67.13,8,Levi Hurley,Corrigan-Camden,66.32,158.76,74.84,163.29,396.89,Single-ply,SBD,M
Boys,67.13,9,Elvin Martinez,Huntsville,64.59,145.15,81.65,163.29,390.09,Single-ply,SBD,M
Boys,67.13,10,Reshawn Limbrick,Beaumont West Brook,66.95,136.08,90.72,158.76,385.55,Single-ply,SBD,M
Boys,67.13,11,Jacob Mears,Beaumont Ozen,65.77,104.33,97.52,158.76,360.61,Single-ply,SBD,M
Boys,67.13,12,Devin Kelly,Huffman Hargrave,62.69,104.33,65.77,115.67,285.76,Single-ply,SBD,M
Boys,67.13,DQ,Nick Warner,Conroe Caney Creek,67.13,,,,,Single-ply,SBD,M
Boys,67.13,DQ,Taylor Martin,Trinity,67.13,,,,,Single-ply,SBD,M
Boys,67.13,DQ,Robert Black,Trinity,67.13,,,,,Single-ply,SBD,M
Boys,67.13,DQ,Hunter Bell,Huntsville,66.41,133.81,74.84,,,Single-ply,SBD,M
Boys,74.84,1,Issac Cheatham,Beaumont West Brook,73.03,165.56,102.06,217.72,485.34,Single-ply,SBD,M
Boys,74.84,2,Kevin Henderson,Shepherd,71.49,165.56,106.59,185.97,458.13,Single-ply,SBD,M
Boys,74.84,3,Kalique Ferguson,Beaumont Ozen,72.76,142.88,115.67,181.44,439.98,Single-ply,SBD,M
Boys,74.84,4,Dezman Simpson,Beaumont Ozen,74.3,129.27,92.99,204.12,426.38,Single-ply,SBD,M
Boys,74.84,5,Thomas Casper,Corrigan-Camden,70.76,129.27,61.23,145.15,335.66,Single-ply,SBD,M
Boys,74.84,6,Chris Reyes,Corrigan-Camden,70.31,102.06,52.16,142.88,297.1,Single-ply,SBD,M
Boys,74.84,DQ,LaKendrick Moore,Corrigan-Camden,74.84,,,,,Single-ply,SBD,M
Boys,74.84,DQ,Logan Blackburn,Huffman Hargrave,74.84,,,,,Single-ply,SBD,M
Boys,74.84,DQ,Nick Durst,Conroe Oak Ridge,74.75,190.51,,,,Single-ply,SBD,M
Boys,74.84,DQ,Josh Saltsman,New Caney,74.84,,,,,Single-ply,SBD,M
Boys,82.1,1,Randolph Onyiejegha,Beaumont West Brook,78.38,208.65,129.27,226.8,564.72,Single-ply,SBD,M
Boys,82.1,2,Jonathon Voltaire,Conroe Oak Ridge,80.29,199.58,136.08,226.8,562.45,Single-ply,SBD,M
Boys,82.1,3,Austin McKean,Conroe Caney Creek,82.1,217.72,133.81,208.65,560.19,Single-ply,SBD,M
Boys,89.81,4,Jesse Reyes,Trinity,82.28,163.29,120.2,195.04,478.54,Single-ply,SBD,M
Boys,82.1,5,Chance Free,Livingston,76.84,181.44,95.25,192.78,469.47,Single-ply,SBD,M
Boys,82.1,6,Jared Hull,New Caney,77.2,174.63,108.86,161.03,444.52,Single-ply,SBD,M
Boys,82.1,7,Justin Knight,Willis,76.75,111.13,63.5,145.15,319.78,Single-ply,SBD,M
Boys,82.1,DQ,Gerald Berry,Beaumont Ozen,82.1,,,,,Single-ply,SBD,M
Boys,89.81,DQ,Donivan Orozco,Huffman Hargrave,82.28,,,,,Single-ply,SBD,M
Boys,82.1,DQ,Kreg Williams,Willis,79.56,147.42,,,,Single-ply,SBD,M
Boys,89.81,1,Jordan Daigle,Beaumont Ozen,85.73,195.04,127.01,233.6,555.65,Single-ply,SBD,M
Boys,89.81,2,Calvin Burks,Corrigan-Camden,88.45,217.72,136.08,199.58,553.38,Single-ply,SBD,M
Boys,89.81,3,Tommy Garrett,New Caney,83.91,199.58,129.27,217.72,546.58,Single-ply,SBD,M
Boys,89.81,4,Tyler Tullos,Conroe Oak Ridge,87.72,219.99,136.08,183.7,539.77,Single-ply,SBD,M
Boys,89.81,5,D'Angelo Godfrey,Beaumont West Brook,87.18,183.7,120.2,226.8,530.7,Single-ply,SBD,M
Boys,89.81,6,Christopher Hodges,Livingston,87.95,197.31,120.2,210.92,528.44,Single-ply,SBD,M
Boys,89.81,7,Colby Clark,Shepherd,83.82,192.78,136.08,170.1,498.95,Single-ply,SBD,M
Boys,89.81,8,Kiethon Johnson,Shepherd,89.27,170.1,120.2,197.31,487.61,Single-ply,SBD,M
Boys,89.81,9,John Moye,Shepherd,85.28,188.24,113.4,183.7,485.34,Single-ply,SBD,M
Boys,89.81,10,Joseph Edwards,New Caney,83.73,199.58,95.25,181.44,476.27,Single-ply,SBD,M
Boys,89.81,11,Cody Bradford,Shepherd,88.81,185.97,95.25,183.7,464.93,Single-ply,SBD,M
Boys,89.81,12,Jacob Heaving,Huffman Hargrave,84.91,161.03,97.52,183.7,442.25,Single-ply,SBD,M
Boys,89.81,13,William Stuberfield,Beaumont West Brook,86.09,188.24,95.25,158.76,442.25,Single-ply,SBD,M
Boys,89.81,14,Herbie Mills,Willis,87.45,142.88,86.18,174.63,403.7,Single-ply,SBD,M
Boys,89.81,15,Joshua Price,Huntsville,88.72,136.08,79.38,156.49,371.95,Single-ply,SBD,M
Boys,89.81,16,Austin Greer,Huffman Hargrave,84.82,124.74,74.84,113.4,312.98,Single-ply,SBD,M
Boys,89.81,DQ,George Stephenson,Conroe Oak Ridge,88.63,249.48,,,,Single-ply,SBD,M
Boys,89.81,DQ,Shaquille Lee,Beaumont Ozen,83.64,83.91,,,,Single-ply,SBD,M
Boys,89.81,DQ,Esau Mejia,Huntsville,89.81,,,,,Single-ply,SBD,M
Boys,89.81,DQ,Keyshawn Gillaspie,Willis,89.81,,,,,Single-ply,SBD,M
Boys,89.81,DQ,Jose Rangel,New Caney,89.81,,,,,Single-ply,SBD,M
Boys,89.81,DQ,Hunter Bland,Livingston,85.73,167.83,97.52,,,Single-ply,SBD,M
Boys,99.79,1,Haden Armstrong,Corrigan-Camden,91.17,219.99,147.42,238.14,605.55,Single-ply,SBD,M
Boys,99.79,2,Kyle Haynes #2,Livingston,96.48,213.19,136.08,213.19,562.45,Single-ply,SBD,M
Boys,99.79,3,Jonathon Delrey,Conroe Oak Ridge,97.43,215.46,120.2,215.46,551.11,Single-ply,SBD,M
Boys,99.79,4,Josh Valenta,Trinity,96.98,195.04,136.08,190.51,521.63,Single-ply,SBD,M
Boys,99.79,5,Chris Andrews,Beaumont West Brook,96.71,192.78,108.86,213.19,514.83,Single-ply,SBD,M
Boys,99.79,6,Dalton Cyr,Huntsville,98.79,192.78,120.2,199.58,512.56,Single-ply,SBD,M
Boys,99.79,7,Caleb Johnson,Huffman Hargrave,98.61,197.31,117.93,183.7,498.95,Single-ply,SBD,M
Boys,99.79,8,Cedric Green,Shepherd,93.26,181.44,113.4,197.31,492.15,Single-ply,SBD,M
Boys,99.79,9,Brenton Tingle,Shepherd,94.8,163.29,106.59,219.99,489.88,Single-ply,SBD,M
Boys,99.79,10,Diundre Washington,Beaumont Ozen,91.63,181.44,122.47,181.44,485.34,Single-ply,SBD,M
Boys,99.79,11,Jarrod Deneault,Huffman Hargrave,91.99,192.78,106.59,181.44,480.81,Single-ply,SBD,M
Boys,99.79,12,Dustin Nicholas,Huntsville,98.07,183.7,92.99,204.12,480.81,Single-ply,SBD,M
Boys,99.79,13,Byrd Purvis,Corrigan-Camden,91.9,124.74,56.7,113.4,294.84,Single-ply,SBD,M
Boys,99.79,DQ,Clay McGuire,New Caney,97.52,206.38,,,,Single-ply,SBD,M
Boys,99.79,DQ,Brandon Franklin,Willis,99.79,,,,,Single-ply,SBD,M
Boys,99.79,DQ,Javoris Brooks,Corrigan-Camden,99.79,,,,,Single-ply,SBD,M
Boys,99.79,DQ,Chase Tubbs,Corrigan-Camden,99.79,,,,,Single-ply,SBD,M
Boys,99.79,DQ,Terrance Cuney,Jasper,99.79,,,,,Single-ply,SBD,M
Boys,109.77,1,Parker Blount,Huntsville,109.59,278.96,181.44,254.01,714.41,Single-ply,SBD,M
Boys,109.77,2,DeAnthony Cuney,Jasper,109.23,244.94,170.1,238.14,653.17,Single-ply,SBD,M
Boys,109.77,3,Dakota Bailey,Shepherd,100.15,240.4,127.01,229.06,596.47,Single-ply,SBD,M
Boys,109.77,4,Miguel Rodriguez,Livingston,100.06,238.14,145.15,192.78,576.06,Single-ply,SBD,M
Boys,109.77,5,Travis Richie,Conroe Oak Ridge,103.96,226.8,133.81,213.19,573.79,Single-ply,SBD,M
Boys,109.77,6,Christian Rodriguez,Willis,108.77,231.33,122.47,215.46,569.26,Single-ply,SBD,M
Boys,109.77,7,Aaron Cunningham,Huffman Hargrave,108.77,215.46,151.95,192.78,560.19,Single-ply,SBD,M
Boys,109.77,8,Lance Zeno,Beaumont Ozen,109.04,204.12,117.93,195.04,517.1,Single-ply,SBD,M
Boys,109.77,9,Cole Brumley,Huntsville,101.15,142.88,92.99,158.76,394.63,Single-ply,SBD,M
Boys,109.77,DQ,Justin Edwards,Conroe Oak Ridge,109.77,,,,,Single-ply,SBD,M
Boys,109.77,DQ,Luis Ruiz,Trinity,109.77,,,,,Single-ply,SBD,M
Boys,124.74,1,Christian Blueitt,Beaumont West Brook,112.31,242.67,154.22,226.8,623.69,Single-ply,SBD,M
Boys,124.74,2,Nathan Ramon,Huntsville,113.22,217.72,131.54,217.72,566.99,Single-ply,SBD,M
Boys,124.74,3,Jordan Johnson #4,Livingston,120.97,204.12,158.76,185.97,548.85,Single-ply,SBD,M
Boys,124.74,4,Sebastian Pecina,Corrigan-Camden,115.48,185.97,113.4,208.65,508.02,Single-ply,SBD,M
Boys,124.74,5,Jimmy White,Willis,124.19,190.51,127.01,185.97,503.49,Single-ply,SBD,M
Boys,124.74,6,Dylan Poindexter,New Caney,110.5,158.76,122.47,165.56,446.79,Single-ply,SBD,M
Boys,124.74,7,Martrell Lemelle,Beaumont Ozen,112.13,97.52,97.52,158.76,353.8,Single-ply,SBD,M
Boys,124.74,8,Deshondric Selman,Beaumont Ozen,112.76,99.79,72.57,181.44,353.8,Single-ply,SBD,M
Boys,124.74,DQ,Christian Jackson,Conroe Oak Ridge,124.74,,,,,Single-ply,SBD,M
Boys,124.74,DQ,Brent Holmes,Conroe Caney Creek,112.49,181.44,,181.44,,Single-ply,SBD,M
Boys,124.74,DQ,Tristan Garza,New Caney,118.57,,,,,Single-ply,SBD,M
Boys,124.74,DQ,Raphael Holiday,Willis,124.74,,,,,Single-ply,SBD,M
Boys,124.74+,1,Andrew Blueitt,Beaumont West Brook,125.19,272.16,172.37,272.16,716.68,Single-ply,SBD,M
Boys,124.74+,2,Des Johnson,Huntsville,136.8,272.16,190.51,249.48,712.14,Single-ply,SBD,M
Boys,124.74+,3,Ashton Limbrick,Jasper,126.01,233.6,142.88,260.82,637.3,Single-ply,SBD,M
Boys,124.74+,4,Ryan Sagmiller,Conroe Oak Ridge,135.62,238.14,165.56,192.78,596.47,Single-ply,SBD,M
Boys,124.74+,5,Jacob Cates,Livingston,131.09,226.8,142.88,192.78,562.45,Single-ply,SBD,M
Boys,124.74+,6,Paul Suttle,Corrigan-Camden,126.73,213.19,120.2,213.19,546.58,Single-ply,SBD,M
Boys,124.74+,7,Quinlan Beck,Shepherd,131.72,183.7,129.27,201.85,514.83,Single-ply,SBD,M
Boys,124.74+,8,Cody Hooks,Willis,134.63,201.85,111.13,192.78,505.76,Single-ply,SBD,M
Boys,124.74+,DQ,Colton Lowe,Conroe Caney Creek,142.34,,102.06,,,Single-ply,SBD,M
