Division,WeightClassKg,Place,Name,Team,BodyweightKg,Best3SquatKg,Best3BenchKg,Best3DeadliftKg,TotalKg,Equipment,Event,Sex,BirthDate
Boys,51.71,1,Alex Salto,Manvel,51.07,104.33,68.04,113.4,285.76,Single-ply,SBD,M,
Boys,51.71,DQ,Jacob Kidwell,Hitchcock,51.44,,52.16,113.4,,Single-ply,SBD,M,
Boys,55.79,1,Noah Hysten,Sweeny,55.7,127.01,72.57,117.93,317.51,Single-ply,SBD,M,
Boys,55.79,2,Jesse Norwood,Needville,51.94,102.06,63.5,99.79,265.35,Single-ply,SBD,M,
Boys,55.79,3,Furrest Greenwood,Needville,51.94,102.06,47.63,104.33,254.01,Single-ply,SBD,M,
Boys,59.87,1,D'Orien Steamer,Freeport Brazosport,59.51,156.49,95.25,167.83,419.57,Single-ply,SBD,M,
Boys,59.87,2,Cayde Brewer,Sweeny,59.69,138.35,111.13,145.15,394.63,Single-ply,SBD,M,
Boys,59.87,3,Noah Burton,Alvin Shadow Creek,59.24,142.88,88.45,151.95,383.29,Single-ply,SBD,M,
Boys,59.87,4,Bryan Lara,Alvin Shadow Creek,59.06,129.27,79.38,163.29,371.95,Single-ply,SBD,M,
Boys,59.87,5,Matthew Martinez,Pasadena Memorial,58.6,127.01,72.57,149.69,349.27,Single-ply,SBD,M,
Boys,59.87,6,Rudy Martinez,Needville,59.87,99.79,81.65,127.01,308.44,Single-ply,SBD,M,
Boys,67.13,1,Richie Garza,West Columbia,66.77,215.46,117.93,208.65,542.04,Single-ply,SBD,M,
Boys,67.13,2,Clayton Gallagher,Alvin Shadow Creek,65.23,190.51,117.93,199.58,508.02,Single-ply,SBD,M,
Boys,67.13,3,Isiah Jackson,Manvel,66.77,183.7,113.4,208.65,505.76,Single-ply,SBD,M,
Boys,67.13,4,Jared Pearson,Clute Brazoswood,65.86,185.97,108.86,197.31,492.15,Single-ply,SBD,M,
Boys,67.13,5,Ashton Norwood,Hitchcock,66.68,172.37,104.33,195.04,471.74,Single-ply,SBD,M,
Boys,67.13,6,Matt Aguilar,Needville,66.59,151.95,90.72,172.37,415.04,Single-ply,SBD,M,
Boys,67.13,7,Dylan Kelly,Clute Brazoswood,66.5,127.01,79.38,163.29,369.68,Single-ply,SBD,M,
Boys,67.13,DQ,Armando Cabriales,Clute Brazoswood,65.5,188.24,111.13,,,Single-ply,SBD,M,
Boys,67.13,DQ,Royce Brooks,Stafford,60.1,79.38,,,,Single-ply,SBD,M,
Boys,67.13,DQ,Sean Cabala,Alvin Shadow Creek,67.13,151.95,,165.56,,Single-ply,SBD,M,
Boys,74.84,1,Regie Marges,Alvin Shadow Creek,73.57,174.63,127.01,231.33,532.97,Single-ply,SBD,M,
Boys,74.84,2,Keegan Anderson,West Columbia,72.39,170.1,133.81,185.97,489.88,Single-ply,SBD,M,
Boys,74.84,3,Junji Chen,Alvin Shadow Creek,71.94,174.63,111.13,201.85,487.61,Single-ply,SBD,M,
Boys,74.84,4,Nate Neely,Clute Brazoswood,69.4,165.56,115.67,183.7,464.93,Single-ply,SBD,M,
Boys,74.84,5,Luis Cantu,Clute Brazoswood,73.57,151.95,92.99,174.63,419.57,Single-ply,SBD,M,
Boys,74.84,6,Garren Heath,West Columbia,67.68,142.88,115.67,151.95,410.5,Single-ply,SBD,M,
Boys,74.84,7,Dylan Folse,Hitchcock,74.39,142.88,72.57,133.81,349.27,Single-ply,SBD,M,
Boys,74.84,DQ,Carlos Montoya,Pasadena Memorial,74.3,165.56,,181.44,,Single-ply,SBD,M,
Boys,74.84,DQ,Sovanara Kuy,Alvin Shadow Creek,73.75,181.44,104.33,215.46,,Single-ply,SBD,M,
Boys,74.84,DQ,Andrew Bonilla,Needville,71.03,,92.99,174.63,,Single-ply,SBD,M,
Boys,82.1,1,Micah Bumgarner,Hitchcock,80.51,222.26,138.35,213.19,573.79,Single-ply,SBD,M,
Boys,82.1,2,Stephen Morales,Hitchcock,76.88,219.99,111.13,208.65,539.77,Single-ply,SBD,M,
Boys,82.1,3,Sean Burns #1,Stafford,76.29,199.58,145.15,190.51,535.24,Single-ply,SBD,M,
Boys,82.1,4,Lemarkus Owens,Manvel,78.93,201.85,115.67,215.46,532.97,Single-ply,SBD,M,
Boys,82.1,5,Noah Cruz,Manvel,81.65,199.58,120.2,192.78,512.56,Single-ply,SBD,M,
Boys,82.1,6,Isaiah Llorens,Stafford,77.66,192.78,113.4,181.44,487.61,Single-ply,SBD,M,
Boys,82.1,7,Blaze Dabelgott,Sweeny,81.83,176.9,122.47,179.17,478.54,Single-ply,SBD,M,
Boys,82.1,8,Chris West,Clute Brazoswood,81.1,158.76,113.4,183.7,455.86,Single-ply,SBD,M,
Boys,82.1,9,Carlo Lewis,Hitchcock,80.97,190.51,83.91,176.9,451.32,Single-ply,SBD,M,
Boys,82.1,10,Jacob Rodriguez #12,Pasadena Memorial,78.2,145.15,90.72,165.56,401.43,Single-ply,SBD,M,
Boys,82.1,11,Franco Godoy,Pasadena Memorial,80.56,145.15,86.18,145.15,376.48,Single-ply,SBD,M,
Boys,82.1,DQ,Kaleb Walker,Hitchcock,81.37,,,,,Single-ply,SBD,M,
Boys,82.1,DQ,Matt Fleming,Hitchcock,80.47,195.04,95.25,,,Single-ply,SBD,M,
Boys,82.1,DQ,Mario Vega,Clute Brazoswood,81.83,242.67,163.29,,,Single-ply,SBD,M,
Boys,82.1,DQ,Alex Leija,Freeport Brazosport,78.29,183.7,115.67,,,Single-ply,SBD,M,
Boys,82.1,DQ,Caleb Mitchell,Hitchcock,78.56,163.29,,,,Single-ply,SBD,M,
Boys,82.1,DQ,Martin Dietz,Needville,79.29,,102.06,,,Single-ply,SBD,M,
Boys,82.1,DQ,Kyler Teckyl,Needville,76.66,,117.93,183.7,,Single-ply,SBD,M,
Boys,89.81,1,Dylan Campbell,Alvin Shadow Creek,89.81,260.82,163.29,231.33,655.44,Single-ply,SBD,M,
Boys,89.81,2,DeMonte Seymore,Manvel,86.27,240.4,136.08,222.26,598.74,Single-ply,SBD,M,
Boys,89.81,3,Pristine Hysten,Sweeny,83.73,210.92,149.69,206.38,566.99,Single-ply,SBD,M,
Boys,89.81,4,Ricardo Medina,Manvel,88.72,199.58,111.13,215.46,526.17,Single-ply,SBD,M,
Boys,89.81,5,Avery Clark #1,Manvel,85.91,190.51,117.93,215.46,523.9,Single-ply,SBD,M,
Boys,89.81,6,Hogan Ashford,Sweeny,85.55,201.85,115.67,183.7,501.22,Single-ply,SBD,M,
Boys,89.81,7,Jayson Peters,Alvin Shadow Creek,88.81,185.97,117.93,197.31,501.22,Single-ply,SBD,M,
Boys,89.81,8,Juan Cuevas,West Columbia,86.18,179.17,115.67,197.31,492.15,Single-ply,SBD,M,
Boys,89.81,9,Anthony Cox,Clute Brazoswood,82.83,174.63,102.06,197.31,474,Single-ply,SBD,M,
Boys,89.81,10,Micheal Gomez,Pasadena Memorial,88.18,183.7,99.79,188.24,471.74,Single-ply,SBD,M,
Boys,89.81,11,Anthony Amako,Stafford,83.82,183.7,113.4,172.37,469.47,Single-ply,SBD,M,
Boys,89.81,12,Rey Garcia,Freeport Brazosport,82.64,167.83,106.59,181.44,455.86,Single-ply,SBD,M,
Boys,89.81,13,Tyler Norman,Hitchcock,82.19,174.63,79.38,185.97,439.98,Single-ply,SBD,M,
Boys,89.81,14,Adrian Frausto,Needville,88.99,147.42,95.25,167.83,410.5,Single-ply,SBD,M,
Boys,89.81,DQ,JaMarcus Davis,Hitchcock,88.59,,,,,Single-ply,SBD,M,
Boys,89.81,DQ,Andres Cabral,Freeport Brazosport,86.55,149.69,,,,Single-ply,SBD,M,
Boys,89.81,DQ,Sean Gonzalez,Clute Brazoswood,88,204.12,120.2,,,Single-ply,SBD,M,
Boys,89.81,DQ,Matt Torres,Needville,88.18,195.04,99.79,,,Single-ply,SBD,M,
Boys,99.79,1,Kelvon Norman,Hitchcock,92.08,263.08,149.69,226.8,639.57,Single-ply,SBD,M,
Boys,99.79,2,Nathan Cabrera,Pasadena Memorial,91.35,226.8,117.93,215.46,560.19,Single-ply,SBD,M,
Boys,99.79,3,Brett Bible,Sweeny,93.26,219.99,142.88,195.04,557.92,Single-ply,SBD,M,
Boys,99.79,4,Israel Deleon,Needville,96.43,199.58,120.2,190.51,510.29,Single-ply,SBD,M,
Boys,99.79,5,Brandon Jackson,Alvin Shadow Creek,98.88,179.17,129.27,201.85,510.29,Single-ply,SBD,M,
Boys,99.79,6,Christian Freiga,Stafford,90.04,208.65,124.74,174.63,508.02,Single-ply,SBD,M,
Boys,99.79,7,Osiris Jackson,Alvin Shadow Creek,94.26,183.7,129.27,176.9,489.88,Single-ply,SBD,M,
Boys,99.79,8,David Collins,Stafford,96.62,151.95,138.35,181.44,471.74,Single-ply,SBD,M,
Boys,99.79,9,Elijah Norwood,Pasadena Memorial,94.8,183.7,90.72,192.78,467.2,Single-ply,SBD,M,
Boys,99.79,10,Francisco Villalobos,Pasadena Memorial,98.7,165.56,92.99,192.78,451.32,Single-ply,SBD,M,
Boys,99.79,11,Jayden Balderaz,Pasadena Memorial,93.89,161.03,102.06,156.49,419.57,Single-ply,SBD,M,
Boys,109.77,1,Landon Henke,Needville,107.05,276.69,149.69,231.33,657.71,Single-ply,SBD,M,
Boys,109.77,2,Chancellor Buford,Alvin Shadow Creek,107.41,226.8,158.76,244.94,630.49,Single-ply,SBD,M,
Boys,109.77,3,Diego Flores,Sweeny,106.23,215.46,161.03,199.58,576.06,Single-ply,SBD,M,
Boys,109.77,4,Adrian Tamez,Pasadena Memorial,102.24,206.38,131.54,224.53,562.45,Single-ply,SBD,M,
Boys,109.77,5,Randy Byrd,Sweeny,103.42,206.38,117.93,208.65,532.97,Single-ply,SBD,M,
Boys,109.77,6,Rexie Parjarillaga,Alvin Shadow Creek,104.6,192.78,124.74,215.46,532.97,Single-ply,SBD,M,
Boys,109.77,7,Jose Jimenez #9,Pasadena Memorial,107.41,183.7,111.13,226.8,521.63,Single-ply,SBD,M,
Boys,109.77,8,Kerwyn Dunlap,Clute Brazoswood,108.32,226.8,113.4,174.63,514.83,Single-ply,SBD,M,
Boys,109.77,9,Rafael Martinez,West Columbia,106.32,199.58,133.81,174.63,508.02,Single-ply,SBD,M,
Boys,109.77,10,Elais Brooks,Manvel,101.24,210.92,106.59,183.7,501.22,Single-ply,SBD,M,
Boys,109.77,11,Gerardo Romero,Alvin Shadow Creek,104.05,165.56,106.59,213.19,485.34,Single-ply,SBD,M,
Boys,109.77,DQ,Lazaro Gutierrez,Hitchcock,109.32,,,,,Single-ply,SBD,M,
Boys,109.77,DQ,Trevino Patt,Stafford,106.68,204.12,127.01,,,Single-ply,SBD,M,
Boys,124.74,1,Dylan Hughes,Alvin Shadow Creek,117.93,229.06,154.22,240.4,623.69,Single-ply,SBD,M,
Boys,124.74,2,Alex Zavalla,Clute Brazoswood,114.94,219.99,154.22,224.53,598.74,Single-ply,SBD,M,
Boys,124.74,3,Randy Robertson,Freeport Brazosport,114.94,226.8,142.88,222.26,591.94,Single-ply,SBD,M,
Boys,124.74,4,Lance McLaren,Sweeny,124.65,215.46,133.81,199.58,548.85,Single-ply,SBD,M,
Boys,124.74,5,Sebastian Carrier,Stafford,114.4,154.22,145.15,233.6,532.97,Single-ply,SBD,M,
Boys,124.74,6,Chris Strange,West Columbia,118.66,210.92,113.4,183.7,508.02,Single-ply,SBD,M,
Boys,124.74,7,Stephen Ashburn,Needville,114.31,195.04,124.74,170.1,489.88,Single-ply,SBD,M,
Boys,124.74,8,Alex Mateo,Pasadena Memorial,120.2,161.03,92.99,183.7,437.72,Single-ply,SBD,M,
Boys,124.74,DQ,Devin Dunlap,Freeport Brazosport,119.02,163.29,,,,Single-ply,SBD,M,
Boys,124.74,DQ,Ricardo Marquez,Needville,121.38,260.82,,219.99,,Single-ply,SBD,M,
Boys,124.74+,1,Mikel Richey,Clute Brazoswood,134.99,285.76,183.7,258.55,728.02,Single-ply,SBD,M,
Boys,124.74+,2,Blake Boenesch,Needville,146.06,281.23,161.03,283.5,725.75,Single-ply,SBD,M,
Boys,124.74+,3,Marcus Smith,Stafford,155.13,183.7,181.44,206.38,571.53,Single-ply,SBD,M,
Boys,124.74+,4,Tim Green,Freeport Brazosport,150.05,240.4,106.59,179.17,526.17,Single-ply,SBD,M,
Boys,124.74+,DQ,Braylon Garcia,Stafford,148.78,,,,,Single-ply,SBD,M,
Boys,124.74+,DQ,Donte Garza,Freeport Brazosport,124.96,163.29,131.54,,,Single-ply,SBD,M,
Boys,124.74+,DQ,Shmir Lewis,Freeport Brazosport,184.52,,,,,Single-ply,SBD,M,
Boys,124.74+,DQ,Shaun Hubbard,Sweeny,126.46,176.9,108.86,,,Single-ply,SBD,M,
Boys,124.74+,DQ,Jacob Jimenez,Stafford,127.01,,,,,Single-ply,SBD,M,
Boys,124.74+,DQ,Trevor Strother,Hitchcock,143.06,,,,,Single-ply,SBD,M,
Boys,124.74+,DQ,Mikal Bryan,Hitchcock,146.28,,,,,Single-ply,SBD,M,
