Sex,WeightClassKg,Name,Division,Team,BodyweightKg,Best3SquatKg,Best3BenchKg,Best3DeadliftKg,TotalKg,Place,Equipment,Event
M,75,Owen Hubbard,M-E-U18,WAL,,215,130,210,555,1,Single-ply,SBD
M,75,Chris Bright,M-E-G,WM,,155,90,185,430,G,Single-ply,SBD
M,75,Phil Richard,M-E-Open,WAL,74.3,220,202.5,235,657.5,1,Single-ply,SBD
M,82.5,Timothy Joseph Keane,M-E-U18,WAL,,180,90,190,460,1,Single-ply,SBD
M,90,Domonic Avo,M-E-M4,WAL,,150,102.5,102.5,355,1,Single-ply,SBD
M,100,Steven Bright,M-E-G,WM,,250,,260,,DQ,Single-ply,SBD
M,100,Michael Richard Saunders,M-E-M1,WAL,,200,150,230,580,1,Single-ply,SBD
M,100,John Mitchell #7,M-E-G,WM,100,320,180,280,780,G,Single-ply,SBD
M,82.5,Matthew Hart,M-E-Open,,,,127.5,,127.5,1,Single-ply,B
