Division,WeightClassKg,Place,Name,Team,BodyweightKg,Best3SquatKg,Best3BenchKg,Best3DeadliftKg,TotalKg,Equipment,Event,Sex
Boys,51.71,1,Max Snodgrass,Blooming Grove,51.07,104.33,63.5,124.74,292.57,Single-ply,SBD,M
Boys,51.71,2,Taylor Kelly,Mabank,50.8,104.33,63.5,104.33,272.16,Single-ply,SBD,M
Boys,51.71,3,Dalton Crawford,Kerens,51.53,90.72,61.23,104.33,256.28,Single-ply,SBD,M
Boys,51.71,4,Brett Butler,Mabank,45.99,97.52,45.36,108.86,251.74,Single-ply,SBD,M
Boys,55.79,5,Ricardo Rodriguez,Athens,51.94,72.57,58.97,104.33,235.87,Single-ply,SBD,M
Boys,51.71,6,Nathan Upshaw,Rusk,40.73,95.25,36.29,81.65,213.19,Single-ply,SBD,M
Boys,51.71,7,James Hughes,Rice,43.09,77.11,47.63,83.91,208.65,Single-ply,SBD,M
Boys,51.71,8,Luis Camacho,Athens,49.99,63.5,40.82,102.06,206.38,Single-ply,SBD,M
Boys,51.71,9,Tyler Warren,Blooming Grove,46.45,77.11,36.29,77.11,190.51,Single-ply,SBD,M
Boys,51.71,DQ,Dakota Hobbs,Brownsboro,44.54,,,,,Single-ply,SBD,M
Boys,55.79,1,Aj Durham,Kemp,54.98,165.56,97.52,158.76,421.84,Single-ply,SBD,M
Boys,59.87,2,Shaquille Fields,Rice,55.88,120.2,70.31,129.27,319.78,Single-ply,SBD,M
Boys,55.79,3,Logan Smith #7,Frankston,55.34,111.13,58.97,142.88,312.98,Single-ply,SBD,M
Boys,59.87,4,Josh Matheson,Mabank,55.88,104.33,77.11,111.13,292.57,Single-ply,SBD,M
Boys,59.87,5,Arturo Ledezma,Mabank,55.88,113.4,61.23,117.93,292.57,Single-ply,SBD,M
Boys,55.79,6,Trey Hamilton,Rusk,55.07,90.72,45.36,106.59,242.67,Single-ply,SBD,M
Boys,59.87,1,Michael House,Brownsboro,58.06,120.2,104.33,147.42,371.95,Single-ply,SBD,M
Boys,59.87,2,Michael Kohl #1,Rosebud-Lott,59.42,133.81,88.45,149.69,371.95,Single-ply,SBD,M
Boys,59.87,3,Jt Delay,Mabank,59.24,149.69,81.65,133.81,365.14,Single-ply,SBD,M
Boys,67.13,4,Derrick Adams,Palestine,59.96,131.54,77.11,142.88,351.53,Single-ply,SBD,M
Boys,59.87,5,Johnny White,Eustace,58.06,133.81,70.31,138.35,342.46,Single-ply,SBD,M
Boys,67.13,6,Luis Dominguez,Rice,60.06,106.59,63.5,129.27,299.37,Single-ply,SBD,M
Boys,67.13,7,John Kruger,Rosebud-Lott,60.06,90.72,70.31,113.4,274.42,Single-ply,SBD,M
Boys,59.87,8,Erick Garcia #6,Athens,59.87,97.52,58.97,106.59,263.08,Single-ply,SBD,M
Boys,67.13,DQ,Ahmed Abuhattab,Eustace,60.06,,,,,Single-ply,SBD,M
Boys,59.87,DQ,Carson Matchin,Kemp,59.69,102.06,,,,Single-ply,SBD,M
Boys,67.13,1,Cris Murray,Kemp,65.95,226.8,131.54,204.12,562.45,Single-ply,SBD,M
Boys,67.13,2,Si Fridiley,Mabank,66.41,206.38,142.88,195.04,544.31,Single-ply,SBD,M
Boys,67.13,3,Dedtrick Smith,Frankston,65.68,199.58,104.33,226.8,530.7,Single-ply,SBD,M
Boys,67.13,4,Trey Jones,Malakoff,64.41,176.9,79.38,167.83,424.11,Single-ply,SBD,M
Boys,67.13,5,Michael Collins,Eustace,65.77,156.49,83.91,167.83,408.23,Single-ply,SBD,M
Boys,67.13,6,Shabrodwick Hill,Athens,65.86,147.42,99.79,147.42,394.63,Single-ply,SBD,M
Boys,67.13,7,Ethan Tennyson,Eustace,63.5,136.08,97.52,145.15,378.75,Single-ply,SBD,M
Boys,67.13,8,Damon Birch,Frankston,60.78,133.81,77.11,165.56,376.48,Single-ply,SBD,M
Boys,67.13,9,Ryan Norman,Kemp,65.32,129.27,108.86,127.01,365.14,Single-ply,SBD,M
Boys,67.13,10,Chaston Bennett,Rusk,60.33,133.81,79.38,142.88,356.07,Single-ply,SBD,M
Boys,74.84,11,Justin Rackley,Frankston,67.31,133.81,88.45,127.01,349.27,Single-ply,SBD,M
Boys,67.13,12,Erick Licea,Malakoff,64.05,131.54,83.91,127.01,342.46,Single-ply,SBD,M
Boys,67.13,13,Michael Watts,Palestine,65.5,122.47,54.43,136.08,312.98,Single-ply,SBD,M
Boys,67.13,14,Josh Kruger,Rosebud-Lott,64.5,102.06,83.91,124.74,310.71,Single-ply,SBD,M
Boys,67.13,15,Daniel Salazar,Athens,62.6,102.06,70.31,129.27,301.64,Single-ply,SBD,M
Boys,67.13,DQ,Justin Warner,Eustace,66.77,,,,,Single-ply,SBD,M
Boys,74.84,1,Jake Wasinger,Blooming Grove,73.39,181.44,90.72,183.7,455.86,Single-ply,SBD,M
Boys,74.84,2,Robert Dominguez,Mabank,71.21,158.76,95.25,185.97,439.98,Single-ply,SBD,M
Boys,74.84,3,Colton Delany,Frankston,72.76,158.76,97.52,181.44,437.72,Single-ply,SBD,M
Boys,74.84,4,Donte Broussard,Brownsboro,74.48,147.42,102.06,172.37,421.84,Single-ply,SBD,M
Boys,74.84,5,Preston Amason,Eustace,68.04,149.69,95.25,158.76,403.7,Single-ply,SBD,M
Boys,74.84,6,John Carter,Rice,73.75,136.08,90.72,165.56,392.36,Single-ply,SBD,M
Boys,74.84,7,Stewart Chambers,Blooming Grove,70.31,131.54,79.38,176.9,387.82,Single-ply,SBD,M
Boys,74.84,8,Rj Newsom,Brownsboro,68.49,136.08,88.45,158.76,383.29,Single-ply,SBD,M
Boys,74.84,9,David Overstreet,Rusk,73.57,136.08,68.04,151.95,356.07,Single-ply,SBD,M
Boys,74.84,10,Chase Emerson,Rusk,71.58,136.08,79.38,138.35,353.8,Single-ply,SBD,M
Boys,74.84,DQ,Javier Ruiz,Rosebud-Lott,69.13,133.81,,,,Single-ply,SBD,M
Boys,74.84,DQ,Connor Hancock,Malakoff,72.71,,,,,Single-ply,SBD,M
Boys,74.84,DQ,Rob Baldree,Blooming Grove,69.49,,,,,Single-ply,SBD,M
Boys,74.84,DQ,Miguel Ramirez,Brownsboro,67.95,138.35,,,,Single-ply,SBD,M
Boys,82.1,1,John Kilgore,Kemp,76.48,183.7,127.01,195.04,505.76,Single-ply,SBD,M
Boys,82.1,2,Mitchell Pinion,Kemp,79.47,197.31,120.2,188.24,505.76,Single-ply,SBD,M
Boys,82.1,3,Harley Feltman,Eustace,82.01,163.29,120.2,192.78,476.27,Single-ply,SBD,M
Boys,82.1,4,Justin Kiker,Brownsboro,76.2,170.1,117.93,179.17,467.2,Single-ply,SBD,M
Boys,82.1,5,Austin Goulette,Rusk,77.84,163.29,104.33,192.78,460.4,Single-ply,SBD,M
Boys,82.1,6,Josh Coleman,Athens,80.74,170.1,113.4,170.1,453.59,Single-ply,SBD,M
Boys,82.1,7,Jody Bernal,Rice,78.11,165.56,104.33,181.44,451.32,Single-ply,SBD,M
Boys,82.1,8,Jose Salazar,Malakoff,79.61,181.44,88.45,172.37,442.25,Single-ply,SBD,M
Boys,82.1,9,Matthew Bullock,Malakoff,77.11,165.56,99.79,161.03,426.38,Single-ply,SBD,M
Boys,82.1,10,Taylor Woodruff,Brownsboro,78.29,158.76,86.18,176.9,421.84,Single-ply,SBD,M
Boys,82.1,11,Dustin Higgs,Malakoff,79.38,158.76,95.25,163.29,417.3,Single-ply,SBD,M
Boys,82.1,12,Jawvan Martin,Athens,80.83,147.42,99.79,165.56,412.77,Single-ply,SBD,M
Boys,89.81,13,Ragan Henderson,Rice,82.28,154.22,99.79,158.76,412.77,Single-ply,SBD,M
Boys,82.1,14,Brock McFarland,Blooming Grove,77.93,158.76,68.04,170.1,396.89,Single-ply,SBD,M
Boys,82.1,15,Michael Kline,Kerens,78.83,151.95,77.11,158.76,387.82,Single-ply,SBD,M
Boys,89.81,1,Jackson Blacketer,Malakoff,89.81,272.16,156.49,254.01,682.66,Single-ply,SBD,M
Boys,89.81,2,Dj Woods,Kerens,82.46,231.33,108.86,213.19,553.38,Single-ply,SBD,M
Boys,89.81,3,Dustin Schultz,Mabank,88.18,208.65,131.54,199.58,539.77,Single-ply,SBD,M
Boys,89.81,4,John Maddigan,Rosebud-Lott,88.18,192.78,129.27,199.58,521.63,Single-ply,SBD,M
Boys,89.81,5,Jimmy Ledesma,Palestine,85.91,195.04,124.74,161.03,480.81,Single-ply,SBD,M
Boys,89.81,6,Ben Torres,Rice,83.01,192.78,104.33,154.22,451.32,Single-ply,SBD,M
Boys,89.81,7,Alex Chicas,Palestine,88.99,163.29,92.99,172.37,428.64,Single-ply,SBD,M
Boys,89.81,8,David Havlik,Malakoff,83.91,142.88,88.45,163.29,394.63,Single-ply,SBD,M
Boys,89.81,DQ,Ray Hodges,Kemp,84.82,226.8,,,,Single-ply,SBD,M
Boys,89.81,DQ,Ty Chambers,Blooming Grove,86.64,,,,,Single-ply,SBD,M
Boys,89.81,DQ,Colby Bragg,Brownsboro,89.45,,,,,Single-ply,SBD,M
Boys,99.79,1,Dillan Bramblitt,Mabank,97.52,281.23,190.51,235.87,707.6,Single-ply,SBD,M
Boys,99.79,2,Braderick Fields,Frankston,99.61,222.26,124.74,249.48,596.47,Single-ply,SBD,M
Boys,99.79,3,Josh Ferrer,Blooming Grove,98.79,215.46,142.88,204.12,562.45,Single-ply,SBD,M
Boys,99.79,4,James Forrest,Kemp,99.79,183.7,127.01,192.78,503.49,Single-ply,SBD,M
Boys,99.79,5,Oscar Olivares,Brownsboro,96.07,204.12,97.52,199.58,501.22,Single-ply,SBD,M
Boys,99.79,6,John Jennings,Kemp,98.07,199.58,120.2,181.44,501.22,Single-ply,SBD,M
Boys,99.79,7,Chris Perkins,Malakoff,96.16,174.63,99.79,158.76,433.18,Single-ply,SBD,M
Boys,99.79,8,Brian Gutierrez,Athens,93.89,154.22,68.04,145.15,367.41,Single-ply,SBD,M
Boys,99.79,9,Eduardo Limon,Athens,91.53,136.08,65.77,145.15,347,Single-ply,SBD,M
Boys,109.77,1,John Trotter,Rusk,106.32,235.87,170.1,251.74,657.71,Single-ply,SBD,M
Boys,109.77,2,Cody Parker,Kemp,109.32,208.65,142.88,192.78,544.31,Single-ply,SBD,M
Boys,124.74,3,Michael Daley,Athens,109.95,181.44,99.79,167.83,449.06,Single-ply,SBD,M
Boys,109.77,4,Marcelino Najera,Palestine,106.68,149.69,122.47,174.63,446.79,Single-ply,SBD,M
Boys,109.77,5,Chris Hobbs,Kerens,109.23,163.29,99.79,174.63,437.72,Single-ply,SBD,M
Boys,109.77,6,Dustin House,Frankston,100.24,147.42,95.25,174.63,417.3,Single-ply,SBD,M
Boys,109.77,DQ,Cameron Kyle,Mabank,106.96,213.19,,,,Single-ply,SBD,M
Boys,124.74,DQ,Alex Martin #7,Brownsboro,109.86,,,,,Single-ply,SBD,M
Boys,124.74,1,Sammy Calhoun,Palestine,117.57,303.91,174.63,235.87,714.41,Single-ply,SBD,M
Boys,124.74,2,Octavius Black,Palestine,123.83,235.87,136.08,263.08,635.03,Single-ply,SBD,M
Boys,124.74,3,Nick Richardson #3,Athens,117.12,235.87,133.81,231.33,601.01,Single-ply,SBD,M
Boys,124.74,4,Dillon Croley,Brownsboro,123.29,226.8,131.54,204.12,562.45,Single-ply,SBD,M
Boys,124.74,5,Cody Barnes,Malakoff,124.51,226.8,120.2,204.12,551.11,Single-ply,SBD,M
Boys,124.74,6,Casey Webb #1,Malakoff,114.53,206.38,104.33,222.26,532.97,Single-ply,SBD,M
Boys,124.74,7,Zack Green,Malakoff,113.85,195.04,90.72,190.51,476.27,Single-ply,SBD,M
Boys,124.74,8,Alberto Rios,Athens,113.58,161.03,79.38,170.1,410.5,Single-ply,SBD,M
Boys,124.74+,1,Reggie Dickson,Rusk,135.9,317.51,151.95,235.87,705.34,Single-ply,SBD,M
Boys,124.74+,2,Drew Cosper,Mabank,153.77,254.01,154.22,197.31,605.55,Single-ply,SBD,M
Boys,124.74+,3,Ryan Turpin,Rosebud-Lott,154.22,158.76,115.67,188.24,462.66,Single-ply,SBD,M
Boys,124.74+,4,Freddy Johnson,Rosebud-Lott,132,188.24,97.52,170.1,455.86,Single-ply,SBD,M
