Division,WeightClassKg,Place,Name,Team,BodyweightKg,Best3SquatKg,Best3BenchKg,Best3DeadliftKg,TotalKg,Equipment,Event,Sex,BirthDate
Boys,55.79,1,Richard Rodriguez,Edinburg,55.79,156.49,92.99,172.37,421.84,Single-ply,SBD,M,
Boys,55.79,2,Fred Mares,Edinburg,55.43,142.88,102.06,172.37,417.3,Single-ply,SBD,M,
Boys,59.87,1,Adrian Garcia,Edinburg Economedes,59.87,165.56,113.4,170.1,449.06,Single-ply,SBD,M,
Boys,67.13,1,Bryan Ramirez,Edinburg North,67.13,165.56,99.79,183.7,449.06,Single-ply,SBD,M,
Boys,67.13,2,Esai Pacheco,Edinburg Vela,63.78,102.06,77.11,127.01,306.17,Single-ply,SBD,M,
Boys,74.84,1,Juan Garza,Edinburg,74.48,224.53,158.76,206.38,589.67,Single-ply,SBD,M,
Boys,74.84,2,Jonah Villarreal,Edinburg Vela,71.76,170.1,102.06,179.17,451.32,Single-ply,SBD,M,
Boys,74.84,3,Brandon Ramirez,Edinburg North,73.84,154.22,127.01,165.56,446.79,Single-ply,SBD,M,
Boys,74.84,4,Luciano Garcia,Edinburg North,73.98,151.95,97.52,158.76,408.23,Single-ply,SBD,M,
Boys,74.84,5,John Lopez Clemente,Edinburg Economedes,74.84,117.93,83.91,136.08,337.93,Single-ply,SBD,M,
Boys,74.84,DQ,Allan Benavidez,Edinburg North,73.3,172.37,,,,Single-ply,SBD,M,
Boys,82.1,1,Robert Ortiz,Edinburg North,81.56,226.8,133.81,226.8,587.4,Single-ply,SBD,M,
Boys,82.1,2,Johnathan Maldonado,Edinburg,80.74,183.7,124.74,149.69,458.13,Single-ply,SBD,M,
Boys,89.81,1,Yael Herrera,Edinburg,89.81,183.7,131.54,208.65,523.9,Single-ply,SBD,M,
Boys,89.81,DQ,Yahir Trejo,Edinburg North,88.18,158.76,,,,Single-ply,SBD,M,
Boys,99.79,1,Noah Martinez #6,Edinburg,96.07,229.06,124.74,210.92,564.72,Single-ply,SBD,M,
Boys,124.74,1,Nathian Garza,Edinburg,123.38,242.67,136.08,204.12,582.87,Single-ply,SBD,M,
Boys,124.74,2,Evan Garcia,Edinburg North,110.77,183.7,102.06,172.37,458.13,Single-ply,SBD,M,
Boys,139.71,1,Marco Gamez,Edinburg Vela,132.99,238.14,156.49,224.53,619.15,Single-ply,SBD,M,
Boys,139.71,2,Dante Ramones,Edinburg North,125.28,224.53,154.22,183.7,562.45,Single-ply,SBD,M,
Boys,139.71,3,Abisai Tijerina,Edinburg Economedes,130.82,195.04,127.01,188.24,510.29,Single-ply,SBD,M,
Boys,139.71,DQ,Vicente Meza,Edinburg Vela,138.62,149.69,,,,Single-ply,SBD,M,
Boys,139.71+,1,Genaro Paez,Edinburg,155.58,274.42,161.03,254.01,689.46,Single-ply,SBD,M,
