Division,WeightClassKg,Place,Name,Team,BodyweightKg,Best3SquatKg,Best3BenchKg,Best3DeadliftKg,TotalKg,Equipment,Event,Sex
Boys,51.71,1,Kyle Ramsey,Navasota,51.71,108.86,65.77,108.86,283.5,Single-ply,SBD,M
Boys,51.71,2,Seth Solis,Troy,51.71,90.72,49.9,99.79,240.4,Single-ply,SBD,M
Boys,51.71,3,Chris Abbot,Navasota,51.71,81.65,47.63,90.72,219.99,Single-ply,SBD,M
Boys,55.79,1,D'Montre Brown,Cameron Yoe,55.79,163.29,90.72,190.51,444.52,Single-ply,SBD,M
Boys,55.79,2,Darius Mallard,Navasota,55.79,138.35,86.18,161.03,385.55,Single-ply,SBD,M
Boys,55.79,3,Dalton Clark,Normangee,55.79,117.93,58.97,136.08,312.98,Single-ply,SBD,M
Boys,55.79,4,Joseph Herrera,Navasota,55.79,104.33,65.77,120.2,290.3,Single-ply,SBD,M
Boys,55.79,5,Dominique Mallard,Navasota,55.79,99.79,63.5,113.4,276.69,Single-ply,SBD,M
Boys,55.79,6,Dylan Bradford,Troy,55.79,97.52,70.31,108.86,276.69,Single-ply,SBD,M
Boys,55.79,7,Jake Schmidt,Troy,55.79,92.99,72.57,108.86,274.42,Single-ply,SBD,M
Boys,59.87,1,Victor Aguilar,Caldwell,59.87,199.58,120.2,170.1,489.88,Single-ply,SBD,M
Boys,59.87,2,Forrest Warren,Georgetown,59.87,176.9,81.65,161.03,419.57,Single-ply,SBD,M
Boys,59.87,3,Kyle Stafford,Navasota,59.87,131.54,72.57,136.08,340.19,Single-ply,SBD,M
Boys,59.87,4,Miguel Valdez,Cameron Yoe,59.87,122.47,74.84,124.74,322.05,Single-ply,SBD,M
Boys,59.87,5,Anthony Ortegon,Cameron Yoe,59.87,86.18,61.23,124.74,272.16,Single-ply,SBD,M
Boys,59.87,6,Brodie Sachs,Georgetown,59.87,83.91,68.04,113.4,265.35,Single-ply,SBD,M
Boys,59.87,7,Byron Williams,Bryan,59.87,74.84,61.23,117.93,254.01,Single-ply,SBD,M
Boys,59.87,8,Gabriel Santillan,Bryan,59.87,127.01,61.23,,188.24,Single-ply,SB,M
Boys,67.13,1,Michael Kohl #1,Rosebud-Lott,64.86,188.24,117.93,192.78,498.95,Single-ply,SBD,M
Boys,67.13,2,Ryan Arnold,Georgetown,65.77,197.31,95.25,172.37,464.93,Single-ply,SBD,M
Boys,67.13,3,Stephen Smith,Iola,66.22,158.76,108.86,185.97,453.59,Single-ply,SBD,M
Boys,67.13,4,Willie Lavan,Cameron Yoe,67.13,145.15,99.79,192.78,437.72,Single-ply,SBD,M
Boys,67.13,5,Mitchell Moore,Iola,61.69,163.29,104.33,163.29,430.91,Single-ply,SBD,M
Boys,67.13,6,Jamil Jackson,Giddings,61.23,183.7,72.57,156.49,412.77,Single-ply,SBD,M
Boys,67.13,7,Franterric Powell,Navasota,64.41,149.69,97.52,147.42,394.63,Single-ply,SBD,M
Boys,67.13,8,Denovious Scaggs,Bremond,67.13,147.42,92.99,151.95,392.36,Single-ply,SBD,M
Boys,67.13,9,Robert Bueno,Georgetown,66.22,136.08,90.72,151.95,378.75,Single-ply,SBD,M
Boys,67.13,10,Carlos Lucio,Bryan,67.13,151.95,83.91,127.01,362.87,Single-ply,SBD,M
Boys,67.13,11,Cody Windham,Bremond,67.13,129.27,65.77,142.88,337.93,Single-ply,SBD,M
Boys,67.13,12,Nick Degelia,Normangee,60.78,136.08,72.57,124.74,333.39,Single-ply,SBD,M
Boys,67.13,13,Ethan Treadway,Cameron Yoe,63.96,124.74,88.45,120.2,333.39,Single-ply,SBD,M
Boys,67.13,14,Daniel Iselt,Giddings,67.13,124.74,65.77,142.88,333.39,Single-ply,SBD,M
Boys,67.13,15,Brett Silverson,Georgetown,67.13,108.86,79.38,131.54,319.78,Single-ply,SBD,M
Boys,67.13,16,Kyle Shannon,Normangee,65.77,120.2,70.31,117.93,308.44,Single-ply,SBD,M
Boys,67.13,17,Ty Hill,Georgetown,67.13,104.33,70.31,111.13,285.76,Single-ply,SBD,M
Boys,67.13,18,Frankie DeLeon,Navasota,65.32,140.61,,140.61,281.23,Single-ply,SD,M
Boys,67.13,19,Brendan Myers,Cameron Yoe,67.13,111.13,61.23,102.06,274.42,Single-ply,SBD,M
Boys,74.84,1,Kendrick Armstead,Navasota,71.67,258.55,142.88,229.06,630.49,Single-ply,SBD,M
Boys,74.84,2,Pete Quintero,Bryan,72.12,183.7,127.01,181.44,492.15,Single-ply,SBD,M
Boys,74.84,3,Tom Lawless,Rogers,71.21,174.63,102.06,195.04,471.74,Single-ply,SBD,M
Boys,74.84,4,Tristan Dudley,Rogers,70.76,165.56,92.99,158.76,417.3,Single-ply,SBD,M
Boys,74.84,5,Logan Jones,Caldwell,72.12,158.76,81.65,161.03,401.43,Single-ply,SBD,M
Boys,74.84,6,Caleb Cash,Cameron Yoe,73.03,142.88,83.91,158.76,385.55,Single-ply,SBD,M
Boys,74.84,7,Austin Cude,Navasota,69.4,122.47,97.52,149.69,369.68,Single-ply,SBD,M
Boys,74.84,8,Clayton Stuart,Caldwell,68.95,136.08,74.84,136.08,347,Single-ply,SBD,M
Boys,74.84,9,Esteban Nunez,Caldwell,68.04,136.08,61.23,136.08,333.39,Single-ply,SBD,M
Boys,74.84,10,Antwon Wallace,Bryan,68.04,127.01,77.11,122.47,326.59,Single-ply,SBD,M
Boys,74.84,DQ,Matt Dloughy,Caldwell,71.67,129.27,,140.61,,Single-ply,SBD,M
Boys,82.1,1,Damian Kozak,Bremond,76.66,240.4,145.15,219.99,605.55,Single-ply,SBD,M
Boys,82.1,2,Sotero Lara,Giddings,76.66,183.7,117.93,204.12,505.76,Single-ply,SBD,M
Boys,82.1,3,Caleb Schneebeli,Bryan Rudder,79.38,174.63,106.59,213.19,494.42,Single-ply,SBD,M
Boys,82.1,4,Patrick Tobin,Georgetown,77.11,161.03,127.01,188.24,476.27,Single-ply,SBD,M
Boys,82.1,5,Joseph Mendoza,Giddings,77.11,197.31,83.91,192.78,474,Single-ply,SBD,M
Boys,82.1,6,Michael Evan,Cameron Yoe,77.56,185.97,95.25,190.51,471.74,Single-ply,SBD,M
Boys,82.1,7,Eric Washington,Bryan Rudder,82.1,172.37,104.33,190.51,467.2,Single-ply,SBD,M
Boys,82.1,8,Austin McNeill,Rogers,77.11,158.76,102.06,197.31,458.13,Single-ply,SBD,M
Boys,82.1,9,Colton Mayo,Troy,77.56,136.08,140.61,181.44,458.13,Single-ply,SBD,M
Boys,82.1,10,John Lawless,Rogers,76.66,170.1,99.79,181.44,451.32,Single-ply,SBD,M
Boys,82.1,11,Diego Martinez,Troy,75.3,142.88,122.47,158.76,424.11,Single-ply,SBD,M
Boys,82.1,12,Preston Starcher,Troy,76.2,156.49,102.06,151.95,410.5,Single-ply,SBD,M
Boys,82.1,13,Kevin Harris,Navasota,77.11,158.76,92.99,158.76,410.5,Single-ply,SBD,M
Boys,82.1,14,Bryson Jones,Rogers,78.02,136.08,95.25,158.76,390.09,Single-ply,SBD,M
Boys,82.1,15,Levi Reeves,Cameron Yoe,80.29,145.15,68.04,167.83,381.02,Single-ply,SBD,M
Boys,82.1,16,Mason Alexander,Georgetown,79.38,124.74,86.18,136.08,347,Single-ply,SBD,M
Boys,82.1,17,Will Smith #3,Navasota,75.75,131.54,86.18,124.74,342.46,Single-ply,SBD,M
Boys,82.1,18,Jake Bauer,Navasota,76.66,181.44,,158.76,340.19,Single-ply,SD,M
Boys,82.1,19,Billy Brewer,Bremond,81.19,97.52,63.5,122.47,283.5,Single-ply,SBD,M
Boys,82.1,DQ,Blake Carter,Troy,75.3,113.4,81.65,158.76,,Single-ply,SBD,M
Boys,82.1,DQ,Griffin Smith,Troy,80.74,133.81,77.11,122.47,,Single-ply,SBD,M
Boys,89.81,1,Chris Hubnik,Rogers,89.81,251.74,138.35,233.6,623.69,Single-ply,SBD,M
Boys,89.81,2,Jonathan Massey,Caldwell,86.18,204.12,120.2,192.78,517.1,Single-ply,SBD,M
Boys,89.81,3,Howard Horn,Navasota,83.46,170.1,136.08,195.04,501.22,Single-ply,SBD,M
Boys,89.81,4,Shane Henry,Cameron Yoe,86.18,154.22,117.93,190.51,462.66,Single-ply,SBD,M
Boys,89.81,5,Connor Dieringer,Georgetown,83.01,179.17,106.59,158.76,444.52,Single-ply,SBD,M
Boys,89.81,6,Alex Rodriguez #4,Bryan Rudder,88.45,149.69,92.99,170.1,412.77,Single-ply,SBD,M
Boys,89.81,7,Nic Fortenberry,Troy,86.64,147.42,86.18,154.22,387.82,Single-ply,SBD,M
Boys,99.79,1,John Maddigan,Rosebud-Lott,95.25,244.94,154.22,244.94,644.1,Single-ply,SBD,M
Boys,99.79,2,Juan Nunez,Caldwell,96.62,219.99,138.35,215.46,573.79,Single-ply,SBD,M
Boys,99.79,3,Heath Antwan,Caldwell,96.62,204.12,115.67,213.19,532.97,Single-ply,SBD,M
Boys,99.79,4,Cory Goosby,Bryan,96.62,199.58,122.47,208.65,530.7,Single-ply,SBD,M
Boys,99.79,5,Austin Talafuse,Rosebud-Lott,98.88,172.37,113.4,181.44,467.2,Single-ply,SBD,M
Boys,99.79,6,Joseph Huffman,Rogers,99.34,151.95,111.13,142.88,405.97,Single-ply,SBD,M
Boys,99.79,7,Matt Miller,Bryan,91.17,147.42,92.99,147.42,387.82,Single-ply,SBD,M
Boys,99.79,8,Ej Waggy,Rogers,97.07,204.12,,181.44,385.55,Single-ply,SD,M
Boys,99.79,9,Clayton Lapp,Bryan Rudder,96.16,136.08,102.06,140.61,378.75,Single-ply,SBD,M
Boys,99.79,10,David Rameriez,Navasota,90.63,149.69,77.11,136.08,362.87,Single-ply,SBD,M
Boys,99.79,11,John Paul Gonzales,Bryan Rudder,92.53,122.47,79.38,145.15,347,Single-ply,SBD,M
Boys,99.79,12,Paul Crawford,Cameron Yoe,92.9,127.01,90.72,120.2,337.93,Single-ply,SBD,M
Boys,99.79,13,Zack Pavlock,Navasota,90.17,113.4,81.65,140.61,335.66,Single-ply,SBD,M
Boys,99.79,14,Aaron Johnson,Georgetown,99.79,124.74,79.38,127.01,331.12,Single-ply,SBD,M
Boys,99.79,15,Trent Watkins,Normangee,96.16,124.74,63.5,133.81,322.05,Single-ply,SBD,M
Boys,99.79,16,Josh Freeman,Hubbard,92.53,217.72,,,217.72,Single-ply,S,M
Boys,109.77,1,Lorenzo Martinez,Georgetown,107.5,233.6,142.88,190.51,566.99,Single-ply,SBD,M
Boys,109.77,2,Trevon Williams,Rosebud-Lott,102.06,188.24,136.08,210.92,535.24,Single-ply,SBD,M
Boys,109.77,3,Chris Marquez,Giddings,102.06,204.12,111.13,195.04,510.29,Single-ply,SBD,M
Boys,109.77,4,Josh Dragoo,Troy,102.97,195.04,122.47,172.37,489.88,Single-ply,SBD,M
Boys,109.77,5,Chance Cottle,Georgetown,104.78,192.78,108.86,176.9,478.54,Single-ply,SBD,M
Boys,109.77,6,Cody Nichols,Navasota,107.05,158.76,92.99,172.37,424.11,Single-ply,SBD,M
Boys,109.77,7,Joey Lyons,Cameron Yoe,107.05,142.88,92.99,185.97,421.84,Single-ply,SBD,M
Boys,109.77,8,Roberto Requena,Caldwell,109.32,151.95,83.91,183.7,419.57,Single-ply,SBD,M
Boys,109.77,9,Cameron Mueck,Cameron Yoe,104.6,163.29,90.72,149.69,403.7,Single-ply,SBD,M
Boys,109.77,10,Juan Valverde,Cameron Yoe,106.59,158.76,86.18,145.15,390.09,Single-ply,SBD,M
Boys,109.77,11,Tyler Thompson,Rogers,101.15,131.54,72.57,122.47,326.59,Single-ply,SBD,M
Boys,109.77,DQ,Nathan Carrasco,Cameron Yoe,106.59,,,,,Single-ply,SBD,M
Boys,124.74,DQ,Michael Cadena,Bryan,123.83,,,,,Single-ply,SBD,M
Boys,124.74,2,Autra Maxey,Navasota,114.31,235.87,140.61,249.48,625.96,Single-ply,SBD,M
Boys,124.74,3,Ryan Zdroik,Rogers,114.76,233.6,156.49,231.33,621.42,Single-ply,SBD,M
Boys,124.74,4,Jordan Wells,Navasota,116.12,226.8,147.42,208.65,582.87,Single-ply,SBD,M
Boys,124.74,5,Dylon Isom,Normangee,122.02,242.67,113.4,226.8,582.87,Single-ply,SBD,M
Boys,124.74,6,Tyler Preston,Georgetown,112.04,229.06,138.35,210.92,578.33,Single-ply,SBD,M
Boys,124.74,7,John Pineda,Troy,111.13,199.58,113.4,213.19,526.17,Single-ply,SBD,M
Boys,124.74,8,Rakheem Thompson,Navasota,119.75,181.44,102.06,181.44,464.93,Single-ply,SBD,M
Boys,124.74,9,Ronald Brown,Navasota,122.92,154.22,77.11,149.69,381.02,Single-ply,SBD,M
Boys,124.74+,1,LaPear Willrich,Giddings,131.54,249.48,170.1,240.4,659.98,Single-ply,SBD,M
Boys,124.74+,2,Keith Lewis,Bryan,129.27,272.16,145.15,226.8,644.1,Single-ply,SBD,M
Boys,124.74+,3,Danny Bricker,Giddings,149.23,244.94,151.95,226.8,623.69,Single-ply,SBD,M
Boys,124.74+,4,Tyler White #4,Navasota,149.69,204.12,115.67,181.44,501.22,Single-ply,SBD,M
Boys,124.74+,5,Jonathon Ramirez,Giddings,144.7,,165.56,208.65,374.21,Single-ply,BD,M
