Place,WeightClassKg,Sex,Tested,Event,Equipment,Name,CyrillicName,Division,Age,BirthDate,BodyweightKg,Country,Squat1Kg,Squat2Kg,Squat3Kg,Best3SquatKg,Squat4Kg,Bench1Kg,Bench2Kg,Bench3Kg,Best3BenchKg,Bench4Kg,Deadlift1Kg,Deadlift2Kg,Deadlift3Kg,Best3DeadliftKg,Deadlift4Kg,TotalKg
1,56,F,Yes,D,Single-ply,Marina Kamyshnikova,Марина Камышникова,Open,39,1979-02-16,55.8,Russia,,,,,,,,,,,150,-160,-160,150,,150
1,48,F,Yes,D,Raw,Anastasiya Vedeneeva,Анастасия Веденеева,Open,36,1981-11-21,45.7,Russia,,,,,,,,,,,122.5,127.5,-132.5,127.5,,127.5
2,48,F,Yes,D,Raw,Mariya Lukasevich,Мария Лукасевич,Open,29,1989-04-28,48,Russia,,,,,,,,,,,117.5,122.5,-127.5,122.5,,122.5
1,52,F,Yes,D,Raw,Elizaveta Andreeva,Елизавета Андреева,Open,29,1989-07-31,51.1,Russia,,,,,,,,,,,122.5,127.5,130,130,,130
2,52,F,Yes,D,Raw,Elena Chobanu,Елена Чобану,Open,27,1990-12-14,50.8,Russia,,,,,,,,,,,102.5,105,-110,105,,105
1,56,F,Yes,D,Raw,Larisa Demina,Лариса Демина,Teen 15-19,17,2001-07-27,56,Russia,,,,,,,,,,,125,130,-132.5,130,,130
1,56,F,Yes,D,Raw,Natalya Levenkova,Наталья Левенкова,Open,30,1988-09-16,54.4,Russia,,,,,,,,,,,135,140,-142.5,140,,140
2,56,F,Yes,D,Raw,Larisa Demina,Лариса Демина,Open,17,2001-07-27,56,Russia,,,,,,,,,,,125,130,-132.5,130,,130
1,56,F,Yes,D,Raw,Nataliya Sorochinskaya,Наталия Сорочинская,Masters 40-44,44,1974-04-19,53.8,Russia,,,,,,,,,,,110,-122.5,122.5,122.5,,122.5
1,60,F,Yes,D,Raw,Polina Barinova,Полина Баринова,Juniors 20-23,20,1998-11-15,59.2,Russia,,,,,,,,,,,-115,115,122.5,122.5,,122.5
2,60,F,Yes,D,Raw,Natalya Koloskova,Наталья Колоскова,Juniors 20-23,22,1996-07-22,58,Russia,,,,,,,,,,,85,-92.5,-92.5,85,,85
1,60,F,Yes,D,Raw,Ekaterina Dmitrieva,Екатерина Дмитриева,Open,29,1989-01-27,59.4,Russia,,,,,,,,,,,100,110,115,115,,115
2,60,F,Yes,D,Raw,Anastasiya Zvereva,Анастасия Зверева,Open,29,1989-09-23,60,Russia,,,,,,,,,,,100,-112.5,-112.5,100,,100
1,60,F,Yes,D,Raw,Lidiya Migaeva,Лидия Мигаева,Masters 40-44,44,1974-10-20,59.6,Russia,,,,,,,,,,,100,115,125,125,,125
1,67.5,F,Yes,D,Raw,Sofya Krylova,Софья Крылова,Teen 15-19,16,2002-06-19,67.3,Russia,,,,,,,,,,,90,100,110,110,,110
1,67.5,F,Yes,D,Raw,Oksana Ivanova,Оксана Иванова,Open,36,1982-01-28,66.1,Russia,,,,,,,,,,,-110,110,122.5,122.5,,122.5
2,67.5,F,Yes,D,Raw,Mariya Fedorova,Мария Федорова,Open,24,1994-02-25,67.5,Russia,,,,,,,,,,,110,-120,-120,110,,110
3,67.5,F,Yes,D,Raw,Elena Demina,Елена Демина,Open,39,1979-01-01,62.7,Russia,,,,,,,,,,,95,105,-115,105,,105
4,67.5,F,Yes,D,Raw,Mariya Kozhina,Мария Кожина,Open,27,1991-11-14,61.2,Russia,,,,,,,,,,,-80,80,-95,80,,80
1,67.5,F,Yes,D,Raw,Irina Pushkareva,Ирина Пушкарева,Masters 55-59,57,1961-08-28,65.5,Russia,,,,,,,,,,,117.5,130,135,135,,135
1,75,F,Yes,D,Raw,Olesya Starova,Олеся Старова,Teen 15-19,18,2000-09-29,74.4,Russia,,,,,,,,,,,115,117.5,120,120,,120
1,75,F,Yes,D,Raw,Aksana Tretyakova,Аксана Третьякова,Masters 50-54,53,1965-03-19,75,Russia,,,,,,,,,,,107.5,112.5,-120,112.5,,112.5
1,82.5,F,Yes,D,Raw,Nina Biryukova,Нина Бирюкова,Masters 45-49,47,1971-06-05,76.6,Russia,,,,,,,,,,,125,137.5,150,150,,150
1,60,M,Yes,D,Raw,Daniil Meshkov,Даниил Мешков,Teen 15-19,15,2003-04-04,59.6,Russia,,,,,,,,,,,130,140,145,145,,145
1,67.5,M,Yes,D,Raw,Aleksandr Grakhov,Александр Грахов,Teen 15-19,17,2001-06-12,65.7,Russia,,,,,,,,,,,167.5,172.5,,172.5,,172.5
2,67.5,M,Yes,D,Raw,Dmitriy Khodkin,Дмитрий Ходкин,Teen 15-19,15,2002-12-20,67,Russia,,,,,,,,,,,105,117.5,125,125,,125
3,67.5,M,Yes,D,Raw,Sergey Maslakov,Сергей Маслаков,Teen 15-19,18,2000-06-23,60.3,Russia,,,,,,,,,,,90,110,-130,110,,110
1,67.5,M,Yes,D,Raw,Anton Kostyuchenko,Антон Костюченко,Juniors 20-23,23,1995-03-29,64.7,Russia,,,,,,,,,,,185,-195,-195,185,,185
2,67.5,M,Yes,D,Raw,Mokhamed Makhmud,Мохамед Махмуд,Juniors 20-23,22,1996-10-10,65.6,Iraq,,,,,,,,,,,-170,-170,170,170,,170
1,75,M,Yes,D,Raw,Rodion Tarasov,Родион Тарасов,Teen 15-19,19,1999-03-12,73.8,Russia,,,,,,,,,,,225,237.5,-250,237.5,,237.5
1,75,M,Yes,D,Raw,Omed Khaydar,Омед Хайдар,Juniors 20-23,22,1996-01-01,73.1,Iraq,,,,,,,,,,,195,207.5,215,215,,215
1,75,M,Yes,D,Raw,Evgeniy Mishchenko,Евгений Мищенко,Open,35,1983-04-08,70.7,Russia,,,,,,,,,,,125,-140,-140,125,,125
1,75,M,Yes,D,Raw,Valeriy Ryabukhin,Валерий Рябухин,Masters 40-44,41,1977-04-18,74.4,Russia,,,,,,,,,,,200,-230,-230,200,,200
1,75,M,Yes,D,Raw,Aleksandr Solovev,Александр Соловьев,Masters 50-54,50,1968-11-04,74.5,Russia,,,,,,,,,,,182.5,192.5,-200,192.5,,192.5
1,75,M,Yes,D,Raw,Vladimir Zhakin,,Masters 65-69,66,1952-09-15,73,Russia,,,,,,,,,,,135,-142.5,,135,,135
2,75,M,Yes,D,Raw,Aleksandr Gubanov,Александр Губанов,Masters 65-69,67,1951-02-06,74.5,Russia,,,,,,,,,,,85,110,-120,110,,110
1,75,M,Yes,D,Raw,Nikolay Vetrov,Николай Ветров,Masters 70-74,73,1945-09-12,74.5,Russia,,,,,,,,,,,135,140,142.5,142.5,,142.5
1,75,M,Yes,D,Raw,Aleksandr Kulikov,Александр Куликов,Masters 75-79,77,1941-09-13,74.9,Russia,,,,,,,,,,,160,180,190,190,,190
1,82.5,M,Yes,D,Raw,Sergey Evseev,Сергей Евсеев,Open,28,1990-10-09,78.9,Russia,,,,,,,,,,,235,255,-260,255,,255
2,82.5,M,Yes,D,Raw,Stanislav Kholodnyy,Станислав Холодный,Open,31,1987-07-09,81.7,Russia,,,,,,,,,,,197.5,215,222.5,222.5,,222.5
3,82.5,M,Yes,D,Raw,Mikhail Lebedev,Михаил Лебедев,Open,22,1996-02-01,80.4,Russia,,,,,,,,,,,210,-220,-220,210,,210
4,82.5,M,Yes,D,Raw,Roman Semenov,Роман Семенов,Open,30,1988-07-12,81.4,Russia,,,,,,,,,,,200,-205,205,205,,205
5,82.5,M,Yes,D,Raw,Artyom Segida,Артём Сегида,Open,33,1985-07-25,82.5,Russia,,,,,,,,,,,185,-192.5,-192.5,185,,185
1,82.5,M,Yes,D,Raw,Aleksey Arapov,Алексей Арапов,Masters 45-49,49,1969-06-03,81.1,Russia,,,,,,,,,,,180,190,200,200,,200
1,82.5,M,Yes,D,Raw,Oleg Shishkov,Олег Шишков,Masters 50-54,53,1965-05-14,78.2,Russia,,,,,,,,,,,130,160,-165,160,,160
1,82.5,M,Yes,D,Raw,Viktor Skokin,Виктор Скокин,Masters 60-64,61,1957-06-20,79.1,Russia,,,,,,,,,,,200,215,222.5,222.5,,222.5
1,90,M,Yes,D,Raw,Mikhail Kirin,Михаил Кирин,Teen 15-19,19,1998-12-10,83.3,Russia,,,,,,,,,,,180,190,205,205,,205
2,90,M,Yes,D,Raw,Vladislav Sukharev,Владислав Сухарев,Teen 15-19,19,1999-03-29,85.5,Russia,,,,,,,,,,,180,190,-200,190,,190
1,90,M,Yes,D,Raw,Aleksandr Shchegolskiy,Александр Щегольский,Juniors 20-23,21,1996-12-23,84.5,Russia,,,,,,,,,,,-220,220,-230,220,,220
2,90,M,Yes,D,Raw,Vyacheslav Dryakhlov,Вячеслав Дряхлов,Juniors 20-23,20,1998-06-08,87.1,Russia,,,,,,,,,,,215,-227.5,-227.5,215,,215
3,90,M,Yes,D,Raw,Loic Marrier,,Juniors 20-23,20,1998-01-22,89.6,Mauritania,,,,,,,,,,,140,150,160,160,,160
1,90,M,Yes,D,Raw,Andrey Gromov,Андрей Громов,Open,24,1994-06-12,88.4,Russia,,,,,,,,,,,230,240,-250,240,,240
2,90,M,Yes,D,Raw,Maksim Osipov,Максим Осипов,Open,29,1989-06-18,89.5,Russia,,,,,,,,,,,220,230,-245,230,,230
3,90,M,Yes,D,Raw,Vladimir Epifanov,Владимир Епифанов,Open,48,1970-09-27,88.5,Russia,,,,,,,,,,,195,210,215,215,,215
4,90,M,Yes,D,Raw,Anton Khrabrov,Антон Храбров,Open,26,1992-07-15,86.8,Russia,,,,,,,,,,,-125,132.5,140,140,,140
1,90,M,Yes,D,Raw,Vladimir Epifanov,Владимир Епифанов,Masters 45-49,48,1970-09-27,88.5,Russia,,,,,,,,,,,195,210,215,215,,215
1,90,M,Yes,D,Raw,Vladimir Fokin,Владимир Фокин,Masters 50-54,53,1965-09-29,86.9,Russia,,,,,,,,,,,-227.5,227.5,-240,227.5,,227.5
1,90,M,Yes,D,Raw,Abdulla Shikhiev,Абдулла Шихиев,Masters 55-59,59,1959-01-19,89.6,Russia,,,,,,,,,,,130,140,150,150,,150
1,90,M,Yes,D,Raw,Yuriy Kirpichyov,Юрий Кирпичёв,Masters 60-64,63,1955-04-14,87.7,Russia,,,,,,,,,,,150,170,182.5,182.5,,182.5
1,100,M,Yes,D,Raw,Vladislav Surzhikov,Владислав Суржиков,Teen 15-19,19,1999-02-10,94.4,Russia,,,,,,,,,,,-180,-180,180,180,,180
1,100,M,Yes,D,Raw,Aleksey Sysoev,Алексей Сысоев,Open,30,1988-05-24,96.7,Russia,,,,,,,,,,,260,277.5,-285,277.5,,277.5
2,100,M,Yes,D,Raw,Aleksandr Lebedev,Александр Лебедев,Open,32,1986-03-17,97.5,Russia,,,,,,,,,,,240,250,-260,250,,250
3,100,M,Yes,D,Raw,Ivan Bogachev,Иван Богачев,Open,40,1978-06-08,96.4,Russia,,,,,,,,,,,190,205,227.5,227.5,,227.5
4,100,M,Yes,D,Raw,Aleksandr Lakalin,Александр Лакалин,Open,39,1979-07-15,93.1,Russia,,,,,,,,,,,195,207.5,215,215,,215
5,100,M,Yes,D,Raw,Vadim Skornyakov,Вадим Скорняков,Open,36,1982-10-23,95.8,Russia,,,,,,,,,,,200,207.5,-227.5,207.5,,207.5
6,100,M,Yes,D,Raw,Maksim Kondrashov,Максим Кондрашов,Open,29,1988-11-26,98.1,Russia,,,,,,,,,,,185,192.5,200,200,,200
DQ,100,M,Yes,D,Raw,Dmitriy Pavlovskiy,Дмитрий Павловский,Open,30,1988-02-01,99.4,Russia,,,,,,,,,,,-270,,,,,
1,100,M,Yes,D,Raw,Roman Belyaev,Роман Беляев,Masters 40-44,42,1976-01-22,99.1,Russia,,,,,,,,,,,230,245,-260,245,,245
2,100,M,Yes,D,Raw,Ivan Bogachev,Иван Богачев,Masters 40-44,40,1978-06-08,96.4,Russia,,,,,,,,,,,190,205,227.5,227.5,,227.5
1,100,M,Yes,D,Raw,Artem Vesnin,Артем Веснин,Masters 45-49,47,1971-09-08,99.3,Russia,,,,,,,,,,,140,150,160,160,,160
1,100,M,Yes,D,Raw,Vyacheslav Shadrin,Вячеслав Шадрин,Masters 50-54,50,1968-02-21,98.5,Russia,,,,,,,,,,,180,207.5,,207.5,,207.5
1,110,M,Yes,D,Raw,Sergey Kholodov,Сергей Холодов,Open,29,1989-07-08,107.6,Russia,,,,,,,,,,,220,250,272.5,272.5,,272.5
2,110,M,Yes,D,Raw,Ruslan Kulebyakin,Руслан Кулебякин,Open,27,1991-02-26,106.5,Russia,,,,,,,,,,,250,260,270,270,,270
1,110,M,Yes,D,Raw,Sergey Lyubochkin,Сергей Любочкин,Masters 40-44,41,1977-06-19,109.3,Russia,,,,,,,,,,,235,245,250,250,,250
1,110,M,Yes,D,Raw,Konstantin Samarskiy,Константин Самарский,Masters 55-59,56,1962-01-06,107.7,Russia,,,,,,,,,,,190,195,205,205,,205
1,125,M,Yes,D,Raw,Andrey Kryuchkov,Андрей Крючков,Open,38,1980-10-20,123.2,Russia,,,,,,,,,,,290,310,-330,310,,310
2,125,M,Yes,D,Raw,Rustam Umarov,Рустам Умаров,Open,27,1990-12-03,118.5,Russia,,,,,,,,,,,235,252.5,255,255,,255
3,125,M,Yes,D,Raw,Albert Abdullin,Альберт Абдуллин,Open,28,1989-11-22,118.7,Russia,,,,,,,,,,,-252.5,252.5,255,255,,255
4,125,M,Yes,D,Raw,Nikolay Markin,Николай Маркин,Open,37,1981-03-14,115.7,Russia,,,,,,,,,,,220,-240,-252.5,220,,220
1,125,M,Yes,D,Raw,Vyacheslav Batyrov,Вячеслав Батыров,Masters 40-44,43,1975-02-08,119.3,Russia,,,,,,,,,,,220,240,250,250,,250
DQ,140,M,Yes,D,Raw,Kirill Zaytsev,Кирилл Зайцев,Teen 15-19,18,2000-05-10,129.1,Russia,,,,,,,,,,,-220,,,,,
1,60,F,No,D,Single-ply,Irina Borisova,Ирина Борисова,Open,36,1981-12-07,60,Russia,,,,,,,,,,,80,92.5,-100,92.5,,92.5
1,100,M,No,D,Single-ply,Aleksey Krivonogov,Алексей Кривоногов,Open,37,1980-11-29,96.1,Russia,,,,,,,,,,,310,-320,,310,,310
2,100,M,No,D,Single-ply,Aleksandr Nosov,Александр Носов,Open,33,1985-01-31,95.7,Russia,,,,,,,,,,,285,-297.5,,285,,285
1,100,M,No,D,Single-ply,Valentin Andreev,Валентин Андреев,Masters 70-74,70,1948-05-06,92.8,Russia,,,,,,,,,,,220,237.5,245,245,,245
1,125,M,No,D,Single-ply,David Carter #1,,Masters 70-74,71,1947-08-08,122.4,England,,,,,,,,,,,182.5,207.5,227.5,227.5,,227.5
1,52,F,No,D,Raw,Elena Parovatkina,Елена Пароваткина,Open,27,1991-09-10,51.5,Russia,,,,,,,,,,,165,-172.5,-172.5,165,,165
1,67.5,F,No,D,Raw,Yuliya Pyrsina,Юлия Пырсина,Open,33,1985-05-09,66.3,Russia,,,,,,,,,,,-180,185,190,190,,190
1,60,M,No,D,Raw,Oleg Vashchenko,Олег Ващенко,Open,38,1980-05-12,59.1,Russia,,,,,,,,,,,-145,150,165,165,,165
1,75,M,No,D,Raw,Dmitriy Kosmos,Дмитрий Космос,Open,24,1994-07-25,73,Russia,,,,,,,,,,,215,225,-240,225,,225
1,82.5,M,No,D,Raw,Dmitriy Kabashov,Дмитрий Кабашов,Juniors 20-23,22,1996-11-06,79.7,Russia,,,,,,,,,,,215,-225,-225,215,,215
1,82.5,M,No,D,Raw,Grigoriy Ponomarenko,Григорий Пономаренко,Open,25,1993-01-18,81.7,Russia,,,,,,,,,,,200,220,-232.5,220,,220
2,82.5,M,No,D,Raw,Andrey Rul,Андрей Руль,Open,36,1982-07-24,79.6,Russia,,,,,,,,,,,180,185,190,190,,190
1,82.5,M,No,D,Raw,Aleksey Yagunov,Алексей Ягунов,Masters 50-54,50,1968-07-19,81.8,Russia,,,,,,,,,,,225,240,-252.5,240,,240
1,90,M,No,D,Raw,Aleksey Bender,Алексей Бендер,Juniors 20-23,21,1997-04-27,88.6,Russia,,,,,,,,,,,170,185,200,200,,200
1,90,M,No,D,Raw,Aleksey Shchekunov,Алексей Щекунов,Open,34,1984-07-17,87.9,Russia,,,,,,,,,,,250,270,-280,270,,270
1,90,M,No,D,Raw,Phil Beniston,,Masters 55-59,55,1963-06-02,89.3,England,,,,,,,,,,,225,240,250,250,,250
1,90,M,No,D,Raw,Aleksandr Nemchinov,Александр Немчинов,Masters 65-69,67,1951-11-10,88.4,Russia,,,,,,,,,,,220,235,,235,,235
1,100,M,No,D,Raw,Pavel Sazonov,Павел Сазонов,Open,32,1986-06-08,98.3,Russia,,,,,,,,,,,280,300,305,305,,305
2,100,M,No,D,Raw,Roman Kroshkin,Роман Крошкин,Open,37,1981-02-09,95.7,Russia,,,,,,,,,,,250,270,-285,270,,270
1,100,M,No,D,Raw,Aleksey Ananin,Алексей Ананьин,Masters 40-44,42,1976-09-28,97.3,Russia,,,,,,,,,,,-305,315,-320,315,,315
1,110,M,No,D,Raw,Andrey Butko,Андрей Бутко,Open,33,1985-05-05,107.7,Russia,,,,,,,,,,,270,285,-300,285,,285
2,110,M,No,D,Raw,Ruslan Ermakov,Руслан Ермаков,Open,36,1982-10-26,110,Russia,,,,,,,,,,,230,250,-265,250,,250
1,110,M,No,D,Raw,Valeriy Sytnikov,Валерий Сытников,Masters 45-49,48,1970-02-28,110,Russia,,,,,,,,,,,270,297.5,-300,297.5,,297.5
1,125,M,No,D,Raw,Aleksey Bareyshin,Алексей Барейшин,Open,37,1981-10-27,110.9,Russia,,,,,,,,,,,270,285,-300,285,,285
1,48,F,Yes,B,Single-ply,Anastasiya Polivanova,Анастасия Поливанова,Open,25,1993-01-20,46.5,Russia,,,,,,77.5,-82.5,-82.5,77.5,,,,,,,77.5
1,56,F,Yes,B,Single-ply,Natalya Blinkova,Наталья Блинкова,Open,27,1991-03-20,56,Russia,,,,,,110,117.5,122.5,122.5,,,,,,,122.5
1,75,M,Yes,B,Single-ply,Artem Larionov,Артем Ларионов,Open,40,1978-05-14,74.4,Russia,,,,,,190,202.5,-210,202.5,,,,,,,202.5
DQ,82.5,M,Yes,B,Single-ply,Valeriy Ruban,Валерий Рубан,Open,28,1990-02-14,82.1,Russia,,,,,,-215,-220,-220,,,,,,,,
1,82.5,M,Yes,B,Single-ply,Nikolay Krasnov,Николай Краснов,Masters 55-59,58,1960-07-22,82.5,Russia,,,,,,-190,195,210,210,,,,,,,210
1,82.5,M,Yes,B,Single-ply,Vladislav Sannikov,Владислав Санников,Masters 80-84,80,1938-10-29,77.4,Russia,,,,,,85,87.5,90,90,,,,,,,90
1,90,M,Yes,B,Single-ply,Dmitriy Galkin,Дмитрий Галкин,Open,31,1987-08-14,89.7,Russia,,,,,,-190,190,-197.5,190,,,,,,,190
2,90,M,Yes,B,Single-ply,Dmitriy Korneev,Дмитрий Корнеев,Open,31,1987-02-15,89.3,Russia,,,,,,182.5,-190,-190,182.5,,,,,,,182.5
1,90,M,Yes,B,Single-ply,Oleg Loktionov,Олег Локтионов,Masters 40-44,41,1977-05-05,85.6,Russia,,,,,,180,-190,-190,180,,,,,,,180
1,90,M,Yes,B,Single-ply,Vladimir Li,Владимир Ли,Masters 65-69,67,1951-10-16,87.7,Russia,,,,,,-160,-160,160,160,,,,,,,160
1,90,M,Yes,B,Single-ply,Vladimir Pleshkov,Владимир Плешков,Masters 70-74,74,1944-08-29,84.7,Russia,,,,,,120,130,140,140,,,,,,,140
1,100,M,Yes,B,Single-ply,Andrey Ignatov,Андрей Игнатов,Open,26,1992-02-22,99.3,Russia,,,,,,245,255,-262.5,255,,,,,,,255
2,100,M,Yes,B,Single-ply,Igor Sidorov,Игорь Сидоров,Open,31,1987-01-08,90.6,Russia,,,,,,205,212.5,-220,212.5,,,,,,,212.5
3,100,M,Yes,B,Single-ply,Dmitriy Zolotykh,Дмитрий Золотых,Open,31,1987-07-31,96.6,Russia,,,,,,192.5,-200,200,200,,,,,,,200
4,100,M,Yes,B,Single-ply,Mikhail Litovskiy,Михаил Литовский,Open,25,1993-01-16,94.4,Russia,,,,,,182.5,-190,-192.5,182.5,,,,,,,182.5
DQ,100,M,Yes,B,Single-ply,Mikhail Yarlykov,Михаил Ярлыков,Open,29,1989-02-22,98.3,Russia,,,,,,-190,-190,-190,,,,,,,,
1,100,M,Yes,B,Single-ply,Andrey Grigorev,Андрей Григорьев,Masters 50-54,53,1965-03-25,99.6,Russia,,,,,,155,165,-175,165,,,,,,,165
1,110,M,Yes,B,Single-ply,Artur Cheremisin,Артур Черемисин,Open,28,1989-11-29,105.2,Russia,,,,,,245,-252.5,-255,245,,,,,,,245
1,110,M,Yes,B,Single-ply,Ivan Rak,Иван Рак,Masters 40-44,44,1974-08-27,108.3,Russia,,,,,,-215,-215,215,215,,,,,,,215
1,125,M,Yes,B,Single-ply,Evgeniy Bugrov,Евгений Бугров,Masters 40-44,42,1976-05-30,119.5,Russia,,,,,,-210,212.5,,212.5,,,,,,,212.5
1,125,M,Yes,B,Single-ply,Vladimir Popov,Владимир Попов,Masters 60-64,62,1956-02-26,118.5,Russia,,,,,,170,180,190,190,,,,,,,190
1,48,F,Yes,B,Raw,Ekaterina Kargina,Екатерина Каргина,Open,25,1993-10-16,48,Russia,,,,,,47.5,52.5,55,55,,,,,,,55
2,48,F,Yes,B,Raw,Natalya Romanova,Наталья Романова,Open,34,1983-11-18,47.4,Russia,,,,,,50,-52.5,-52.5,50,,,,,,,50
3,48,F,Yes,B,Raw,Anna Gelfman,Анна Гельфман,Open,29,1989-05-27,46.4,Russia,,,,,,-45,45,-52.5,45,,,,,,,45
1,52,F,Yes,B,Raw,Elizaveta Azrapkina,Елизавета Азрапкина,Teen 15-19,17,2001-07-11,51.1,Russia,,,,,,55,57.5,-60,57.5,,,,,,,57.5
1,56,F,Yes,B,Raw,Ekaterina Taskaeva,Екатерина Таскаева,Open,24,1993-12-22,56,Russia,,,,,,80,-85,-85,80,,,,,,,80
2,56,F,Yes,B,Raw,Mariya Ukhareva,Мария Ухарева,Open,30,1988-05-03,55.8,Russia,,,,,,-60,60,-65,60,,,,,,,60
DQ,56,F,Yes,B,Raw,Mariya Sorokopudova,Мария Сорокопудова,Open,27,1991-07-06,54.5,Russia,,,,,,-60,-60,-60,,,,,,,,
DQ,56,F,Yes,B,Raw,Aleksandra Kraykina,Александра Крайкина,Open,26,1992-10-14,55.6,Russia,,,,,,-62.5,-62.5,-62.5,,,,,,,,
1,60,F,Yes,B,Raw,Ekaterina Pribylnova,Екатерина Прибыльнова,Teen 15-19,17,2001-02-16,57.6,Russia,,,,,,-62.5,62.5,-65,62.5,,,,,,,62.5
2,60,F,Yes,B,Raw,Anastasiya Yarmak,Анастасия Ярмак,Teen 15-19,16,2002-10-12,57.8,Russia,,,,,,-55,57.5,-60,57.5,,,,,,,57.5
1,60,F,Yes,B,Raw,Darya Sokolova,Дарья Соколова,Open,28,1990-10-26,57.5,Russia,,,,,,-67.5,67.5,-70,67.5,,,,,,,67.5
1,60,F,Yes,B,Raw,Natalya Romasenko,Наталья Ромасенко,Masters 40-44,44,1974-04-14,60,Russia,,,,,,55,60,-62.5,60,,,,,,,60
2,60,F,Yes,B,Raw,Ekaterina Chesnakova,Екатерина Чеснакова,Masters 40-44,40,1978-07-28,60,Russia,,,,,,55,-57.5,,55,,,,,,,55
1,67.5,F,Yes,B,Raw,Anna Ermolaeva,Анна Ермолаева,Masters 40-44,43,1975-04-27,66.4,Russia,,,,,,75,-80,80,80,,,,,,,80
2,67.5,F,Yes,B,Raw,Irina Romasenko,Ирина Ромасенко,Masters 40-44,42,1975-12-22,66.2,Russia,,,,,,75,-80,-80,75,,,,,,,75
3,67.5,F,Yes,B,Raw,Yana Fedyunina,Яна Федюнина,Masters 40-44,43,1975-11-15,64.6,Russia,,,,,,65,67.5,-70,67.5,,,,,,,67.5
1,90,F,Yes,B,Raw,Zhanna Bolotova,Жанна Болотова,Masters 50-54,53,1965-06-20,88.7,Russia,,,,,,75,80,-90,80,,,,,,,80
1,56,M,Yes,B,Raw,Dmitriy Artsimovskiy,Дмитрий Арцимовский,Teen 13-14,14,2004-03-03,51.1,Russia,,,,,,65,70,-72.5,70,,,,,,,70
1,60,M,Yes,B,Raw,Daniil Meshkov,Даниил Мешков,Teen 15-19,15,2003-04-04,59.6,Russia,,,,,,80,-85,-85,80,,,,,,,80
1,60,M,Yes,B,Raw,Aleksandr Kuznetsov #9,Александр Кузнецов,Open,24,1993-12-16,59,Russia,,,,,,122.5,130,132.5,132.5,,,,,,,132.5
1,67.5,M,Yes,B,Raw,Daniil Samarskiy,Даниил Самарский,Teen 15-19,15,2003-01-12,67.1,Russia,,,,,,110,120,127.5,127.5,,,,,,,127.5
2,67.5,M,Yes,B,Raw,Mikhail Levchenko #2,Михаил Левченко,Teen 13-14,14,2004-05-10,62.8,Russia,,,,,,85,90,92.5,92.5,,,,,,,92.5
3,67.5,M,Yes,B,Raw,Kirill Kirillov,Кирилл Кириллов,Teen 15-19,17,2001-09-08,62.8,Russia,,,,,,85,-87.5,-90,85,,,,,,,85
4,67.5,M,Yes,B,Raw,Dmitriy Khodkin,Дмитрий Ходкин,Teen 15-19,15,2002-12-20,67,Russia,,,,,,60,67.5,-72.5,67.5,,,,,,,67.5
1,67.5,M,Yes,B,Raw,Nikolay Fokin,Николай Фокин,Juniors 20-23,20,1998-06-26,66.1,Russia,,,,,,82.5,87.5,-95,87.5,,,,,,,87.5
1,67.5,M,Yes,B,Raw,Nikita Samokhvalov,Никита Самохвалов,Open,30,1988-08-11,66.7,Russia,,,,,,137.5,142.5,-150,142.5,,,,,,,142.5
2,67.5,M,Yes,B,Raw,Evgeniy Zakharov #6,Евгений Захаров,Open,28,1990-08-20,67.5,Russia,,,,,,130,-142.5,142.5,142.5,,,,,,,142.5
3,67.5,M,Yes,B,Raw,Sergey Bychkov,Сергей Бычков,Open,29,1989-03-23,65.9,Russia,,,,,,127.5,130,132.5,132.5,,,,,,,132.5
DQ,67.5,M,Yes,B,Raw,Valeriy Lakhiri,Валерий Лахири,Open,44,1973-12-31,65.6,Russia,,,,,,-122.5,-122.5,-122.5,,,,,,,,
DQ,67.5,M,Yes,B,Raw,Valeriy Lakhiri,Валерий Лахири,Masters 40-44,44,1973-12-31,65.6,Russia,,,,,,-122.5,-122.5,-122.5,,,,,,,,
1,67.5,M,Yes,B,Raw,Oleg Solodov,Олег Солодов,Masters 45-49,47,1971-10-14,66.5,Russia,,,,,,112.5,-117.5,-117.5,112.5,,,,,,,112.5
1,75,M,Yes,B,Raw,Eduard Sanasaryan,Эдуард Санасарян,Teen 15-19,18,2000-10-30,72.8,Russia,,,,,,-137.5,140,142.5,142.5,,,,,,,142.5
2,75,M,Yes,B,Raw,Daniil Moiseev,Даниил Моисеев,Teen 15-19,16,2001-12-05,71.9,Russia,,,,,,120,125,130,130,,,,,,,130
3,75,M,Yes,B,Raw,Sergey Salosalov,Сергей Салосалов,Teen 13-14,14,2004-09-11,74.5,Russia,,,,,,122.5,-127.5,-127.5,122.5,,,,,,,122.5
4,75,M,Yes,B,Raw,Egor Boyko,Егор Бойко,Teen 15-19,17,2001-01-19,70.1,Russia,,,,,,95,-102.5,-102.5,95,,,,,,,95
5,75,M,Yes,B,Raw,Ivan Moldavanov,Иван Молдаванов,Teen 15-19,16,2002-03-13,73,Russia,,,,,,87.5,90,92.5,92.5,,,,,,,92.5
1,75,M,Yes,B,Raw,Dmitriy Berlizov,Дмитрий Берлизов,Juniors 20-23,22,1996-01-22,74.1,Russia,,,,,,122.5,-132.5,-132.5,122.5,,,,,,,122.5
1,75,M,Yes,B,Raw,Sergey Semenov,Сергей Семенов,Open,33,1984-12-27,73.6,Russia,,,,,,137.5,142.5,-145,142.5,,,,,,,142.5
2,75,M,Yes,B,Raw,Aleksey Konoplev,Алексей Коноплев,Open,32,1986-01-05,74.3,Russia,,,,,,117.5,122.5,-127.5,122.5,,,,,,,122.5
3,75,M,Yes,B,Raw,Aleksandr Sevostyanov,Александр Севостьянов,Open,24,1994-03-21,73.5,Russia,,,,,,-115,115,-120,115,,,,,,,115
4,75,M,Yes,B,Raw,Aleksey Serov,Алексей Серов,Open,37,1981-07-08,67.8,Russia,,,,,,80,-82.5,82.5,82.5,,,,,,,82.5
1,75,M,Yes,B,Raw,Aleksandr Semenov,Александр Семенов,Masters 40-44,41,1977-02-03,74.8,Russia,,,,,,122.5,127.5,132.5,132.5,,,,,,,132.5
2,75,M,Yes,B,Raw,Aleksey Platonov,Алексей Платонов,Masters 40-44,42,1976-04-18,74.9,Russia,,,,,,115,-125,125,125,,,,,,,125
1,75,M,Yes,B,Raw,Sergey Zuykov,Сергей Зуйков,Masters 45-49,48,1970-03-10,73.6,Russia,,,,,,135,140,-145,140,,,,,,,140
1,75,M,Yes,B,Raw,Artur Kozhenov,Артур Коженов,Masters 50-54,50,1968-07-30,73.5,Russia,,,,,,115,-120,-120,115,,,,,,,115
1,75,M,Yes,B,Raw,Nikolay Vetrov,Николай Ветров,Masters 70-74,73,1945-09-12,74.5,Russia,,,,,,80,-82.5,82.5,82.5,,,,,,,82.5
1,75,M,Yes,B,Raw,Aleksandr Kulikov,Александр Куликов,Masters 75-79,77,1941-09-13,74.9,Russia,,,,,,105,112.5,115,115,,,,,,,115
1,82.5,M,Yes,B,Raw,Dmitriy Yurshin,Дмитрий Юршин,Teen 15-19,17,2001-08-27,79.6,Russia,,,,,,122.5,125,127.5,127.5,,,,,,,127.5
2,82.5,M,Yes,B,Raw,Oleg Shimanovskiy,Олег Шимановский,Teen 13-14,14,2004-02-12,79.8,Russia,,,,,,-70,70,75,75,,,,,,,75
1,82.5,M,Yes,B,Raw,Oleg Vasyutin,Олег Васютин,Open,42,1976-01-30,80.5,Russia,,,,,,150,160,-165,160,,,,,,,160
2,82.5,M,Yes,B,Raw,Igor Nikiforov,Игорь Никифоров,Open,24,1994-09-24,81.7,Russia,,,,,,142.5,147.5,155,155,,,,,,,155
3,82.5,M,Yes,B,Raw,Igor Popov,Игорь Попов,Open,29,1989-11-11,78.7,Russia,,,,,,142.5,147.5,-150,147.5,,,,,,,147.5
4,82.5,M,Yes,B,Raw,Yaroslav Ugolnikov,Ярослав Угольников,Open,29,1989-05-01,79,Russia,,,,,,120,130,147.5,147.5,,,,,,,147.5
5,82.5,M,Yes,B,Raw,Maksim Knyazev,Максим Князев,Open,32,1986-07-26,80.5,Russia,,,,,,140,-145,-145,140,,,,,,,140
6,82.5,M,Yes,B,Raw,Andrey Semeshov,Андрей Семешов,Open,38,1980-06-02,79.6,Russia,,,,,,135,-142.5,-147.5,135,,,,,,,135
DQ,82.5,M,Yes,B,Raw,Pavel Timokhin,Павел Тимохин,Open,37,1981-03-06,79.1,Russia,,,,,,-142.5,-142.5,-142.5,,,,,,,,
DQ,82.5,M,Yes,B,Raw,Aleksey Kozhevnikov,Алексей Кожевников,Open,34,1983-12-20,79.6,Russia,,,,,,-162.5,-162.5,-162.5,,,,,,,,
DQ,82.5,M,Yes,B,Raw,Grigoriy Pronyaev,Григорий Проняев,Open,25,1993-01-10,80.2,Russia,,,,,,-115,-125,-130,,,,,,,,
DQ,82.5,M,Yes,B,Raw,Dmitriy Motov,Дмитрий Мотов,Open,34,1983-12-06,80.8,Russia,,,,,,-110,-110,-110,,,,,,,,
DQ,82.5,M,Yes,B,Raw,Aleksandr Boldinov,Александр Болдинов,Open,26,1992-10-17,81.3,Russia,,,,,,-150,-150,-150,,,,,,,,
1,82.5,M,Yes,B,Raw,Oleg Vasyutin,Олег Васютин,Masters 40-44,42,1976-01-30,80.5,Russia,,,,,,150,160,-165,160,,,,,,,160
1,82.5,M,Yes,B,Raw,Aleksey Arapov,Алексей Арапов,Masters 45-49,49,1969-06-03,81.1,Russia,,,,,,-125,125,130,130,,,,,,,130
2,82.5,M,Yes,B,Raw,Aleksey Meshalov,Алексей Мешалов,Masters 45-49,45,1973-01-02,79.2,Russia,,,,,,-125,125,-135,125,,,,,,,125
3,82.5,M,Yes,B,Raw,Andrey Yatskovskiy,Андрей Яцковский,Masters 45-49,49,1969-08-14,79,Russia,,,,,,110,-115,-115,110,,,,,,,110
1,82.5,M,Yes,B,Raw,Vladimir Fateev,Владимир Фатеев,Masters 50-54,54,1964-08-01,78.5,Russia,,,,,,110,-115,-115,110,,,,,,,110
2,82.5,M,Yes,B,Raw,Sergey Orlov,Сергей Орлов,Masters 50-54,51,1967-11-16,77.4,Russia,,,,,,105,-107.5,-107.5,105,,,,,,,105
1,82.5,M,Yes,B,Raw,Nikolay Krasnov,Николай Краснов,Masters 55-59,58,1960-07-22,82.5,Russia,,,,,,150,157.5,165,165,,,,,,,165
2,82.5,M,Yes,B,Raw,Valeriy Vorozheykin,Валерий Ворожейкин,Masters 55-59,56,1962-06-24,78.2,Russia,,,,,,125,130,-135,130,,,,,,,130
DQ,82.5,M,Yes,B,Raw,Sergey Kondrashev,Сергей Кондрашев,Masters 55-59,55,1963-09-16,80.5,Russia,,,,,,-125,-125,,,,,,,,,
1,82.5,M,Yes,B,Raw,Vladlen Drygin,Владлен Дрыгин,Masters 60-64,62,1956-02-18,81.9,Russia,,,,,,107.5,110,-112.5,110,,,,,,,110
1,82.5,M,Yes,B,Raw,Vladimir Pivnov,Владимир Пивнов,Masters 65-69,65,1953-11-05,76.6,Russia,,,,,,125,130,135,135,,,,,,,135
1,82.5,M,Yes,B,Raw,Vladislav Sannikov,Владислав Санников,Masters 80+,80,1938-10-29,77.4,Russia,,,,,,80,-85,-85,80,,,,,,,80
1,90,M,Yes,B,Raw,Nikita Vernidub,Никита Вернидуб,Juniors 20-23,21,1997-09-18,88.3,Russia,,,,,,122.5,127.5,-135,127.5,,,,,,,127.5
1,90,M,Yes,B,Raw,Ilya Vorontsov,Илья Воронцов,Open,35,1982-12-07,86.9,Russia,,,,,,182.5,-187.5,187.5,187.5,,,,,,,187.5
2,90,M,Yes,B,Raw,Vyacheslav Volkov,Вячеслав Волков,Open,47,1971-11-13,89.8,Russia,,,,,,160,170,-175,170,,,,,,,170
3,90,M,Yes,B,Raw,Denis Frolov,Денис Фролов,Open,38,1980-02-01,86.7,Russia,,,,,,150,155,160,160,,,,,,,160
4,90,M,Yes,B,Raw,Vladimir Ponomarev,Владимир Пономарев,Open,37,1981-08-03,88,Russia,,,,,,145,150,-155,150,,,,,,,150
5,90,M,Yes,B,Raw,Ivan Galichevskiy,Иван Галичевский,Open,28,1989-11-21,85.6,Russia,,,,,,145,-155,-155,145,,,,,,,145
6,90,M,Yes,B,Raw,Maksim Maller,Максим Маллер,Open,37,1981-06-07,85.9,Russia,,,,,,135,-145,-150,135,,,,,,,135
7,90,M,Yes,B,Raw,Andrey Shifrin,Андрей Шифрин,Open,32,1986-04-18,87.8,Russia,,,,,,125,135,-140,135,,,,,,,135
8,90,M,Yes,B,Raw,Anton Khrabrov,Антон Храбров,Open,26,1992-07-15,86.8,Russia,,,,,,90,95,100,100,,,,,,,100
1,90,M,Yes,B,Raw,Aleksandr Shuralyov,Александр Шуралёв,Masters 40-44,43,1975-07-13,90,Russia,,,,,,165,172.5,177.5,177.5,,,,,,,177.5
2,90,M,Yes,B,Raw,Emil Teymurov,Эмиль Теймуров,Masters 40-44,42,1976-03-24,84.6,Russia,,,,,,145,150,155,155,,,,,,,155
3,90,M,Yes,B,Raw,Nazir Abdulkadirov,Назир Абдулкадиров,Masters 40-44,42,1976-10-25,87.4,Russia,,,,,,150,152.5,-155,152.5,,,,,,,152.5
4,90,M,Yes,B,Raw,Andrey Medvedev,Андрей Медведев,Masters 40-44,40,1978-11-14,88.2,Russia,,,,,,135,142.5,150,150,,,,,,,150
5,90,M,Yes,B,Raw,Sergey Kravtsov,Сергей Кравцов,Masters 40-44,43,1974-12-19,88.3,Russia,,,,,,130,135,-140,135,,,,,,,135
1,90,M,Yes,B,Raw,Vyacheslav Volkov,Вячеслав Волков,Masters 45-49,47,1971-11-13,89.8,Russia,,,,,,160,170,-175,170,,,,,,,170
2,90,M,Yes,B,Raw,Anatoliy Terekhov,Анатолий Терехов,Masters 45-49,47,1971-03-20,88.7,Russia,,,,,,140,145,150,150,,,,,,,150
3,90,M,Yes,B,Raw,Sergey Klimov,Сергей Климов,Masters 45-49,47,1971-09-07,89,Russia,,,,,,-120,-120,120,120,,,,,,,120
1,90,M,Yes,B,Raw,Yuriy Lyubach,Юрий Любач,Masters 50-54,50,1968-10-23,89.5,Russia,,,,,,130,137.5,142.5,142.5,,,,,,,142.5
1,90,M,Yes,B,Raw,Vladimir Li,Владимир Ли,Masters 65-69,67,1951-10-16,87.7,Russia,,,,,,130,-137.5,,130,,,,,,,130
2,90,M,Yes,B,Raw,Valeriy Pivovarov,Валерий Пивоваров,Masters 65-69,66,1952-05-20,83.8,Russia,,,,,,120,-125,-125,120,,,,,,,120
1,90,M,Yes,B,Raw,Vladimir Pleshkov,Владимир Плешков,Masters 70-74,74,1944-08-29,84.7,Russia,,,,,,110,115,117.5,117.5,,,,,,,117.5
DQ,100,M,Yes,B,Raw,Mikhail Vetrenko,Михаил Ветренко,Juniors 20-23,21,1997-10-14,99,Russia,,,,,,-160,-160,,,,,,,,,
1,100,M,Yes,B,Raw,Aleksey Minaev,Алексей Минаев,Open,33,1985-07-29,98.5,Russia,,,,,,185,200,205,205,,,,,,,205
2,100,M,Yes,B,Raw,Evgeniy Mazur,Евгений Мазур,Open,27,1990-11-30,92.3,Russia,,,,,,175,185,-187.5,185,,,,,,,185
3,100,M,Yes,B,Raw,Ivan Leshchenko,Иван Лещенко,Open,32,1986-07-10,99.9,Russia,,,,,,155,160,167.5,167.5,,,,,,,167.5
4,100,M,Yes,B,Raw,Ruslan Rozmirets,Руслан Розмирец,Open,42,1976-08-26,97.6,Russia,,,,,,-162.5,162.5,-165,162.5,,,,,,,162.5
5,100,M,Yes,B,Raw,Viktor Nazgaidze,Виктор Назгаидзе,Open,37,1981-09-19,98.7,Russia,,,,,,150,157.5,-165,157.5,,,,,,,157.5
6,100,M,Yes,B,Raw,Dmitriy Volobuev,Дмитрий Волобуев,Open,29,1989-05-17,95.9,Russia,,,,,,147.5,155,-160,155,,,,,,,155
7,100,M,Yes,B,Raw,Igor Novikov,Игорь Новиков,Open,34,1984-08-24,96.8,Russia,,,,,,142.5,150,-155,150,,,,,,,150
8,100,M,Yes,B,Raw,Maksim Bashkevich,Максим Башкевич,Open,43,1975-09-02,97.2,Russia,,,,,,150,-157.5,-157.5,150,,,,,,,150
9,100,M,Yes,B,Raw,Roman Vinokurov,Роман Винокуров,Open,34,1984-05-26,98.6,Russia,,,,,,147.5,-157.5,-157.5,147.5,,,,,,,147.5
10,100,M,Yes,B,Raw,Aleksandr Vergasov,Александр Вергасов,Open,27,1990-12-07,96.6,Russia,,,,,,-135,142.5,-150,142.5,,,,,,,142.5
11,100,M,Yes,B,Raw,Evgeniy Solovev,Евгений Соловьев,Open,29,1989-07-07,92.9,Russia,,,,,,120,127.5,-130,127.5,,,,,,,127.5
12,100,M,Yes,B,Raw,Andrey Komarov,Андрей Комаров,Open,32,1986-09-07,97.2,Russia,,,,,,110,115,120,120,,,,,,,120
DQ,100,M,Yes,B,Raw,Pavel Sokolov,Павел Соколов,Open,28,1990-06-01,90.6,Russia,,,,,,-150,-150,-152.5,,,,,,,,
DQ,100,M,Yes,B,Raw,Nikita Kulakov,Никита Кулаков,Open,30,1988-10-09,99.1,Russia,,,,,,-165,-167.5,-167.5,,,,,,,,
1,100,M,Yes,B,Raw,Nikolay Romasenko,Николай Ромасенко,Masters 40-44,44,1973-12-19,98.3,Russia,,,,,,172.5,180,-185,180,,,,,,,180
2,100,M,Yes,B,Raw,Ruslan Rozmirets,Руслан Розмирец,Masters 40-44,42,1976-08-26,97.6,Russia,,,,,,-162.5,162.5,-165,162.5,,,,,,,162.5
1,100,M,Yes,B,Raw,Aleksandr Dymov,Александр Дымов,Masters 45-49,45,1973-08-13,94.1,Russia,,,,,,170,175,180,180,,,,,,,180
2,100,M,Yes,B,Raw,Dmitriy Tolstov,Дмитрий Толстов,Masters 45-49,45,1973-10-26,100,Russia,,,,,,145,152.5,-157.5,152.5,,,,,,,152.5
1,100,M,Yes,B,Raw,Ivan Kazantsev,Иван Казанцев,Masters 50-54,51,1967-09-29,98.5,Russia,,,,,,172.5,177.5,-182.5,177.5,,,,,,,177.5
2,100,M,Yes,B,Raw,Aleksandr Sapachev,Александр Сапачев,Masters 50-54,52,1965-12-13,98.1,Russia,,,,,,135,-140,145,145,,,,,,,145
3,100,M,Yes,B,Raw,Andrey Ezhkov,Андрей Ежков,Masters 50-54,51,1967-06-08,98.1,Russia,,,,,,135,140,-145,140,,,,,,,140
1,100,M,Yes,B,Raw,Andrey Makevnin,Андрей Макевнин,Masters 55-59,57,1961-05-18,98,Russia,,,,,,165,170,-175,170,,,,,,,170
1,100,M,Yes,B,Raw,Aleksandr Gezhenko,Александр Геженко,Masters 65-69,65,1953-03-21,98.5,Russia,,,,,,-110,110,-112.5,110,,,,,,,110
1,110,M,Yes,B,Raw,Daniil Lapchenko,Даниил Лапченко,Teen 13-14,13,2005-09-09,102.7,Russia,,,,,,70,-80,82.5,82.5,,,,,,,82.5
1,110,M,Yes,B,Raw,Maksim Sheremetev,Максим Шереметьев,Juniors 20-23,23,1994-11-19,107.9,Russia,,,,,,190,-195,-195,190,,,,,,,190
2,110,M,Yes,B,Raw,Suren Poloyan,Сурен Полоян,Juniors 20-23,23,1995-08-19,107.7,Russia,,,,,,160,170,-175,170,,,,,,,170
1,110,M,Yes,B,Raw,Dmitriy Zheleznov,Дмитрий Железнов,Open,25,1993-01-24,108.9,Russia,,,,,,-215,220,225,225,-230,,,,,,225
2,110,M,Yes,B,Raw,Sergey Ovcharov,Сергей Овчаров,Open,39,1979-08-14,107,Russia,,,,,,185,-192.5,-192.5,185,,,,,,,185
3,110,M,Yes,B,Raw,Aleksandr Repin,Александр Репин,Open,31,1987-02-06,108.4,Russia,,,,,,185,-192.5,-192.5,185,,,,,,,185
4,110,M,Yes,B,Raw,Nikita Kondrashov,Никита Кондрашов,Open,32,1986-07-26,106.2,Russia,,,,,,160,170,-175,170,,,,,,,170
DQ,110,M,Yes,B,Raw,Vladimir Semenov,Владимир Семенов,Open,31,1987-01-18,103.3,Russia,,,,,,-127.5,-127.5,-127.5,,,,,,,,
1,110,M,Yes,B,Raw,Sergey Lipovskiy,Сергей Липовский,Masters 40-44,43,1975-08-17,105.9,Russia,,,,,,170,175,182.5,182.5,,,,,,,182.5
2,110,M,Yes,B,Raw,Sergey Lyubochkin,Сергей Любочкин,Masters 40-44,41,1977-06-19,109.3,Russia,,,,,,175,177.5,180,180,,,,,,,180
3,110,M,Yes,B,Raw,Kirill Remin,Кирилл Ремин,Masters 40-44,43,1975-08-13,102,Russia,,,,,,170,172.5,175,175,,,,,,,175
4,110,M,Yes,B,Raw,Aleksey Kovalskiy,Алексей Ковальский,Masters 40-44,42,1975-12-25,101.4,Russia,,,,,,150,157.5,162.5,162.5,,,,,,,162.5
5,110,M,Yes,B,Raw,Arkadiy Karchevskiy,Аркадий Карчевский,Masters 40-44,43,1975-04-28,108.7,Russia,,,,,,150,-157.5,-157.5,150,,,,,,,150
1,110,M,Yes,B,Raw,Kirill Kharabadze,Кирилл Харабадзе,Masters 45-49,46,1972-06-25,108,Russia,,,,,,165,170,172.5,172.5,,,,,,,172.5
2,110,M,Yes,B,Raw,Dmitriy Kireev,Дмитрий Киреев,Masters 45-49,49,1969-08-25,106.7,Russia,,,,,,155,160,-165,160,,,,,,,160
1,110,M,Yes,B,Raw,Nikolay Makarov,Николай Макаров,Masters 50-54,51,1967-02-09,107.9,Russia,,,,,,155,165,170,170,,,,,,,170
2,110,M,Yes,B,Raw,Nikolay Fokin,Николай Фокин,Masters 50-54,52,1966-02-15,107.3,Russia,,,,,,142.5,147.5,150,150,,,,,,,150
3,110,M,Yes,B,Raw,Vladimir Reutov,Владимир Реутов,Masters 50-54,50,1968-08-11,109.4,Russia,,,,,,127.5,-132.5,-132.5,127.5,,,,,,,127.5
1,110,M,Yes,B,Raw,Sergey Filinovich,Сергей Филинович,Masters 55-59,57,1961-04-05,106.9,Russia,,,,,,170,180,-182.5,180,,,,,,,180
2,110,M,Yes,B,Raw,Aleksandr Bardin,Александр Бардин,Masters 55-59,58,1960-03-03,108.9,Russia,,,,,,155,165,-172.5,165,,,,,,,165
3,110,M,Yes,B,Raw,Aleksandr Nefedov,Александр Нефедов,Masters 55-59,57,1961-06-14,103.2,Russia,,,,,,150,155,160,160,,,,,,,160
4,110,M,Yes,B,Raw,Anatoliy Terikhov,Анатолий Терихов,Masters 55-59,56,1962-06-10,108.5,Russia,,,,,,150,-167.5,-167.5,150,,,,,,,150
1,110,M,Yes,B,Raw,Anatoliy Pauesov,Анатолий Пауесов,Masters 65-69,65,1953-06-14,109.8,Russia,,,,,,145,150,155,155,,,,,,,155
1,125,M,Yes,B,Raw,Konstantin Usynin,Константин Усынин,Open,30,1988-05-13,122.7,Russia,,,,,,195,205,215,215,,,,,,,215
2,125,M,Yes,B,Raw,Yuriy Gordyakov,Юрий Гордяков,Open,42,1976-04-27,121.1,Russia,,,,,,200,-205,-205,200,,,,,,,200
3,125,M,Yes,B,Raw,Georgiy Khachatryan,Георгий Хачатрян,Open,32,1986-07-23,112.7,Russia,,,,,,172.5,182.5,187.5,187.5,,,,,,,187.5
4,125,M,Yes,B,Raw,Vladimir Seleznev,Владимир Селезнев,Open,41,1977-05-09,124,Russia,,,,,,177.5,182.5,187.5,187.5,,,,,,,187.5
5,125,M,Yes,B,Raw,Dmitriy Demidov,Дмитрий Демидов,Open,20,1998-10-04,123,Russia,,,,,,175,-180,-180,175,,,,,,,175
6,125,M,Yes,B,Raw,Vyacheslav Khodakovskiy,Вячеслав Ходаковский,Open,32,1986-09-08,118.2,Russia,,,,,,140,-147.5,-147.5,140,,,,,,,140
7,125,M,Yes,B,Raw,Artem Zubkov,Артем Зубков,Open,27,1991-07-04,122.2,Russia,,,,,,135,140,-145,140,,,,,,,140
DQ,125,M,Yes,B,Raw,Aleksandr Frolov,Александр Фролов,Open,30,1988-01-17,123.3,Russia,,,,,,-180,-180,-180,,,,,,,,
1,125,M,Yes,B,Raw,Yuriy Gordyakov,Юрий Гордяков,Masters 40-44,42,1976-04-27,121.1,Russia,,,,,,200,-205,-205,200,,,,,,,200
2,125,M,Yes,B,Raw,Vladimir Seleznev,Владимир Селезнев,Masters 40-44,41,1977-05-09,124,Russia,,,,,,177.5,182.5,187.5,187.5,,,,,,,187.5
3,125,M,Yes,B,Raw,Valentin Orekhov,Валентин Орехов,Masters 40-44,41,1977-01-10,113.6,Russia,,,,,,165,-175,-175,165,,,,,,,165
1,125,M,Yes,B,Raw,Vladimir Chubarov,Владимир Чубаров,Masters 50-54,54,1964-04-03,125,Russia,,,,,,172.5,-177.5,177.5,177.5,,,,,,,177.5
2,125,M,Yes,B,Raw,Denis Ogloblin,Денис Оглоблин,Masters 50-54,51,1967-05-12,122.3,Russia,,,,,,170,175,-177.5,175,,,,,,,175
1,125,M,Yes,B,Raw,Igor Kurotchenko,Игорь Куротченко,Masters 55-59,56,1962-03-20,112.9,Russia,,,,,,140,147.5,152.5,152.5,,,,,,,152.5
2,125,M,Yes,B,Raw,Aleksandr Ratkin,Александр Раткин,Masters 55-59,58,1960-05-09,114.8,Russia,,,,,,110,115,117.5,117.5,,,,,,,117.5
1,140,M,Yes,B,Raw,Sergey Zakharov #9,Сергей Захаров,Masters 40-44,44,1974-09-27,126.9,Russia,,,,,,180,190,200,200,,,,,,,200
DQ,140,M,Yes,B,Raw,Mikhail Filin,Михаил Филин,Masters 55-59,56,1961-11-17,139,Russia,,,,,,-180,-180,-180,,,,,,,,
1,140+,M,Yes,B,Raw,Aleksandr Lyubtsov,Александр Любцов,Open,33,1984-11-30,160.4,Russia,,,,,,160,165,-170,165,,,,,,,165
1,82.5,M,No,B,Single-ply,Egor Filatov,Егор Филатов,Open,25,1993-04-22,81.4,Russia,,,,,,-185,-185,185,185,,,,,,,185
1,82.5,M,No,B,Single-ply,Vyacheslav Stankevich,Вячеслав Станкевич,Masters 65-69,68,1950-03-05,81.7,Russia,,,,,,140,-150,-150,140,,,,,,,140
1,90,M,No,B,Single-ply,Ravil Nafikov,Равиль Нафиков,Masters 45-49,47,1970-12-29,89.6,Russia,,,,,,175,190,207.5,207.5,,,,,,,207.5
1,100,M,No,B,Single-ply,Kirill Filippov,Кирилл Филиппов,Open,29,1989-01-07,97.7,Russia,,,,,,250,265,-280,265,,,,,,,265
2,100,M,No,B,Single-ply,Denis Karpov,Денис Карпов,Open,37,1981-04-20,99,Russia,,,,,,225,235,-240,235,,,,,,,235
3,100,M,No,B,Single-ply,Vladimir Lazarev,Владимир Лазарев,Open,39,1979-11-06,97,Russia,,,,,,182.5,195,-200,195,,,,,,,195
DQ,110,M,No,B,Single-ply,Dmitriy Bakharev,Дмитрий Бахарев,Juniors 20-23,23,1995-04-05,107.4,Russia,,,,,,-242.5,-247.5,-255,,,,,,,,
1,110,M,No,B,Single-ply,Roman Brekhov,Роман Брехов,Open,28,1990-02-24,108.3,Russia,,,,,,260,270,-280,270,,,,,,,270
DQ,110,M,No,B,Single-ply,Vitaliy Gorshkov,Виталий Горшков,Open,41,1976-12-14,101.1,Russia,,,,,,-205,-205,-205,,,,,,,,
DQ,110,M,No,B,Single-ply,Vladimir Peshko,Владимир Пешко,Open,48,1970-02-12,108.1,Russia,,,,,,-255,-255,-255,,,,,,,,
DQ,110,M,No,B,Single-ply,Evgeniy Kuznetsov,Евгений Кузнецов,Open,27,1990-12-09,108.7,Russia,,,,,,-235,-235,,,,,,,,,
DQ,110,M,No,B,Single-ply,Vitaliy Gorshkov,Виталий Горшков,Masters 40-44,41,1976-12-14,101.1,Russia,,,,,,-205,-205,-205,,,,,,,,
DQ,110,M,No,B,Single-ply,Vladimir Peshko,Владимир Пешко,Masters 45-49,48,1970-02-12,108.1,Russia,,,,,,-255,-255,-255,,,,,,,,
DQ,110,M,No,B,Single-ply,Vyacheslav Rakhmanov,Вячеслав Рахманов,Masters 50-54,50,1968-09-10,109.1,Russia,,,,,,-250,-250,-250,,,,,,,,
1,125,M,No,B,Single-ply,Artur Arakelyan,Артур Аракелян,Open,31,1987-08-08,118.6,Russia,,,,,,255,-265,270,270,,,,,,,270
2,125,M,No,B,Single-ply,Aleksandr Rystsov,Александр Рысцов,Open,38,1979-12-02,115,Russia,,,,,,260,267.5,-272.5,267.5,,,,,,,267.5
DQ,125,M,No,B,Single-ply,Oleg Mordvintsev,Олег Мордвинцев,Masters 45-49,45,1973-03-22,112.5,Russia,,,,,,-210,-210,-210,,,,,,,,
1,125,M,No,B,Single-ply,James Bourgault,,Masters 55-59,56,1962-01-01,117.4,USA,,,,,,225,-240,240,240,,,,,,,240
1,125,M,No,B,Single-ply,David Carter #1,,Masters 70-74,71,1947-08-08,122.4,England,,,,,,90,105,-112.5,105,,,,,,,105
1,56,F,No,B,Raw,Nadezhda Eremina,Надежда Еремина,Open,33,1985-01-12,55.8,Russia,,,,,,55,60,-65,60,,,,,,,60
1,60,F,No,B,Raw,Nika Velial,Ника Велиал,Open,25,1992-11-25,59.2,Russia,,,,,,80,90,-92.5,90,,,,,,,90
1,75,F,No,B,Raw,Nadezhda Vlasova,Надежда Власова,Open,36,1982-01-24,68.8,Russia,,,,,,120,125,130,130,,,,,,,130
1,82.5,F,No,B,Raw,Irina Yakovleva,Ирина Яковлева,Open,48,1970-01-08,82.1,Russia,,,,,,-105,110,117.5,117.5,,,,,,,117.5
1,56,M,No,B,Raw,Mikhail Bochkov,Михаил Бочков,Teen 15-19,19,1999-01-07,53.6,Russia,,,,,,-102.5,102.5,-107.5,102.5,,,,,,,102.5
1,67.5,M,No,B,Raw,Aleksandr Kurbako,Александр Курбако,Juniors 20-23,21,1997-08-24,66.5,Russia,,,,,,95,102.5,107.5,107.5,,,,,,,107.5
1,75,M,No,B,Raw,Vladimir Kulakov,Владимир Кулаков,Masters 60-64,62,1955-12-24,73.9,Russia,,,,,,67.5,72.5,75,75,,,,,,,75
1,75,M,No,B,Raw,Nikolay Ionov,Николай Ионов,Masters 65-69,69,1949-05-20,72.1,Russia,,,,,,90,100,102.5,102.5,,,,,,,102.5
2,75,M,No,B,Raw,Yuriy Ermolin,Юрий Ермолин,Masters 65-69,66,1952-10-24,73.4,Russia,,,,,,-100,100,102.5,102.5,,,,,,,102.5
1,82.5,M,No,B,Raw,Aleksey Glukhov,Алексей Глухов,Juniors 20-23,22,1995-12-28,78,Russia,,,,,,135,145,150,150,,,,,,,150
1,82.5,M,No,B,Raw,Aleksey Syuta,Алексей Сюта,Open,38,1979-12-12,77.9,Russia,,,,,,165,170,-175,170,,,,,,,170
2,82.5,M,No,B,Raw,Andrey Rul,Андрей Руль,Open,36,1982-07-24,79.6,Russia,,,,,,135,142.5,145,145,,,,,,,145
3,82.5,M,No,B,Raw,Nikolay Petrakovich,Николай Петракович,Open,39,1979-08-17,75.5,Russia,,,,,,-100,100,-110,100,,,,,,,100
1,82.5,M,No,B,Raw,Andrey Volodin,Андрей Володин,Masters 45-49,47,1971-03-03,79.7,Russia,,,,,,-135,145,-152.5,145,,,,,,,145
1,82.5,M,No,B,Raw,Sergey Gopko,Сергей Гопко,Masters 60-64,62,1956-06-08,81,Russia,,,,,,142.5,152.5,157.5,157.5,,,,,,,157.5
1,90,M,No,B,Raw,Yan Kozyatinskiy,Ян Козятинский,Juniors 20-23,21,1997-03-20,87.1,Russia,,,,,,-170,170,-177.5,170,,,,,,,170
2,90,M,No,B,Raw,Aleksey Bender,Алексей Бендер,Juniors 20-23,21,1997-04-27,88.6,Russia,,,,,,100,110,117.5,117.5,,,,,,,117.5
1,90,M,No,B,Raw,Pavel Akinshin,Павел Акиньшин,Open,32,1986-04-29,88.8,Russia,,,,,,205,210,215,215,,,,,,,215
2,90,M,No,B,Raw,Dmitriy Sobtsov,Дмитрий Собцов,Open,27,1991-06-04,88.8,Russia,,,,,,185,195,-205,195,,,,,,,195
3,90,M,No,B,Raw,Konstantin Pantyushin,Константин Пантюшин,Open,29,1989-05-15,89,Russia,,,,,,-195,195,-200,195,,,,,,,195
4,90,M,No,B,Raw,Sergey Firyulin,Сергей Фирюлин,Open,38,1980-04-05,88,Russia,,,,,,180,185,-187.5,185,,,,,,,185
5,90,M,No,B,Raw,Yan Kozyatinskiy,Ян Козятинский,Open,21,1997-03-20,87.1,Russia,,,,,,-170,170,-177.5,170,,,,,,,170
6,90,M,No,B,Raw,Marat Nekrasov,Марат Некрасов,Open,28,1990-08-14,89.1,Russia,,,,,,-160,-160,160,160,,,,,,,160
7,90,M,No,B,Raw,Aleksandr Arestov,Александр Арестов,Open,32,1986-06-08,89.1,Russia,,,,,,155,-165,-165,155,,,,,,,155
1,90,M,No,B,Raw,Vadim Shabanov,Вадим Шабанов,Masters 45-49,46,1972-02-03,89.2,Russia,,,,,,-152.5,155,157.5,157.5,,,,,,,157.5
2,90,M,No,B,Raw,Oleg Dymov,Олег Дымов,Masters 45-49,48,1970-05-02,88.3,Russia,,,,,,145,-155,-155,145,,,,,,,145
1,90,M,No,B,Raw,Sergey Bazanov,Сергей Базанов,Masters 55-59,56,1962-06-22,87.8,Russia,,,,,,175,-180,-180,175,,,,,,,175
2,90,M,No,B,Raw,Phil Beniston,ев,Masters 55-59,,,84.3,Russia,,,,,,150,-160,-160,150,,,,,,,150
1,90,M,No,B,Raw,Amir Khusnetdinov,Амир Хуснетдинов,Masters 70-74,70,1948-03-01,87.8,Russia,,,,,,70,,,70,,,,,,,70
1,100,M,No,B,Raw,Ilya Orlov,Илья Орлов,Open,36,1982-06-23,98.6,Russia,,,,,,225,230,-232.5,230,,,,,,,230
2,100,M,No,B,Raw,Ilya Snezhkov,Илья Снежков,Open,28,1989-12-06,98.2,Russia,,,,,,205,210,212.5,212.5,,,,,,,212.5
3,100,M,No,B,Raw,Sergey Gavrilyuk,Сергей Гаврилюк,Open,30,1988-09-02,98.3,Russia,,,,,,185,-192.5,-192.5,185,,,,,,,185
4,100,M,No,B,Raw,Maksim Kuznetsov,Максим Кузнецов,Open,29,1989-10-19,100,Russia,,,,,,170,-175,-175,170,,,,,,,170
5,100,M,No,B,Raw,Aleksandr Shumilov,Александр Шумилов,Open,38,1980-09-30,99.1,Russia,,,,,,150,-160,160,160,,,,,,,160
DQ,100,M,No,B,Raw,Sergey Timchenko,Сергей Тимченко,Open,38,1979-12-23,97.3,Russia,,,,,,-210,,,,,,,,,,
1,100,M,No,B,Raw,Dmitriy Rasskazikhin,Дмитрий Рассказихин,Masters 45-49,49,1969-02-13,96.5,Russia,,,,,,165,170,-175,170,,,,,,,170
1,100,M,No,B,Raw,Natig Aliev,Натиг Алиев,Masters 50-54,54,1964-02-07,97.5,Russia,,,,,,195,202.5,-207.5,202.5,,,,,,,202.5
DQ,100,M,No,B,Raw,Mikhail Egorov,Михаил Егоров,Masters 50-54,51,1967-09-27,93.6,Russia,,,,,,-135,-145,-145,,,,,,,,
1,110,M,No,B,Raw,Konstantin Komissarov,Константин Комиссаров,Open,33,1985-05-12,106.3,Russia,,,,,,220,227.5,235,235,,,,,,,235
2,110,M,No,B,Raw,Andrey Apalkov,Андрей Апальков,Open,39,1979-06-21,106.3,Russia,,,,,,215,225,-230,225,,,,,,,225
3,110,M,No,B,Raw,Igor Trukhachev,Игорь Трухачев,Open,30,1988-10-31,108.3,Russia,,,,,,180,195,-200,195,,,,,,,195
DQ,110,M,No,B,Raw,Dzhandar Salpagarov,Джандар Салпагаров,Open,29,1989-11-07,106.5,Russia,,,,,,-187.5,-187.5,-195,,,,,,,,
1,110,M,No,B,Raw,Shamil Shikhaliev,Шамиль Шихалиев,Masters 40-44,41,1977-05-20,105.6,Russia,,,,,,182.5,195,-200,195,,,,,,,195
DQ,110,M,No,B,Raw,Vladimir Selin,Владимир Селин,Masters 40-44,41,1977-07-05,105.8,Russia,,,,,,-180,-190,-190,,,,,,,,
1,110,M,No,B,Raw,Sergey Parfyonov,Сергей Парфёнов,Masters 50-54,52,1966-05-25,104.4,Russia,,,,,,170,180,-185,180,,,,,,,180
1,110,M,No,B,Raw,Vyacheslav Filin,Вячеслав Филин,Masters 55-59,57,1961-11-12,104.7,Russia,,,,,,185,190,192.5,192.5,,,,,,,192.5
1,110,M,No,B,Raw,Viktor Vasilev,Виктор Васильев,Masters 60-64,64,1954-02-09,106.7,Russia,,,,,,140,150,-152.5,150,,,,,,,150
1,125,M,No,B,Raw,Aleksey Fedorenko,Алексей Федоренко,Juniors 20-23,22,1996-06-02,120.4,Russia,,,,,,195,205,-210,205,,,,,,,205
1,125,M,No,B,Raw,Dmitriy Kabanov,Дмитрий Кабанов,Open,31,1987-06-15,117.5,Russia,,,,,,240,-245,-245,240,,,,,,,240
2,125,M,No,B,Raw,Viktor Knyazev,Виктор Князев,Open,28,1990-07-31,114.7,Russia,,,,,,222.5,-232.5,-232.5,222.5,,,,,,,222.5
3,125,M,No,B,Raw,Igor Golovanov,Игорь Голованов,Open,35,1983-11-04,120.7,Russia,,,,,,222.5,-237.5,-237.5,222.5,,,,,,,222.5
4,125,M,No,B,Raw,Artur Arakelyan,Артур Аракелян,Open,31,1987-08-08,118.6,Russia,,,,,,215,-230,-230,215,,,,,,,215
1,125,M,No,B,Raw,Yuriy Suvorov,Юрий Суворов,Masters 50-54,52,1965-11-22,112.3,Russia,,,,,,155,160,-170,160,,,,,,,160
1,125,M,No,B,Raw,Vladimir Belyaev,Владимир Беляев,Masters 70-74,72,1946-07-14,113,Russia,,,,,,-100,110,-120,110,,,,,,,110
DQ,140,M,No,B,Raw,Kirill Tarasov,Кирилл Тарасов,Teen 15-19,18,2000-06-18,130.4,Russia,,,,,,-215,-215,-215,,,,,,,,
1,140,M,No,B,Raw,Aleksandr Volkov,Александр Волков,Masters 40-44,43,1975-02-17,125.2,Russia,,,,,,187.5,192.5,-197.5,192.5,,,,,,,192.5
1,140,M,No,B,Raw,Sergey Aladyshev,Сергей Аладышев,Masters 45-49,47,1971-05-08,135.3,Russia,,,,,,180,190,-200,190,,,,,,,190
1,82.5,M,Yes,SBD,Single-ply,Viktor Yashin,Виктор Яшин,Open,29,1989-10-29,82.4,Russia,215,-230,240,240,,140,-150,150,150,,205,-212.5,212.5,212.5,,602.5
DQ,110,M,Yes,SBD,Single-ply,Nikolay Pankov,Николай Панков,Juniors 20-23,22,1996-07-17,103.4,Russia,-240,-240,-240,,,-190,,,,,-210,,,,,
1,48,F,Yes,SBD,Raw,Marina Nikiforova,Марина Никифорова,Juniors 20-23,23,1995-02-08,45.5,Russia,70,75,-80,75,,35,-40,-40,35,,70,80,-85,80,,190
1,48,F,Yes,SBD,Raw,Yuliya Seliverstova,Юлия Селиверстова,Open,27,1991-10-06,47.7,Russia,-80,80,85,85,,-35,35,-40,35,,80,-85,-85,80,,200
1,60,F,Yes,SBD,Raw,Alina Chertkova,Алина Черткова,Teen 15-19,17,2001-08-09,58.4,Russia,87.5,92.5,-97.5,92.5,,55,57.5,-60,57.5,,115,120,122.5,122.5,,272.5
1,60,F,Yes,SBD,Raw,Vera Tumanova,Вера Туманова,Open,37,1981-08-15,58.6,Russia,85,95,-102.5,95,,57.5,-62.5,-62.5,57.5,,125,130,135,135,,287.5
2,60,F,Yes,SBD,Raw,Mariya Yakushina,Мария Якушина,Open,28,1990-10-14,60,Russia,75,80,87.5,87.5,,42.5,47.5,-52.5,47.5,,85,95,102.5,102.5,,237.5
1,67.5,F,Yes,SBD,Raw,Anastasiya Mindlina,Анастасия Миндлина,Juniors 20-23,22,1996-06-09,66.9,Russia,125,130,135,135,,80,85,87.5,87.5,,-127.5,130,135,135,,357.5
1,67.5,F,Yes,SBD,Raw,Natalya Viktorova,Наталья Викторова,Open,32,1985-12-29,67.1,Russia,90,95,-97.5,95,,55,57.5,-60,57.5,,110,115,120,120,,272.5
2,67.5,F,Yes,SBD,Raw,Alisa Larskaya,Алиса Ларская,Open,29,1989-04-18,65.4,Russia,75,82.5,92.5,92.5,,-55,57.5,60,60,,95,105,115,115,,267.5
3,67.5,F,Yes,SBD,Raw,Olga Ushakova,Ольга Ушакова,Open,44,1974-03-22,66.1,Russia,90,,,90,,50,,,50,,100,,,100,,240
4,67.5,F,Yes,SBD,Raw,Elena Demina,Елена Демина,Open,39,1979-01-01,62.7,Russia,75,-82.5,85,85,,42.5,-47.5,47.5,47.5,,95,105,-115,105,,237.5
1,67.5,F,Yes,SBD,Raw,Olga Ushakova,Ольга Ушакова,Masters 40-44,44,1974-03-22,66.1,Russia,90,-95,95,95,,50,55,-57.5,55,,100,-110,-110,100,,250
1,75,F,Yes,SBD,Raw,Lyudmila Selezneva,Людмила Селезнева,Masters 45-49,45,1972-12-12,75,Russia,-100,110,-115,110,,60,65,-67.5,65,,110,120,125,125,,300
1,82.5,F,Yes,SBD,Raw,Pamela Casseus,,Juniors 20-23,20,1998-07-18,81.7,Haiti,107.5,115,120,120,,45,50,-55,50,,105,117.5,130,130,,300
1,90+,F,Yes,SBD,Raw,Pamela-Malebo Magama,,Open,26,1992-03-12,100,Botswana,130,140,145,145,,45,-52.5,-52.5,45,,140,150,-157.5,150,,340
1,75,M,Yes,SBD,Raw,Kablan Kofi,Каблан Кофи,Open,24,1994-03-15,74,Russia,200,210,215,215,,-140,140,145,145,,240,250,260,260,,620
1,75,M,Yes,SBD,Raw,Mikhail Kostikov,Михаил Костиков,Masters 40-44,43,1975-06-29,74.2,Russia,150,157.5,162.5,162.5,,105,-107.5,-107.5,105,,175,-187.5,-187.5,175,,442.5
1,75,M,Yes,SBD,Raw,Aleksandr Gubanov,Александр Губанов,Masters 65-69,67,1951-02-06,74.5,Russia,-55,55,-60,55,,75,82.5,-85,82.5,,85,110,-120,110,,247.5
1,82.5,M,Yes,SBD,Raw,Ilya Kulakov,Илья Кулаков,Teen 15-19,18,2000-06-14,79.4,Russia,180,-190,-190,180,,110,117.5,-122.5,117.5,,185,200,-210,200,,497.5
1,82.5,M,Yes,SBD,Raw,Mikhail Lebedev,Михаил Лебедев,Juniors 20-23,22,1996-02-01,80.4,Russia,145,155,165,165,,100,107.5,112.5,112.5,,210,-220,-220,210,,487.5
1,82.5,M,Yes,SBD,Raw,Igor Startsev,Игорь Старцев,Open,35,1983-03-14,82,Russia,205,215,-222.5,215,,150,157.5,-162.5,157.5,,260,-265,265,265,,637.5
2,82.5,M,Yes,SBD,Raw,Vladimir Fedorenko,Владимир Федоренко,Open,25,1993-03-11,81,Russia,215,225,-230,225,,135,140,-142.5,140,,255,262.5,-272.5,262.5,,627.5
3,82.5,M,Yes,SBD,Raw,Stanislav Kholodnyy,Станислав Холодный,Open,31,1987-07-09,81.7,Russia,132.5,145,-155,145,,115,125,130,130,,197.5,215,222.5,222.5,,497.5
4,82.5,M,Yes,SBD,Raw,Mikhail Lebedev,Михаил Лебедев,Open,22,1996-02-01,80.4,Russia,145,155,165,165,,100,107.5,112.5,112.5,,210,-220,-220,210,,487.5
1,82.5,M,Yes,SBD,Raw,Aleksey Gvozdev,Алексей Гвоздев,Masters 45-49,46,1972-03-27,82.1,Russia,185,192.5,-195,192.5,,112.5,-115,-115,112.5,,215,-222.5,-222.5,215,,520
1,90,M,Yes,SBD,Raw,Vladislav Sukharev,Владислав Сухарев,Teen 15-19,19,1999-03-29,85.5,Russia,-170,-180,180,180,,100,-105,-105,100,,180,190,-200,190,,470
2,90,M,Yes,SBD,Raw,Nikita Tyumenev,Никита Тюменев,Teen 15-19,18,2000-08-08,88.7,Russia,100,110,-120,110,,80,87.5,92.5,92.5,,110,120,130,130,,332.5
1,90,M,Yes,SBD,Raw,Maksim Osipov,Максим Осипов,Open,29,1989-06-18,89.5,Russia,190,205,215,215,,130,135,-140,135,,220,230,-245,230,,580
2,90,M,Yes,SBD,Raw,Artem Volynskiy,Артем Волынский,Open,,,89.8,Russia,-185,190,200,200,,115,120,-127.5,120,,210,230,-245,230,,550
1,90,M,Yes,SBD,Raw,Viktor Kovalenko,Виктор Коваленко,Masters 55-59,59,1959-09-10,89.5,Russia,140,-145,-150,140,,85,-90,,85,,157.5,-165,,157.5,,382.5
1,100,M,Yes,SBD,Raw,Zakir Omarov,Закир Омаров,Juniors 20-23,20,1998-07-31,98.9,Russia,180,-190,-195,180,,110,-120,-120,110,,-200,200,-205,200,,490
1,100,M,Yes,SBD,Raw,Aleksandr Lebedev,Александр Лебедев,Open,32,1986-03-17,97.5,Russia,170,190,200,200,,135,142.5,150,150,,240,250,-260,250,,600
2,100,M,Yes,SBD,Raw,Aleksey Gureev,Алексей Гуреев,Open,28,1989-12-15,96.9,Russia,-210,210,220,220,,-140,140,-150,140,,210,220,230,230,,590
3,100,M,Yes,SBD,Raw,Vadim Skornyakov,Вадим Скорняков,Open,36,1982-10-23,97,Russia,185,-200,-200,185,,120,-130,-130,120,,200,215,-222.5,215,,520
DQ,100,M,Yes,SBD,Raw,Aleksandr Bolotin,Александр Болотин,Open,24,1994-03-15,96.6,Russia,-160,-160,-160,,,-100,,,,,-180,,,,,
1,100,M,Yes,SBD,Raw,Viktor Krivokon,Виктор Кривоконь,Masters 45-49,46,1972-07-25,98.6,Russia,170,-185,185,185,,125,135,-140,135,,200,230,-252.5,230,,550
1,110,M,Yes,SBD,Raw,Daniil Bespalko,Даниил Беспалько,Teen 15-19,17,2001-04-20,109.1,Russia,140,152.5,-160,152.5,,75,82.5,-90,82.5,,135,145,155,155,,390
1,110,M,Yes,SBD,Raw,Ilya Serdyuk,Илья Сердюк,Juniors 20-23,22,1995-11-20,101.4,Russia,210,-225,230,230,,150,160,-162.5,160,,210,-230,230,230,,620
1,140,M,Yes,SBD,Raw,Kirill Zaytsev,Кирилл Зайцев,Teen 15-19,18,2000-05-10,129.1,Russia,-200,210,225,225,,140,150,160,160,,190,210,250,250,,635
1,140,M,Yes,SBD,Raw,Sergey Sventitskiy,Сергей Свентицкий,Open,24,1994-02-06,137.7,Russia,240,250,260,260,,-200,200,-205,200,,300,310,315,315,,775
1,48,F,Yes,SBD,Wraps,Margarita Dyachenko,Маргарита Дьяченко,Juniors 20-23,23,1995-01-26,46.4,Russia,62.5,65,70,70,,45,-50,50,50,,75,80,87.5,87.5,,207.5
DQ,48,F,Yes,SBD,Wraps,Mariya Lukasevich,Мария Лукасевич,Open,29,1989-04-28,47.6,Russia,-95,-95,-95,,,-47.5,,,,,-115,,,,,
1,52,F,Yes,SBD,Wraps,Anna Sokolova,Анна Соколова,Open,34,1984-03-15,51.2,Russia,-100,105,-110,105,,60,65,67.5,67.5,,115,122.5,125,125,,297.5
2,52,F,Yes,SBD,Wraps,Lyudmila Smirnova,Людмила Смирнова,Open,39,1979-07-03,51.3,Russia,70,-80,80,80,,35,-40,-40,35,,72.5,77.5,80,80,,195
1,56,F,Yes,SBD,Wraps,Larisa Demina,Лариса Демина,Teen 15-19,17,2001-07-27,56,Russia,-87.5,90,95,95,,37.5,-42.5,42.5,42.5,,120,125,-130,125,,262.5
1,56,F,Yes,SBD,Wraps,Natalya Levenkova,Наталья Левенкова,Open,30,1988-09-16,54.4,Russia,-110,110,117.5,117.5,,57.5,60,-62.5,60,,135,140,-142.5,140,,317.5
2,56,F,Yes,SBD,Wraps,Marina Kamyshnikova,Марина Камышникова,Open,39,1979-02-16,55.8,Russia,100,105,110,110,,50,55,-57.5,55,,110,120,130,130,,295
1,67.5,F,Yes,SBD,Wraps,Alina Ryzhova,Алина Рыжова,Juniors 20-23,22,1996-03-27,63.5,Russia,90,95,100,100,,47.5,50,52.5,52.5,,90,95,,95,,247.5
1,67.5,F,Yes,SBD,Wraps,Darya Strelova,Дарья Стрелова,Open,38,1980-06-18,65.5,Russia,-80,80,90,90,,52.5,55,-57.5,55,,-90,95,105,105,,250
DQ,67.5,F,Yes,SBD,Wraps,Olga Ushakova,Ольга Ушакова,Open,44,1974-03-22,66.1,Russia,-95,,,,,-50,,,,,-100,,,,,
DQ,75,F,Yes,SBD,Wraps,Anna Sinayskaya,Анна Синайская,Open,34,1984-07-20,72.3,Russia,-90,-95,-95,,,-50,,,,,-90,,,,,
DQ,75,F,Yes,SBD,Wraps,Nadezhda Marochkina,Надежда Марочкина,Masters 60-64,61,1957-03-04,74.3,Russia,-105,-110,110,110,,-67.5,-67.5,-67.5,,,-100,,,,,
1,67.5,M,Yes,SBD,Wraps,Aleksandr Grakhov,Александр Грахов,Teen 15-19,17,2001-06-12,65.7,Russia,140,150,-160,150,,80,90,-92.5,90,,150,160,170,170,,410
1,75,M,Yes,SBD,Wraps,Dmitriy Kochmaruk,Дмитрий Кочмарук,Teen 15-19,18,2000-03-26,74.4,Russia,160,170,-175,170,,120,-125,127.5,127.5,,205,217.5,-220,217.5,,515
1,75,M,Yes,SBD,Wraps,Anton Biryukov,Антон Бирюков,Open,20,1998-03-17,69.8,Russia,190,200,205,205,,100,110,-115,110,,160,170,185,185,,500
1,75,M,Yes,SBD,Wraps,Aleksandr Kiselev,Александр Киселев,Masters 40-44,44,1974-01-01,73.9,Russia,175,-185,,175,,117.5,-127.5,-127.5,117.5,,195,210,215,215,,507.5
1,82.5,M,Yes,SBD,Wraps,Daniil Voronov,Даниил Воронов,Teen 15-19,16,2002-02-18,78.7,Russia,130,142.5,-150,142.5,,92.5,97.5,100,100,,130,140,-150,140,,382.5
1,82.5,M,Yes,SBD,Wraps,Ayk Antonyan,Айк Антонян,Open,22,1996-03-18,80.8,Russia,190,-205,-207.5,190,,140,147.5,-152.5,147.5,,-200,-200,200,200,,537.5
1,90,M,Yes,SBD,Wraps,Maksim Filinov,Максим Филинов,Teen 15-19,18,2000-05-24,88.3,Russia,240,-250,-250,240,,120,130,135,135,,215,-232.5,,215,,590
1,90,M,Yes,SBD,Wraps,Andrey Mikhaylov,Андрей Михайлов,Open,35,1983-07-18,90,Russia,-175,175,200,200,,140,150,-155,150,,190,210,-220,210,,560
2,90,M,Yes,SBD,Wraps,Ilya Rogachyov,Илья Рогачёв,Open,35,1983-02-25,87,Russia,170,180,195,195,,125,135,-142.5,135,,180,190,200,200,,530
1,90,M,Yes,SBD,Wraps,Andrey Medvedev,Андрей Медведев,Masters 40-44,40,1978-11-14,88.2,Russia,185,-192.5,-192.5,185,,135,142.5,150,150,,190,205,215,215,,550
1,90,M,Yes,SBD,Wraps,Boris Paskeev,Борис Паскеев,Masters 60-64,63,1955-09-17,87.7,Russia,-210,210,,210,,110,120,,120,,210,220,,220,,550
1,90,M,Yes,SBD,Wraps,Mikhail Bobkov,Михаил Бобков,Masters 70-74,70,1947-11-27,87.5,Russia,-210,-210,210,210,,80,85,-90,85,,190,200,210,210,,505
1,100,M,Yes,SBD,Wraps,Dmitriy Velikodnyy,Дмитро Великодний,Juniors 20-23,20,1998-10-05,99.3,Russia,215,225,230,230,,-140,145,-150,145,,230,-245,-245,230,,605
DQ,110,M,Yes,SBD,Wraps,Artyom Polyanskiy,Артём Полянский,Teen 15-19,19,1998-12-08,102.4,Russia,-250,-250,-250,,,-160,,,,,-240,,,,,
1,110,M,Yes,SBD,Wraps,Pavel Kriulenko,Павел Криуленко,Juniors 20-23,20,1997-11-20,104.6,Russia,250,260,-265,260,,165,-170,170,170,,240,-250,,240,,670
1,110,M,Yes,SBD,Wraps,Mikhail Stroilov,Михаил Строилов,Open,42,1976-01-09,109.3,Russia,220,230,240,240,,140,150,-155,150,,235,-245,-245,235,,625
1,110,M,Yes,SBD,Wraps,Mikhail Stroilov,Михаил Строилов,Masters 40-44,42,1976-01-09,109.3,Russia,220,230,240,240,,140,150,-155,150,,235,-245,-245,235,,625
1,110,M,Yes,SBD,Wraps,Konstantin Samarskiy,Константин Самарский,Masters 55-59,56,1962-01-06,107.7,Russia,205,215,220,220,,130,140,-142.5,140,,190,195,205,205,,565
1,125,M,Yes,SBD,Wraps,Levon Trdatyan,Левон Трдатьян,Open,37,1980-11-28,118.4,Russia,300,315,-325,315,,165,175,-180,175,,270,285,-300,285,,775
2,125,M,Yes,SBD,Wraps,Aleksey Stepanchenko,Алексей Степанченко,Open,30,1988-04-23,123.2,Russia,240,255,-260,255,,160,170,-175,170,,230,245,255,255,,680
3,125,M,Yes,SBD,Wraps,Artem Marchenko,Артем Марченко,Open,27,1991-11-12,118.9,Russia,200,210,220,220,,-130,130,140,140,,220,232.5,240,240,,600
1,67.5,F,No,SBD,Single-ply,Arina Podgornova,Арина Подгорнова,Teen 15-19,16,2002-03-11,63.3,Russia,115,120,125,125,,65,-70,-70,65,,100,-107.5,107.5,107.5,,297.5
1,75,M,No,SBD,Single-ply,Vladimir Fedorov,Владимир Федоров,Masters 55-59,56,1962-07-17,74.8,Russia,175,185,-190,185,,95,102.5,-107.5,102.5,,185,195,202.5,202.5,,490
1,100,M,No,SBD,Single-ply,Aleksandr Kozlov,Александр Козлов,Open,24,1994-08-28,95.3,Russia,-347.5,347.5,-368,347.5,,215,225,235,235,,280,-300,300,300,,882.5
1,100,M,No,SBD,Single-ply,Valentin Andreev,Валентин Андреев,Masters 70-74,70,1948-05-06,92.8,Russia,200,210,215,215,,95,102.5,105,105,,220,237.5,245,245,,565
1,125,M,No,SBD,Single-ply,David Carter #1,,Masters 70-74,71,1947-08-08,122.4,England,182.5,-202.5,-202.5,182.5,,90,105,-112.5,105,,182.5,207.5,227.5,227.5,,515
1,56,F,No,SBD,Raw,Svetlana Shishkanova,Светлана Шишканова,Open,45,1973-08-07,55.9,Russia,105,-110,110,110,,55,60,-63,60,,120,130,132.5,132.5,,302.5
1,67.5,F,No,SBD,Raw,Galina Netrebina,Галина Нетребина,Open,40,1978-07-07,66.9,Russia,150,160,165,165,,80,87.5,92.5,92.5,,160,-170,170,170,,427.5
1,75,F,No,SBD,Raw,Natalya Safarova,Наталья Сафарова,Open,30,1988-05-03,74.1,Russia,150,157.5,-165,157.5,,65,72.5,-75,72.5,,160,170,-180,170,,400
1,82.5,M,No,SBD,Raw,Aleksey Molochkov,Алексей Молочков,Open,56,1962-08-08,81.2,Russia,185,192.5,-200,192.5,,142.5,147.5,-152.5,147.5,,205,212.5,222.5,222.5,,562.5
1,82.5,M,No,SBD,Raw,Aleksey Molochkov,Алексей Молочков,Masters 55-59,56,1962-08-08,81.2,Russia,185,192.5,-200,192.5,,142.5,147.5,-152.5,147.5,,205,212.5,222.5,222.5,,562.5
1,90,M,No,SBD,Raw,Timur Mamedov,Тимур Мамедов,Open,35,1983-05-10,89.6,Russia,230,240,255,255,,160,170,180,180,,240,260,-292.5,260,,695
1,100,M,No,SBD,Raw,Roman Kroshkin,Роман Крошкин,Open,37,1981-02-09,95.7,Russia,230,245,260,260,,147.5,-155,155,155,,250,270,-285,270,,685
DQ,100,M,No,SBD,Raw,Vitaliy Bogatov,Виталий Богатов,Open,47,1971-01-16,97.6,Russia,225,230,235,235,,150,155,,155,,-225,-235,,,,
DQ,100,M,No,SBD,Raw,Vitaliy Bogatov,Виталий Богатов,Masters 45-49,47,1971-01-16,97.6,Russia,225,230,235,235,,150,155,,155,,-225,-235,,,,
1,100,M,No,SBD,Raw,Robert Ockenden,,Masters 60-64,61,1957-01-01,97.7,England,100,-120,120,120,,90,100,-102.5,100,,120,140,-157.5,140,,360
1,110,M,No,SBD,Raw,Sergey Akhlestin,Сергей Ахлестин,Open,29,1989-09-15,110,Russia,305,325,330,330,,150,175,195,195,,340,360,375,375,,900
2,110,M,No,SBD,Raw,Evgeniy Solopov,Евгений Солопов,Open,29,1989-09-04,107.3,Russia,260,270,275,275,,190,-197.5,-197.5,190,,300,310,-315,310,,775
3,110,M,No,SBD,Raw,Aleksandr Dvortsov,Александр Дворцов,Open,37,1981-07-09,109,Russia,240,252.5,-262.5,252.5,,170,-182.5,-182.5,170,,260,-272.5,-272.5,260,,682.5
1,125,M,No,SBD,Raw,Evgeniy Khayarkin,Евгений Хаяркин,Masters 45-49,46,1972-02-10,113.4,Russia,-190,-200,200,200,,170,182.5,-195,182.5,,200,220,230,230,,612.5
1,67.5,F,No,SBD,Wraps,Yuliya Pyrsina,Юлия Пырсина,Open,33,1985-05-09,66.3,Russia,170,180,-185,180,,75,80,82.5,82.5,,-180,185,190,190,,452.5
1,75,F,No,SBD,Wraps,Viktoriya Ablaeva,Виктория Аблаева,Open,35,1983-05-08,72.5,Russia,200,-210,-210,200,,95,100,102.5,102.5,,210,-225,225,225,,527.5
1,82.5,F,No,SBD,Wraps,Liya Surzhitskaya,Лия Суржицкая,Teen 15-19,19,1999-01-23,77.3,Russia,170,180,190,190,,100,-105,-105,100,,170,180,-185,180,,470
1,82.5,F,No,SBD,Wraps,Liya Surzhitskaya,Лия Суржицкая,Open,19,1999-01-23,77.3,Russia,170,180,190,190,,100,-105,-105,100,,170,180,-185,180,,470
1,67.5,M,No,SBD,Wraps,Artem Akhtyrtsev,Артем Ахтырцев,Teen 15-19,15,2003-07-29,60.6,Russia,107.5,112.5,120,120,,65,72.5,-75,72.5,,130,142.5,150,150,,342.5
1,82.5,M,No,SBD,Wraps,Grigoriy Ponomarenko,Григорий Пономаренко,Open,25,1993-01-18,81.7,Russia,160,-180,180,180,,110,117.5,-122.5,117.5,,200,220,-232.5,220,,517.5
1,90,M,No,SBD,Wraps,Konstantin Azizmamadov,Константин Азизмамадов,Open,33,1985-03-17,88.9,Russia,200,215,-225,215,,-150,-150,150,150,,270,-280,-280,270,,635
1,90,M,No,SBD,Wraps,Phil Beniston,,Masters 55-59,55,1963-06-02,89.3,England,190,210,220,220,,150,160,-165,160,,225,240,250,250,-260,630
1,90,M,No,SBD,Wraps,Anatoliy Markov,Анатолий Марков,Masters 65-69,67,1951-01-13,89.7,Russia,180,195,205,205,,125,140,-145,140,,180,200,-210,200,,545
1,100,M,No,SBD,Wraps,Kirill Anfinogenov,Кирилл Анфиногенов,Juniors 20-23,20,1998-03-06,98.9,Russia,280,-290,290,290,,170,180,-185,180,,260,280,290,290,,760
1,100,M,No,SBD,Wraps,Aleksey Trofimov,Алексей Трофимов,Open,37,1981-02-21,98.5,Russia,250,270,-275,270,,165,175,180,180,,250,265,-275,265,,715
2,100,M,No,SBD,Wraps,Sergey Kimenshu,Сергей Кименшу,Open,35,1982-12-19,98.1,Russia,270,285,300,300,,147.5,-152.5,-152.5,147.5,,240,250,-257.5,250,,697.5
3,100,M,No,SBD,Wraps,Gennadiy Postanogov,Геннадий Постаногов,Open,34,1984-04-26,94.8,Russia,230,240,250,250,,170,175,180,180,,250,260,-270,260,,690
4,100,M,No,SBD,Wraps,Ruslan Gubaev,Руслан Губаев,Open,30,1988-10-18,95.8,Russia,-220,230,240,240,,160,170,-175,170,,-250,250,270,270,,680
5,100,M,No,SBD,Wraps,Sergey Klypov,Сергей Клыпов,Open,38,1980-08-24,98.4,Russia,-250,250,-260,250,,160,-167.5,167.5,167.5,,230,240,-250,240,,657.5
DQ,100,M,No,SBD,Wraps,Vitaliy Boev,Виталий Боев,Open,34,1984-06-27,97.1,Russia,-240,-250,-250,,,-180,,,,,-240,,,,,
1,110,M,No,SBD,Wraps,Vladimir Efremenkov,Владимир Ефременков,Juniors 20-23,21,1996-12-26,103.9,Russia,-220,220,235,235,,155,165,170,170,,270,285,300,300,,705
1,110,M,No,SBD,Wraps,Roman Eremin,Роман Еремин,Open,24,1994-04-25,108.7,Russia,300,-320,327.5,327.5,,155,165,172.5,172.5,,312.5,-332.5,-332.5,312.5,,812.5
2,110,M,No,SBD,Wraps,Aleksey Gruzin,Алексей Грузин,Open,35,1983-06-23,106.1,Russia,-285,285,305,305,,185,-195,195,195,,285,305,310,310,,810
3,110,M,No,SBD,Wraps,Vladislav Okolyshev,Владислав Околышев,Open,31,1987-11-16,108.9,Russia,-290,290,300,300,,170,-177.5,177.5,177.5,,310,-330,-330,310,,787.5
1,110,M,No,SBD,Wraps,Dmitriy Starov,Дмитрий Старов,Masters 45-49,45,1973-02-01,109.5,Russia,220,240,250,250,,140,150,155,155,,230,240,250,250,,655
1,125,M,No,SBD,Wraps,Andrey Drozhzhin,Андрей Дрожжин,Open,40,1977-11-21,119.7,Russia,300,330,345,345,,190,205,-215,205,,280,295,310,310,,860
2,125,M,No,SBD,Wraps,Aleksandr Romanov,Александр Романов,Open,45,1973-02-02,114.6,Russia,215,-225,225,225,,182.5,187.5,190,190,,255,272.5,282.5,282.5,,697.5
3,125,M,No,SBD,Wraps,Denis Sapozhkov,Денис Сапожков,Open,39,1979-02-06,111.3,Russia,230,-240,245,245,,145,155,160,160,,235,250,260,260,,665
1,125,M,No,SBD,Wraps,Aleksandr Romanov,Александр Романов,Masters 45-49,45,1973-02-02,114.6,Russia,215,-225,225,225,,182.5,187.5,190,190,,255,272.5,282.5,282.5,,697.5
