Division,WeightClassKg,Place,Name,Team,BodyweightKg,Best3SquatKg,Best3BenchKg,Best3DeadliftKg,TotalKg,Equipment,Event,Sex
Boys,51.71,1,Ryan Folds,San Angelo Grape Creek,49.53,136.08,70.31,129.27,335.66,Single-ply,SBD,M
Boys,51.71,2,Cody Coombs,San Angelo Lake View,50.71,124.74,70.31,131.54,326.59,Single-ply,SBD,M
Boys,51.71,3,Tucker Craig,Midland,51.07,127.01,70.31,127.01,324.32,Single-ply,SBD,M
Boys,51.71,4,David Carrasco,Big Lake Reagan County,44.91,102.06,54.43,117.93,274.42,Single-ply,SBD,M
Boys,51.71,5,Robert Zapata,Sonora,49.44,92.99,56.7,108.86,258.55,Single-ply,SBD,M
Boys,51.71,6,Jose de Leon #2,Sterling City,46.08,72.57,49.9,102.06,224.53,Single-ply,SBD,M
Boys,51.71,7,Caleb Ritchey,Sonora,47.63,74.84,45.36,102.06,222.26,Single-ply,SBD,M
Boys,55.79,1,Marlwin Perez,Brownwood,55.07,149.69,61.23,154.22,365.14,Single-ply,SBD,M
Boys,55.79,2,Oscar Ortiz,Big Lake Reagan County,53.89,136.08,70.31,145.15,351.53,Single-ply,SBD,M
Boys,55.79,3,Tye'Rus Jones,Brownwood,54.79,131.54,72.57,145.15,349.27,Single-ply,SBD,M
Boys,55.79,4,Anthony Olivares,Eldorado,55.43,133.81,63.5,138.35,335.66,Single-ply,SBD,M
Boys,55.79,5,Henry Ramos,Sonora,54.79,115.67,65.77,129.27,310.71,Single-ply,SBD,M
Boys,55.79,6,Antonio Barron,San Angelo Lake View,52.62,92.99,43.09,115.67,251.74,Single-ply,SBD,M
Boys,59.87,1,Dillon Hughes,Sterling City,58.42,170.1,99.79,183.7,453.59,Single-ply,SBD,M
Boys,67.13,2,Johnny Gallegos,Big Lake Reagan County,59.96,183.7,83.91,158.76,426.38,Single-ply,SBD,M
Boys,59.87,3,Glenn Crowder,Iraan,59.42,136.08,83.91,174.63,394.63,Single-ply,SBD,M
Boys,59.87,4,Zack Gomez,San Angelo Central,58.97,142.88,88.45,151.95,383.29,Single-ply,SBD,M
Boys,59.87,5,Xavier Lara,San Angelo Lake View,58.06,127.01,86.18,151.95,365.14,Single-ply,SBD,M
Boys,59.87,6,Aaron Rivera,San Angelo Lake View,59.6,136.08,86.18,142.88,365.14,Single-ply,SBD,M
Boys,67.13,7,Josue Rodriguez,Sterling City,60.06,136.08,81.65,142.88,360.61,Single-ply,SBD,M
Boys,59.87,8,Luis Morales,San Angelo Central,57.24,122.47,77.11,136.08,335.66,Single-ply,SBD,M
Boys,59.87,9,Damond Humiston,San Angelo Grape Creek,57.97,136.08,70.31,129.27,335.66,Single-ply,SBD,M
Boys,59.87,DQ,Randell Laird,Moran,59.15,111.13,,,,Single-ply,SBD,M
Boys,67.13,1,Robert Sauceda,Ballinger,66.68,195.04,124.74,190.51,510.29,Single-ply,SBD,M
Boys,67.13,2,Oscar Narvaez,Mertzon Irion County,66.04,181.44,106.59,176.9,464.93,Single-ply,SBD,M
Boys,67.13,3,Kevin Martinez,Sonora,67.13,185.97,90.72,181.44,458.13,Single-ply,SBD,M
Boys,67.13,4,Chase Rheilander,Midland,65.41,161.03,99.79,167.83,428.64,Single-ply,SBD,M
Boys,67.13,5,Mike Brown #11,San Angelo Central,66.86,158.76,111.13,158.76,428.64,Single-ply,SBD,M
Boys,67.13,6,Brandon Lee,San Angelo Lake View,65.86,163.29,79.38,181.44,424.11,Single-ply,SBD,M
Boys,67.13,7,Rico Rodriguez,Sonora,61.96,149.69,90.72,149.69,390.09,Single-ply,SBD,M
Boys,67.13,8,Jared Everett,Sterling City,65.68,142.88,79.38,158.76,381.02,Single-ply,SBD,M
Boys,67.13,9,Austin McConathy,Mertzon Irion County,63.5,140.61,70.31,158.76,369.68,Single-ply,SBD,M
Boys,74.84,10,Jacob Reeves,Mertzon Irion County,67.36,138.35,72.57,140.61,351.53,Single-ply,SBD,M
Boys,67.13,11,Jose Olivares,Eldorado,65.14,131.54,79.38,136.08,347,Single-ply,SBD,M
Boys,67.13,12,Kraig Cadena,Eldorado,63.23,133.81,72.57,136.08,342.46,Single-ply,SBD,M
Boys,67.13,13,Patrick Nash,Brownwood,65.23,124.74,72.57,133.81,331.12,Single-ply,SBD,M
Boys,67.13,14,Chance Goodgion,Brownwood,65.5,111.13,72.57,133.81,317.51,Single-ply,SBD,M
Boys,67.13,15,Eloy Castillo,Brownwood,61.23,120.2,61.23,117.93,299.37,Single-ply,SBD,M
Boys,67.13,DQ,Stephen Fuentez,Sterling City,65.5,142.88,,,,Single-ply,SBD,M
Boys,74.84,1,Caleb Wilson,Mertzon Irion County,73.66,217.72,115.67,226.8,560.19,Single-ply,SBD,M
Boys,82.1,2,Ben Burnett,San Angelo Central,75.02,206.38,129.27,204.12,539.77,Single-ply,SBD,M
Boys,74.84,3,Isaac Fraire,Sonora,73.84,181.44,99.79,179.17,460.4,Single-ply,SBD,M
Boys,74.84,4,Jesus DeLuna,Eldorado,70.49,179.17,88.45,181.44,449.06,Single-ply,SBD,M
Boys,74.84,5,Raymond Parsons,San Angelo Grape Creek,71.76,154.22,106.59,183.7,444.52,Single-ply,SBD,M
Boys,74.84,6,John Trevino,San Angelo Central,71.03,151.95,97.52,181.44,430.91,Single-ply,SBD,M
Boys,74.84,7,Caleb Ramirez,San Angelo Lake View,73.94,156.49,95.25,176.9,428.64,Single-ply,SBD,M
Boys,82.1,8,Ralphy Salas,Big Lake Reagan County,75.02,165.56,90.72,170.1,426.38,Single-ply,SBD,M
Boys,74.84,9,Carlos DelRio,Big Lake Reagan County,69.85,154.22,79.38,151.95,385.55,Single-ply,SBD,M
Boys,74.84,10,Candon Green,Sterling City,69.76,140.61,68.04,151.95,360.61,Single-ply,SBD,M
Boys,74.84,11,Michael Groh,Mertzon Irion County,74.21,117.93,65.77,129.27,312.98,Single-ply,SBD,M
Boys,74.84,DQ,Blaine Aker,Eldorado,71.12,,,,,Single-ply,SBD,M
Boys,82.1,1,Brett Castillo,Sonora,81.65,240.4,145.15,229.06,614.62,Single-ply,SBD,M
Boys,82.1,2,Nicky Hoang,Midland,80.65,204.12,124.74,242.67,571.53,Single-ply,SBD,M
Boys,82.1,3,Salvador Salinas,Midland,76.93,197.31,133.81,226.8,557.92,Single-ply,SBD,M
Boys,89.81,4,Steven Kirk,Ballinger,82.19,229.06,122.47,206.38,557.92,Single-ply,SBD,M
Boys,82.1,5,Johnny Martinez,San Angelo Central,81.01,199.58,120.2,185.97,505.76,Single-ply,SBD,M
Boys,82.1,6,Tate Tabor,Moran,77.47,163.29,108.86,204.12,476.27,Single-ply,SBD,M
Boys,82.1,7,Noah Nandin,San Angelo Lake View,79.47,163.29,108.86,192.78,464.93,Single-ply,SBD,M
Boys,82.1,8,Zane Whitt,Moran,78.56,117.93,102.06,117.93,337.93,Single-ply,SBD,M
Boys,99.79,1,Dannyk Ramos,Midland,89.99,272.16,136.08,226.8,635.03,Single-ply,SBD,M
Boys,89.81,2,Chris Amador,Mertzon Irion County,83.55,231.33,115.67,204.12,551.11,Single-ply,SBD,M
Boys,89.81,3,Devonte Evetts,Brownwood,89.09,185.97,127.01,215.46,528.44,Single-ply,SBD,M
Boys,89.81,4,Dakota Short,Big Lake Reagan County,89.09,208.65,108.86,195.04,512.56,Single-ply,SBD,M
Boys,89.81,5,Christian Baca,San Angelo Lake View,88.72,195.04,120.2,195.04,510.29,Single-ply,SBD,M
Boys,89.81,6,Shay Tompkins,Brownwood,85.37,204.12,106.59,181.44,492.15,Single-ply,SBD,M
Boys,89.81,7,David Luera,San Angelo Lake View,87.36,172.37,108.86,188.24,469.47,Single-ply,SBD,M
Boys,89.81,8,Tony Valdez,San Angelo Grape Creek,88.09,183.7,90.72,172.37,446.79,Single-ply,SBD,M
Boys,89.81,9,James Reeves,Mertzon Irion County,85.46,167.83,124.74,147.42,439.98,Single-ply,SBD,M
Boys,89.81,10,Eddy Sanchez,Sterling City,88.99,158.76,95.25,172.37,426.38,Single-ply,SBD,M
Boys,89.81,11,Micah Waggoneer,Moran,87.91,102.06,90.72,147.42,340.19,Single-ply,SBD,M
Boys,89.81,12,Ben Steele,Moran,88.81,117.93,83.91,127.01,328.85,Single-ply,SBD,M
Boys,99.79,1,Coleton Whitlock,Midland,97.16,258.55,174.63,249.48,682.66,Single-ply,SBD,M
Boys,99.79,2,Alex Perez,San Angelo Grape Creek,97.43,281.23,136.08,231.33,648.64,Single-ply,SBD,M
Boys,99.79,3,Dillon Springer,Midland,99.7,204.12,156.49,231.33,591.94,Single-ply,SBD,M
Boys,99.79,4,John Daniel Lopez,San Angelo Central,94.08,192.78,115.67,185.97,494.42,Single-ply,SBD,M
Boys,99.79,5,Angel Gallegos,Big Lake Reagan County,93.89,192.78,92.99,188.24,474,Single-ply,SBD,M
Boys,99.79,6,Travis Carter,Iraan,94.8,195.04,79.38,181.44,455.86,Single-ply,SBD,M
Boys,99.79,7,Tyler Boule,Mertzon Irion County,98.79,131.54,99.79,122.47,353.8,Single-ply,SBD,M
Boys,109.77,1,Javier Valdes,Midland,105.23,249.48,167.83,235.87,653.17,Single-ply,SBD,M
Boys,109.77,2,Paxton Heiting,Midland,107.68,215.46,142.88,249.48,607.81,Single-ply,SBD,M
Boys,109.77,3,Ethan Patlan,Sonora,103.87,208.65,151.95,219.99,580.6,Single-ply,SBD,M
Boys,109.77,4,Ryan Lewis,Brownwood,106.23,233.6,120.2,226.8,580.6,Single-ply,SBD,M
Boys,109.77,5,Austin Garcia,San Angelo Central,106.41,229.06,122.47,204.12,555.65,Single-ply,SBD,M
Boys,109.77,6,Bryndon Robles,Sonora,109.13,199.58,136.08,176.9,512.56,Single-ply,SBD,M
Boys,109.77,7,Turbo Aguero,Sterling City,108.14,188.24,108.86,199.58,496.68,Single-ply,SBD,M
Boys,109.77,DQ,Angel DeLuna,Big Lake Reagan County,100.7,,,,,Single-ply,SBD,M
Boys,124.74,1,Jacob Granado,Midland,121.56,328.85,156.49,258.55,743.89,Single-ply,SBD,M
Boys,124.74,2,Devon Miller,Midland,116.03,283.5,174.63,265.35,723.48,Single-ply,SBD,M
Boys,124.74,3,Antonio Perez,San Angelo Grape Creek,123.47,267.62,181.44,233.6,682.66,Single-ply,SBD,M
Boys,124.74,4,Ruben Magallan,San Angelo Lake View,121.02,260.82,147.42,249.48,657.71,Single-ply,SBD,M
Boys,124.74,5,Elijah Cross,Sonora,110.95,272.16,142.88,222.26,637.3,Single-ply,SBD,M
Boys,124.74,6,Darren Hernandez,San Angelo Central,117.3,260.82,147.42,222.26,630.49,Single-ply,SBD,M
Boys,124.74,7,Adrian Hernandez #5,San Angelo Grape Creek,113.22,244.94,145.15,233.6,623.69,Single-ply,SBD,M
Boys,124.74,8,Rowdy Islas,Ballinger,115.58,283.5,142.88,192.78,619.15,Single-ply,SBD,M
Boys,124.74,9,Jace King,Ballinger,116.66,217.72,140.61,204.12,562.45,Single-ply,SBD,M
Boys,124.74,10,Hayden Day,Brownwood,118.93,192.78,129.27,233.6,555.65,Single-ply,SBD,M
Boys,124.74,11,Donnie Bowers,San Angelo Central,117.3,226.8,120.2,192.78,539.77,Single-ply,SBD,M
Boys,124.74,12,Skylar Dreshman,Sterling City,118.12,154.22,140.61,190.51,485.34,Single-ply,SBD,M
Boys,124.74,13,Taylor Elkins,Mertzon Irion County,113.4,158.76,83.91,147.42,390.09,Single-ply,SBD,M
Boys,124.74+,1,Dj Schlather,San Angelo Lake View,144.88,306.17,181.44,249.48,737.09,Single-ply,SBD,M
Boys,124.74+,2,Kelton Bales,Iraan,126.46,272.16,131.54,251.74,655.44,Single-ply,SBD,M
Boys,124.74+,3,Ernie Veloz,Big Lake Reagan County,135.44,283.5,151.95,219.99,655.44,Single-ply,SBD,M
Boys,124.74+,4,Sergio Rivero,San Angelo Central,128.82,226.8,117.93,192.78,537.51,Single-ply,SBD,M
Boys,124.74+,5,Ray Kimbrell,Sonora,129.5,140.61,92.99,172.37,405.97,Single-ply,SBD,M
Boys,,NS,Chris Smith #4,San Angelo Grape Creek,,,,,,Single-ply,SBD,M
Boys,,NS,Matthew Gloria,Ballinger,,,,,,Single-ply,SBD,M
Boys,,NS,JD Esquivel,Big Lake Reagan County,,,,,,Single-ply,SBD,M
Boys,,NS,Devon Jefferson,Brownwood,,,,,,Single-ply,SBD,M
Boys,,NS,James Nash,Brownwood,,,,,,Single-ply,SBD,M
Boys,,NS,Viator Gomez,Mertzon Irion County,,,,,,Single-ply,SBD,M
Boys,,NS,Josh Neri,Mertzon Irion County,,,,,,Single-ply,SBD,M
Boys,,NS,Jacob Mettlen,Eldorado,,,,,,Single-ply,SBD,M
Boys,,NS,Gabe Boyett,Moran,,,,,,Single-ply,SBD,M
