Division,WeightClassKg,Place,Name,Team,BodyweightKg,Best3SquatKg,Best3BenchKg,Best3DeadliftKg,TotalKg,Equipment,Event,Sex,BirthDate
Boys,51.71,1,Tyler Morrow,Copperas Cove,51.26,142.88,83.91,188.24,415.04,Single-ply,SBD,M,
Boys,51.71,2,Nick Perez,Belton,48.08,95.25,56.7,99.79,251.74,Single-ply,SBD,M,
Boys,51.71,3,Collin Gascon,Belton,47.63,83.91,52.16,88.45,224.53,Single-ply,SBD,M,
Boys,51.71,4,Ayden Gascon,Belton,49.44,77.11,43.09,81.65,201.85,Single-ply,SBD,M,
Boys,55.79,1,Richard Willess,Belton,55.79,149.69,102.06,170.1,421.84,Single-ply,SBD,M,
Boys,55.79,2,Isaac Jones,Belton,54.88,140.61,90.72,145.15,376.48,Single-ply,SBD,M,
Boys,67.13,1,Sean Galvan,Belton,65.77,147.42,102.06,142.88,392.36,Single-ply,SBD,M,
Boys,74.84,1,Chandler Gastello,Copperas Cove,74.39,165.56,106.59,188.24,460.4,Single-ply,SBD,M,
Boys,74.84,2,LaShaun James,Copperas Cove,72.12,149.69,102.06,165.56,417.3,Single-ply,SBD,M,
Boys,74.84,3,Joseph Knox,Belton,72.57,147.42,83.91,172.37,403.7,Single-ply,SBD,M,
Boys,74.84,4,Nathan Hunt,Belton,71.67,154.22,88.45,158.76,401.43,Single-ply,SBD,M,
Boys,74.84,5,Sam McCollough,Belton,69.4,136.08,83.91,154.22,374.21,Single-ply,SBD,M,
Boys,74.84,6,Riley Tabat,Belton,69.85,145.15,90.72,136.08,371.95,Single-ply,SBD,M,
Boys,82.1,1,Tyrese Francis,Copperas Cove,79.38,215.46,122.47,167.83,505.76,Single-ply,SBD,M,
Boys,82.1,2,Aleczander Patterson,Copperas Cove,76.2,145.15,92.99,154.22,392.36,Single-ply,SBD,M,
Boys,89.81,1,Ryan Saxton,Belton,88,204.12,113.4,136.08,453.59,Single-ply,SBD,M,
Boys,89.81,2,Devon Tartano,Copperas Cove,86.18,147.42,102.06,147.42,396.89,Single-ply,SBD,M,
Boys,89.81,3,Taylor Evans #3,Belton,83.01,147.42,86.18,158.76,392.36,Single-ply,SBD,M,
Boys,99.79,1,Jonah Myers,Belton,96.62,224.53,136.08,197.31,557.92,Single-ply,SBD,M,
Boys,109.77,1,Tyrese Hale,Copperas Cove,107.95,183.7,111.13,163.29,458.13,Single-ply,SBD,M,
Boys,124.74,1,Bryan Luna,Belton,124.28,285.76,181.44,215.46,682.66,Single-ply,SBD,M,
Boys,124.74,2,Christopher Garcia,Copperas Cove,114.76,215.46,124.74,197.31,537.51,Single-ply,SBD,M,
Boys,139.71,1,Dan Llanez,Copperas Cove,139.25,217.72,124.74,226.8,569.26,Single-ply,SBD,M,
Boys,139.71,2,Peyton Reed,Copperas Cove,138.35,204.12,133.81,190.51,528.44,Single-ply,SBD,M,
Boys,139.71+,1,Thomas Holman,Copperas Cove,153.77,226.8,161.03,204.12,591.94,Single-ply,SBD,M,
