Division,WeightClassKg,Place,Name,Team,BodyweightKg,Best3SquatKg,Best3BenchKg,Best3DeadliftKg,TotalKg,Equipment,Event,Sex,BirthDate
Boys,51.71,1,Christavian Hafford,San Augustine,51.17,113.4,63.5,113.4,290.3,Single-ply,SBD,M,
Boys,51.71,2,Lane Turner,Gladewater Union Grove,49.53,108.86,56.7,106.59,272.16,Single-ply,SBD,M,
Boys,51.71,3,Landon Caudle,Maud,50.08,86.18,49.9,115.67,251.74,Single-ply,SBD,M,
Boys,51.71,4,Larry Clifton,San Augustine,51.26,92.99,49.9,104.33,247.21,Single-ply,SBD,M,
Boys,51.71,5,Steven Turbyfill,Malakoff Cross Roads,51.71,79.38,54.43,104.33,238.14,Single-ply,SBD,M,
Boys,51.71,6,James Day,Simms Bowie,48.08,79.38,40.82,95.25,215.46,Single-ply,SBD,M,
Boys,55.79,1,Kadin Daniels,Maud,55.7,136.08,81.65,154.22,371.95,Single-ply,SBD,M,
Boys,55.79,2,Jagger Allen,Garrison,55.34,129.27,83.91,145.15,358.34,Single-ply,SBD,M,
Boys,55.79,3,Isaiah Hardison,Joaquin,55.7,133.81,68.04,142.88,344.73,Single-ply,SBD,M,
Boys,55.79,4,Devin Espinoza,Gilmer Union Hill,55.25,133.81,72.57,129.27,335.66,Single-ply,SBD,M,
Boys,55.79,5,Isaiah Oneal,Gladewater Union Grove,55.16,127.01,54.43,131.54,312.98,Single-ply,SBD,M,
Boys,59.87,1,Jace Lindsay,Beckville,58.79,183.7,95.25,174.63,453.59,Single-ply,SBD,M,
Boys,59.87,2,Michael Lane,Linden-Kildare,58.15,127.01,70.31,147.42,344.73,Single-ply,SBD,M,
Boys,59.87,3,Tyler Case,Dawson,59.87,115.67,61.23,151.95,328.85,Single-ply,SBD,M,
Boys,59.87,4,Jayden Rampey,Cayuga,59.51,115.67,52.16,136.08,303.91,Single-ply,SBD,M,
Boys,59.87,5,Daniel Dunn,Gilmer Union Hill,59.87,95.25,63.5,133.81,292.57,Single-ply,SBD,M,
Boys,59.87,6,Chandler Vincent,Overton,56.06,86.18,52.16,106.59,244.94,Single-ply,SBD,M,
Boys,59.87,DQ,David Villa,Cayuga,57.52,,,,,Single-ply,SBD,M,
Boys,67.13,1,Vincent Miller,Gladewater Union Grove,66.86,174.63,111.13,161.03,446.79,Single-ply,SBD,M,
Boys,67.13,2,DeMarcus Jackson,Dawson,65.68,172.37,83.91,174.63,430.91,Single-ply,SBD,M,
Boys,67.13,3,Gavin Rhea,Simms Bowie,64.86,154.22,97.52,170.1,421.84,Single-ply,SBD,M,
Boys,67.13,4,Maxwell Gipson,Garrison,61.69,147.42,68.04,188.24,403.7,Single-ply,SBD,M,
Boys,67.13,5,Nathan Huckabay,Gladewater Union Grove,64.68,151.95,92.99,149.69,394.63,Single-ply,SBD,M,
Boys,67.13,6,Jakob Jankowski,Dawson,66.04,147.42,74.84,161.03,383.29,Single-ply,SBD,M,
Boys,67.13,7,Jared Bickham,Maud,66.41,156.49,74.84,147.42,378.75,Single-ply,SBD,M,
Boys,67.13,8,Izick Smith,Kerens,66.32,149.69,61.23,163.29,374.21,Single-ply,SBD,M,
Boys,67.13,9,Erick Orduna,Celeste,64.5,127.01,97.52,138.35,362.87,Single-ply,SBD,M,
Boys,67.13,10,James Evans,Gladewater Union Grove,65.05,124.74,77.11,145.15,347,Single-ply,SBD,M,
Boys,67.13,DQ,Jason Mullins,Detroit,62.87,142.88,,,,Single-ply,SBD,M,
Boys,67.13,DQ,Sam Lewis,Hawkins,67.13,,,,,Single-ply,SBD,M,
Boys,74.84,1,Jayke Bass,Gilmer Union Hill,74.66,181.44,136.08,195.04,512.56,Single-ply,SBD,M,
Boys,74.84,2,Claude Scales,Detroit,71.85,201.85,102.06,206.38,510.29,Single-ply,SBD,M,
Boys,74.84,3,Omarion Rasberry,Garrison,72.48,192.78,90.72,226.8,510.29,Single-ply,SBD,M,
Boys,74.84,4,Trayson Wright,Overton,73.12,197.31,108.86,199.58,505.76,Single-ply,SBD,M,
Boys,74.84,5,Zander Crittenden,Kerens,71.58,170.1,133.81,181.44,485.34,Single-ply,SBD,M,
Boys,74.84,6,Levi Elkins,Dawson,74.21,190.51,111.13,181.44,483.08,Single-ply,SBD,M,
Boys,74.84,7,Seth Barker,Cayuga,70.85,192.78,97.52,165.56,455.86,Single-ply,SBD,M,
Boys,74.84,8,Brent White,Linden-Kildare,73.75,158.76,86.18,206.38,451.32,Single-ply,SBD,M,
Boys,74.84,9,Brayden May,Kerens,71.67,170.1,106.59,158.76,435.45,Single-ply,SBD,M,
Boys,74.84,10,Tristin Lee,Maud,74.3,163.29,95.25,176.9,435.45,Single-ply,SBD,M,
Boys,74.84,DQ,Bradrion Conkleton,Maud,72.76,172.37,,,,Single-ply,SBD,M,
Boys,82.1,1,Da'Mariyea Hamilton,Dawson,81.74,222.26,115.67,235.87,573.79,Single-ply,SBD,M,
Boys,82.1,2,Waylon Vidler,Celeste,79.2,172.37,127.01,197.31,496.68,Single-ply,SBD,M,
Boys,82.1,3,Davy Branscom,Gladewater Union Grove,79.83,195.04,106.59,181.44,483.08,Single-ply,SBD,M,
Boys,82.1,4,Jonathan Peery,Laird Hill Leveretts Chapel,79.11,181.44,113.4,174.63,469.47,Single-ply,SBD,M,
Boys,82.1,5,Jared Cook,Frankston,80.83,188.24,106.59,165.56,460.4,Single-ply,SBD,M,
Boys,82.1,6,Corey Caldwell,Cayuga,81.19,179.17,106.59,174.63,460.4,Single-ply,SBD,M,
Boys,82.1,7,Blade Green,Simms Bowie,81.37,154.22,88.45,179.17,421.84,Single-ply,SBD,M,
Boys,82.1,8,Khristian Roberts,Cayuga,76.02,154.22,97.52,167.83,419.57,Single-ply,SBD,M,
Boys,82.1,9,Jayden Shelby,Detroit,81.92,167.83,81.65,165.56,415.04,Single-ply,SBD,M,
Boys,82.1,DQ,Blaine Farmer,Detroit,79.74,,,,,Single-ply,SBD,M,
Boys,82.1,DQ,Eddie Guerra,Dawson,81.28,,,,,Single-ply,SBD,M,
Boys,82.1,DQ,Blake Moore,Gladewater Union Grove,79.2,,,,,Single-ply,SBD,M,
Boys,82.1,DQ,Brice Hart,Gladewater Union Grove,80.47,,,,,Single-ply,SBD,M,
Boys,89.81,1,Brad Parson,Detroit,87.18,219.99,147.42,210.92,578.33,Single-ply,SBD,M,
Boys,89.81,2,Dawson Daffern,Maud,86.18,199.58,120.2,219.99,539.77,Single-ply,SBD,M,
Boys,89.81,3,Jolon Garner,San Augustine,88,208.65,120.2,210.92,539.77,Single-ply,SBD,M,
Boys,89.81,4,Dawson Windham #2,Shelbyville,86.27,195.04,115.67,213.19,523.9,Single-ply,SBD,M,
Boys,89.81,5,Nehum Rivera,Joaquin,86.64,210.92,104.33,199.58,514.83,Single-ply,SBD,M,
Boys,89.81,6,Grant Foster,Frankston,84.91,199.58,124.74,183.7,508.02,Single-ply,SBD,M,
Boys,89.81,7,Darren Brown,Laird Hill Leveretts Chapel,89.54,165.56,136.08,204.12,505.76,Single-ply,SBD,M,
Boys,89.81,8,Hunter Boatright,Dawson,87.09,190.51,120.2,181.44,492.15,Single-ply,SBD,M,
Boys,89.81,9,Tyler Fridinger,Frankston,84.64,151.95,120.2,210.92,483.08,Single-ply,SBD,M,
Boys,89.81,10,Grady Clay,Shelbyville,82.64,195.04,90.72,181.44,467.2,Single-ply,SBD,M,
Boys,89.81,11,Hayden Palmer,Kerens,87.27,181.44,83.91,167.83,433.18,Single-ply,SBD,M,
Boys,89.81,12,Jonas Parish,Gilmer Union Hill,89.18,149.69,79.38,181.44,410.5,Single-ply,SBD,M,
Boys,99.79,1,Juan Perez,Frankston,92.08,226.8,136.08,240.4,603.28,Single-ply,SBD,M,
Boys,99.79,2,Ty Merriman,Shelbyville,98.79,226.8,122.47,208.65,557.92,Single-ply,SBD,M,
Boys,99.79,3,Brady Henslee,Celeste,92.08,219.99,115.67,192.78,528.44,Single-ply,SBD,M,
Boys,99.79,4,Tyler Rodgers,Gladewater Union Grove,93.17,204.12,108.86,190.51,503.49,Single-ply,SBD,M,
Boys,99.79,5,Andy Medina,Wolfe City,93.98,176.9,120.2,176.9,474,Single-ply,SBD,M,
Boys,99.79,6,Kolten Goolsby,Cayuga,95.07,204.12,99.79,170.1,474,Single-ply,SBD,M,
Boys,99.79,7,Coleman Tapia,Hawkins,94.17,158.76,120.2,181.44,460.4,Single-ply,SBD,M,
Boys,99.79,8,Octavio Resendiz,Clarksville,97.52,170.1,104.33,170.1,444.52,Single-ply,SBD,M,
Boys,99.79,9,Anthony Scavone,Gladewater Union Grove,95.44,165.56,90.72,163.29,419.57,Single-ply,SBD,M,
Boys,99.79,10,Elijah Sexton,Beckville,98.34,174.63,113.4,111.13,399.16,Single-ply,SBD,M,
Boys,99.79,11,Alex Puentes,Wolfe City,92.44,111.13,86.18,102.06,299.37,Single-ply,SBD,M,
Boys,99.79,DQ,Carlos Acosta #4,San Augustine,90.08,154.22,124.74,,,Single-ply,SBD,M,
Boys,109.77,1,Jordan Menard,Overton,102.33,219.99,129.27,249.48,598.74,Single-ply,SBD,M,
Boys,109.77,2,Eli Taylor,Shelbyville,106.96,233.6,124.74,219.99,578.33,Single-ply,SBD,M,
Boys,109.77,3,Criston Simmons,San Augustine,107.23,181.44,113.4,226.8,521.63,Single-ply,SBD,M,
Boys,109.77,4,Andrew Parker,Garrison,105.96,199.58,113.4,199.58,512.56,Single-ply,SBD,M,
Boys,109.77,5,Landen Blake,Overton,108.23,147.42,88.45,147.42,383.29,Single-ply,SBD,M,
Boys,109.77,6,Josh Self,Overton,103.78,138.35,72.57,147.42,358.34,Single-ply,SBD,M,
Boys,124.74,1,Landon Liles,Linden-Kildare,123.38,238.14,158.76,229.06,625.96,Single-ply,SBD,M,
Boys,124.74,2,Canyon Cooksy,Wolfe City,110.4,272.16,136.08,208.65,616.89,Single-ply,SBD,M,
Boys,124.74,3,Cameron Spain,Dawson,118.75,229.06,140.61,240.4,610.08,Single-ply,SBD,M,
Boys,124.74,4,Branden Obenoskey,Simms Bowie,111.4,226.8,129.27,226.8,582.87,Single-ply,SBD,M,
Boys,124.74,5,Alex Oxford,Frankston,120.93,235.87,136.08,195.04,566.99,Single-ply,SBD,M,
Boys,124.74,6,Andrew Cromany,Beckville,116.12,195.04,108.86,235.87,539.77,Single-ply,SBD,M,
Boys,124.74,7,Devontae McGarity,Wolfe City,119.02,213.19,108.86,204.12,526.17,Single-ply,SBD,M,
Boys,124.74,8,Handsford Storey,Simms Bowie,114.03,181.44,111.13,215.46,508.02,Single-ply,SBD,M,
Boys,124.74,9,Randall Shivers,Beckville,118.3,185.97,104.33,192.78,483.08,Single-ply,SBD,M,
Boys,124.74,10,Dawson Jackson,Shelbyville,113.94,181.44,113.4,181.44,476.27,Single-ply,SBD,M,
Boys,124.74,11,Rylee Culpepper,Maud,124.74,149.69,90.72,170.1,410.5,Single-ply,SBD,M,
Boys,124.74,DQ,Kadarius Robinson,Hawkins,119.02,,,,,Single-ply,SBD,M,
Boys,139.71,1,John Hester,Hawkins,125.92,204.12,149.69,219.99,573.79,Single-ply,SBD,M,
Boys,139.71,2,Briley Barron,Maud,129.09,185.97,117.93,224.53,528.44,Single-ply,SBD,M,
Boys,139.71,3,Magnum Fitzgerald,Garrison,131.45,222.26,115.67,181.44,519.36,Single-ply,SBD,M,
Boys,139.71,4,Cason Curbow,Garrison,137.98,183.7,129.27,190.51,503.49,Single-ply,SBD,M,
Boys,139.71,5,Trevan Wright,Overton,131.45,204.12,102.06,188.24,494.42,Single-ply,SBD,M,
Boys,139.71,6,Jacob Ingram,Cayuga,135.26,174.63,102.06,181.44,458.13,Single-ply,SBD,M,
Boys,139.71,7,Billy Stewart,Clarksville,132,170.1,99.79,161.03,430.91,Single-ply,SBD,M,
Boys,139.71+,1,Jabrodrick Polk,Garrison,143.88,197.31,133.81,215.46,546.58,Single-ply,SBD,M,
Boys,139.71+,2,Jasper Shaw,Garrison,165.74,192.78,131.54,195.04,519.36,Single-ply,SBD,M,
Boys,139.71+,3,Rhett Tucker,Simms Bowie,145.69,172.37,108.86,181.44,462.66,Single-ply,SBD,M,
Boys,139.71+,DQ,Jay Thomas,Kerens,154.95,288.03,142.88,,,Single-ply,SBD,M,
