Place,Name,CyrillicName,BirthYear,WeightClassKg,BodyweightKg,Best3SquatKg,Best3BenchKg,Best3DeadliftKg,TotalKg,Event,Equipment,Sex,Division
1,Natalya Shutova,Наталья Шутова,1994,47,46.9,80,47.5,87.5,215,SBD,Single-ply,F,Sub-Juniors
2,Marina Bavrina,Марина Баврина,1996,47,46.8,50,35,60,145,SBD,Single-ply,F,Sub-Juniors
3,Yuliya Klyushchentseva,Юлия Клющенцева,1995,47,45.65,50,30,60,140,SBD,Single-ply,F,Sub-Juniors
1,Svetlana Frolova,Светлана Фролова,1995,52,51.7,80,40,85,205,SBD,Single-ply,F,Sub-Juniors
2,Olga Metelitsa,Ольга Метелица,1996,52,51.45,60,30,70,160,SBD,Single-ply,F,Sub-Juniors
3,Svetlana Mikhalenko,Светлана Михаленко,1996,52,50.95,55,25,75,155,SBD,Single-ply,F,Sub-Juniors
1,Evgeniya Lukyanenko,Евгения Лукьяненко,1994,57,54.95,135,55,135,325,SBD,Single-ply,F,Sub-Juniors
2,Alina Nikolaenko,Алина Николаенко,1997,57,54.4,115,65,115,295,SBD,Single-ply,F,Sub-Juniors
3,Alina Miroshnik,Алина Мирошник,1995,57,52.25,100,40,95,235,SBD,Single-ply,F,Sub-Juniors
4,Natalya Luneva,Наталья Лунева,1998,57,52.4,60,32.5,85,177.5,SBD,Single-ply,F,Sub-Juniors
1,Olga Nasonova,Ольга Насонова,1996,63,59.2,125,62.5,125,312.5,SBD,Single-ply,F,Sub-Juniors
2,Anastasiya Patsuk,Анастасия Пацук,1996,63,62.5,70,40,80,190,SBD,Single-ply,F,Sub-Juniors
3,Mariya Petrushina,Мария Петрушина,1996,63,61.75,70,30,85,185,SBD,Single-ply,F,Sub-Juniors
1,Ekaterina Kotova,Екатерина Котова,1993,72,69.3,160,100,150,410,SBD,Single-ply,F,Sub-Juniors
2,Olga Roshchina,Ольга Рощина,1996,72,70.55,70,60,80,210,SBD,Single-ply,F,Sub-Juniors
3,Natalya Slepneva,Наталья Слепнева,1996,72,71.85,65,50,75,190,SBD,Single-ply,F,Sub-Juniors
1,Diana Soloveva,Диана Соловьева,1995,84,74.3,45,25,90,160,SBD,Single-ply,F,Sub-Juniors
2,Tamara Torbik,Тамара Торбик,1996,84,72.5,60,25,70,155,SBD,Single-ply,F,Sub-Juniors
3,Yana Shelestovskaya,Яна Шелестовская,1996,84,73.85,50,22.5,72.5,145,SBD,Single-ply,F,Sub-Juniors
1,Aleksandr Polivechenko,Александр Поливеченко,1993,48,48,92.5,70,127.5,290,SBD,Single-ply,M,Sub-Juniors
2,Dmitriy Kildyushov,Дмитрий Кильдюшов,1999,48,47.56,100,60,95,255,SBD,Single-ply,M,Sub-Juniors
DQ,Stanislav Petrov,Станислав Петров,1997,48,47.9,,,,,SBD,Single-ply,M,Sub-Juniors
1,Sergey Novikov,Сергей Новиков,1993,53,52.85,160,92.5,170,422.5,SBD,Single-ply,M,Sub-Juniors
2,Dmitriy Samusenko,Дмитрий Самусенко,1994,53,48.7,90,50,120,260,SBD,Single-ply,M,Sub-Juniors
3,Nikolay Laykov,Николай Лайков,1998,53,51.4,95,52.5,110,257.5,SBD,Single-ply,M,Sub-Juniors
4,Vitaliy Lopatko,Виталий Лопатко,1997,53,51.5,85,47.5,100,232.5,SBD,Single-ply,M,Sub-Juniors
DQ,Ivan Uvarov,Иван Уваров,1994,53,51.35,,,,,SBD,Single-ply,M,Sub-Juniors
DQ,Aleksandr Laputin,Александр Лапутин,1996,53,51.95,,,,,SBD,Single-ply,M,Sub-Juniors
1,Sergey Kharitonov,Сергей Харитонов,1993,59,57.8,165,100,180,445,SBD,Single-ply,M,Sub-Juniors
2,Aleksandr Borodynkin,Александр Бородынкин,1994,59,59,170,90,167.5,427.5,SBD,Single-ply,M,Sub-Juniors
3,Aleksandr Litovka,Александр Литовка,1993,59,57.45,150,92.5,172.5,415,SBD,Single-ply,M,Sub-Juniors
4,Igor Savelev,Игорь Савельев,1995,59,58.3,155,77.5,130,362.5,SBD,Single-ply,M,Sub-Juniors
5,Dmitriy Konovalov,Дмитрий Коновалов,1996,59,57.35,125,62.5,130,317.5,SBD,Single-ply,M,Sub-Juniors
6,Aleksandr Shcheglov,Александр Щеглов,1995,59,58.25,105,70,140,315,SBD,Single-ply,M,Sub-Juniors
7,Aleksandr Tkachev,Александр Ткачев,1996,59,56.1,130,50,125,305,SBD,Single-ply,M,Sub-Juniors
DQ,Artem Frolov,Артем Фролов,1996,59,58.65,,,,,SBD,Single-ply,M,Sub-Juniors
1,Aleksey Ermolchik,Алексей Ермольчик,1993,66,66,185,107.5,202.5,495,SBD,Single-ply,M,Sub-Juniors
2,Evgeniy Sandu,Евгений Санду,1993,66,65.3,190,100,180,470,SBD,Single-ply,M,Sub-Juniors
3,Evgeniy Osipenko,Евгений Осипенко,1993,66,65.95,155,115,190,460,SBD,Single-ply,M,Sub-Juniors
4,Vladislav Kovalev,Владислав Ковалев,1996,66,65.25,175,85,180,440,SBD,Single-ply,M,Sub-Juniors
5,Sergey Orlov,Сергей Орлов,1995,66,63.9,165,100,160,425,SBD,Single-ply,M,Sub-Juniors
6,Anton Pusev,Антон Пусев,1994,66,64.05,175,80,170,425,SBD,Single-ply,M,Sub-Juniors
7,Aleksandr Melnichenko,Александр Мельниченко,1995,66,65.05,165,100,155,420,SBD,Single-ply,M,Sub-Juniors
8,Vladislav Kalinin,Владислав Калинин,1994,66,64.45,150,95,167.5,412.5,SBD,Single-ply,M,Sub-Juniors
9,Dmitriy Koshelev,Дмитрий Кошелев,1993,66,61.45,150,77.5,180,407.5,SBD,Single-ply,M,Sub-Juniors
10,Vadim Maksimenko,Вадим Максименко,1994,66,64.8,150,85,145,380,SBD,Single-ply,M,Sub-Juniors
11,Ivan Lobanov,Иван Лобанов,1995,66,64.5,132.5,75,152.5,360,SBD,Single-ply,M,Sub-Juniors
12,Ilya Mishchenkov,Илья Мищенков,1994,66,61.55,115,80,155,350,SBD,Single-ply,M,Sub-Juniors
13,Aleksandr Filichev,Александр Филичев,1995,66,62.05,110,75,140,325,SBD,Single-ply,M,Sub-Juniors
14,Vlad Izotov,Влад Изотов,1996,66,63.65,105,70,130,305,SBD,Single-ply,M,Sub-Juniors
DQ,Maksim Drozdov,Максим Дроздов,1995,66,64.35,180,,,,SBD,Single-ply,M,Sub-Juniors
G,Denis Chepikov,Денис Чепиков,1991,105,103,270,150,220,640,SBD,Single-ply,M,Open
1,Sergey Kuchin,Сергей Кучин,1993,74,74,187.5,117.5,210,515,SBD,Single-ply,M,Sub-Juniors
2,Aleksey Shigin,Алексей Шигин,1994,74,73.8,160,115,175,450,SBD,Single-ply,M,Sub-Juniors
3,Igor Slepchenko,Игорь Слепченко,1994,74,71.15,160,90,190,440,SBD,Single-ply,M,Sub-Juniors
4,Dmitriy Semenov,Дмитрий Семенов,1993,74,68.4,130,100,200,430,SBD,Single-ply,M,Sub-Juniors
5,Sergey Sigachev,Сергей Сигачев,1995,74,67.4,137.5,90,160,387.5,SBD,Single-ply,M,Sub-Juniors
6,Aleksey Sergeev,Алексей Сергеев,1994,74,73.45,150,85,130,365,SBD,Single-ply,M,Sub-Juniors
7,Ivan Lutsay,Иван Луцай,1993,74,66.1,120,110,155,385,SBD,Single-ply,M,Sub-Juniors
8,Vitaliy Piskunov,Виталий Пискунов,1993,74,72.65,125,105,155,385,SBD,Single-ply,M,Sub-Juniors
9,Nikita Talypin,Никита Талыпин,1994,74,68.4,130,82.5,150,362.5,SBD,Single-ply,M,Sub-Juniors
10,Sergey Mikhaylov,Сергей Михайлов,1995,74,73.25,117.5,75,140,332.5,SBD,Single-ply,M,Sub-Juniors
11,Viktor Antonov,Виктор Антонов,1995,74,72.2,85,55,135,275,SBD,Single-ply,M,Sub-Juniors
G,Dmitriy Ovchinnikov,Дмитрий Овчинников,1995,66,63.9,90,100,175,365,SBD,Single-ply,M,Sub-Juniors
G,Ilya Zadoyko,Илья Задойко,1992,74,72.8,180,120,210,510,SBD,Single-ply,M,Sub-Juniors
G,Roman Poddubnyy,Роман Поддубный,1992,74,73,210,120,210,540,SBD,Single-ply,M,Sub-Juniors
DQ,Sergey Isaev,Сергей Исаев,1992,74,73.1,180,,,,SBD,Single-ply,M,Sub-Juniors
1,Konstantin Dmitrichev,Константин Дмитричев,1993,83,80.15,240,140,240,620,SBD,Single-ply,M,Sub-Juniors
2,Mikhail Krivolap,Михаил Криволап,1994,83,80.75,215,125,200,540,SBD,Single-ply,M,Sub-Juniors
3,Roman Savin,Роман Савин,1995,83,78.95,190,117.5,205,512.5,SBD,Single-ply,M,Sub-Juniors
4,Viktor Shchemelinin,Виктор Щемелинин,1993,83,78.85,140,115,160,415,SBD,Single-ply,M,Sub-Juniors
DQ,Dmitriy Pavlyuchkov,Дмитрий Павлючков,1993,83,77.7,,,,,SBD,Single-ply,M,Sub-Juniors
DQ,Aleksandr Korolev,Александр Королев,1993,83,81.45,,,,,SBD,Single-ply,M,Sub-Juniors
G,Dmitriy Ilyushin,Дмитрий Ильюшин,1992,83,81.75,160,110,170,440,SBD,Single-ply,M,Sub-Juniors
G,Aleksey Butrimov,Алексей Бутримов,1992,83,82.5,210,127.5,230,567.5,SBD,Single-ply,M,Sub-Juniors
G,Aleksandr Molchanov,Александр Молчанов,1992,83,81.25,200,160,220,580,SBD,Single-ply,M,Sub-Juniors
G,Kirill Aseev,Кирилл Асеев,1992,83,80.95,200,125,260,585,SBD,Single-ply,M,Sub-Juniors
1,Aleksey Mardashev,Алексей Мардашев,1993,93,90.55,230,150,220,600,SBD,Single-ply,M,Sub-Juniors
2,Stepan Chubchenko,Степан Чубченко,1993,93,83.5,210,130,200,540,SBD,Single-ply,M,Sub-Juniors
3,Viktor Astapenko,Виктор Астапенко,1996,93,83.95,190,105,155,450,SBD,Single-ply,M,Sub-Juniors
4,Denis Karlov,Денис Карлов,1994,93,88.3,117.5,90,140,347.5,SBD,Single-ply,M,Sub-Juniors
5,Georgiy Dzhavakhiya,Георгий Джавахия,1995,93,84.2,100,97.5,145,342.5,SBD,Single-ply,M,Sub-Juniors
1,Denis Trifanov,Денис Трифанов,1995,105,98.3,117.5,90,162.5,370,SBD,Single-ply,M,Sub-Juniors
2,Mikhail Bogatikov,Михаил Богатиков,1998,105,101.1,125,62.5,125,312.5,SBD,Single-ply,M,Sub-Juniors
DQ,Ivan Ivanov #31,Иван Иванов,1997,105,93.5,,,,,SBD,Single-ply,M,Sub-Juniors
