Division,WeightClassKg,Place,Name,Team,BodyweightKg,Best3SquatKg,Best3BenchKg,Best3DeadliftKg,TotalKg,Equipment,Event,Sex,BirthDate
Boys,51.71,1,Caleb Baldwin,Rusk,50.26,47.63,43.09,56.7,147.42,Single-ply,SBD,M,
Boys,55.79,1,Isaiah Hardison,Joaquin,55.66,122.47,63.5,136.08,322.05,Single-ply,SBD,M,
Boys,59.87,1,Mason Cirkel,Rusk,58.65,131.54,81.65,147.42,360.61,Single-ply,SBD,M,
Boys,67.13,1,Tyler Hunt,Palestine,67.04,158.76,124.74,183.7,467.2,Single-ply,SBD,M,
Boys,67.13,2,Hayden Dyess,Rusk,64.95,133.81,74.84,142.88,351.53,Single-ply,SBD,M,
Boys,67.13,3,Kobey Taylor,Palestine,63.14,113.4,83.91,142.88,340.19,Single-ply,SBD,M,
Boys,67.13,4,Xavier Torres,Rusk,62.05,111.13,61.23,142.88,315.25,Single-ply,SBD,M,
Boys,67.13,DQ,Adrian Avila,Mexia,63.73,115.67,,,,Single-ply,SBD,M,
Boys,74.84,1,Camdon Hudnal,Rusk,72.44,154.22,106.59,183.7,444.52,Single-ply,SBD,M,
Boys,74.84,2,Gage Jordan,Joaquin,71.3,149.69,83.91,142.88,376.48,Single-ply,SBD,M,
Boys,74.84,3,Loc Lee,Mexia,72.53,138.35,92.99,142.88,374.21,Single-ply,SBD,M,
Boys,74.84,4,Mason Trowbridge,Rusk,72.76,122.47,72.57,167.83,362.87,Single-ply,SBD,M,
Boys,74.84,5,Abraham Rosales,Rusk,71.49,122.47,95.25,138.35,356.07,Single-ply,SBD,M,
Boys,82.1,1,Jacob Huddleston,Jacksonville,79.7,206.38,115.67,208.65,530.7,Single-ply,SBD,M,
Boys,82.1,2,Fabian Marquis,Palestine,79.38,183.7,90.72,183.7,458.13,Single-ply,SBD,M,
Boys,82.1,3,Jared Cook,Frankston,81.42,165.56,106.59,183.7,455.86,Single-ply,SBD,M,
Boys,82.1,4,Shedrick Dudley,Palestine,75.8,183.7,102.06,154.22,439.98,Single-ply,SBD,M,
Boys,82.1,5,Marshall Eberle,Mexia,82.01,142.88,79.38,172.37,394.63,Single-ply,SBD,M,
Boys,82.1,6,Jermeny Walker,Palestine,76.29,142.88,81.65,156.49,381.02,Single-ply,SBD,M,
Boys,82.1,7,Joshua Arredondo,Rusk,80.2,142.88,90.72,147.42,381.02,Single-ply,SBD,M,
Boys,82.1,8,Gage Kuhn,Mexia,80.24,142.88,83.91,142.88,369.68,Single-ply,SBD,M,
Boys,82.1,9,John Kwak,Rusk,77.75,145.15,83.91,131.54,360.61,Single-ply,SBD,M,
Boys,82.1,10,Peyton Brummett,Rusk,80.15,111.13,70.31,142.88,324.32,Single-ply,SBD,M,
Boys,82.1,DQ,Nolan Maki,Mexia,75.84,113.4,70.31,,,Single-ply,SBD,M,
Boys,89.81,1,JD Thompson,Rusk,83.28,183.7,108.86,210.92,503.49,Single-ply,SBD,M,
Boys,89.81,2,Payton Giles,Palestine,86,181.44,113.4,208.65,503.49,Single-ply,SBD,M,
Boys,89.81,3,Tyler Fridinger,Frankston,87.63,165.56,111.13,204.12,480.81,Single-ply,SBD,M,
Boys,89.81,4,Grant Foster,Frankston,83.55,183.7,122.47,170.1,476.27,Single-ply,SBD,M,
Boys,89.81,5,David Kennedy,Rusk,88,158.76,92.99,181.44,433.18,Single-ply,SBD,M,
Boys,89.81,6,Nehum Rivera,Joaquin,85.46,163.29,102.06,149.69,415.04,Single-ply,SBD,M,
Boys,89.81,7,Ty Chandler,Jacksonville,83.42,151.95,86.18,133.81,371.95,Single-ply,SBD,M,
Boys,89.81,8,Josue Gaytan,Jacksonville,87.54,129.27,77.11,147.42,353.8,Single-ply,SBD,M,
Boys,99.79,1,Juan Perez,Frankston,93.08,217.72,124.74,226.8,569.26,Single-ply,SBD,M,
Boys,99.79,2,Billy Bateman,Jacksonville,98.38,151.95,111.13,158.76,421.84,Single-ply,SBD,M,
Boys,99.79,3,Anthony Cummings,Jacksonville,91.17,149.69,102.06,158.76,410.5,Single-ply,SBD,M,
Boys,99.79,4,Brantley Bauer,Jacksonville,96.16,158.76,90.72,161.03,410.5,Single-ply,SBD,M,
Boys,99.79,5,Levi Gold,Mexia,91.08,147.42,83.91,151.95,383.29,Single-ply,SBD,M,
Boys,99.79,6,Asa Guzman,Mexia,91.63,122.47,83.91,158.76,365.14,Single-ply,SBD,M,
Boys,99.79,7,Micah Givens,Rusk,98.57,136.08,79.38,142.88,358.34,Single-ply,SBD,M,
Boys,99.79,8,Ray Hagen,Jacksonville,95.25,131.54,92.99,127.01,351.53,Single-ply,SBD,M,
Boys,99.79,DQ,Julian Cummings,Palestine,91.67,204.12,,,,Single-ply,SBD,M,
Boys,109.77,1,Lane Gilchrest,Rusk,109,217.72,113.4,215.46,546.58,Single-ply,SBD,M,
Boys,124.74,1,Zalatiel Antonio,Jacksonville,110.36,208.65,111.13,208.65,528.44,Single-ply,SBD,M,
Boys,124.74,2,Kaleb Hagan,Palestine,114.31,197.31,129.27,188.24,514.83,Single-ply,SBD,M,
Boys,124.74,3,Cris Obergon,Mexia,124.56,165.56,95.25,172.37,433.18,Single-ply,SBD,M,
Boys,124.74,4,Chase Wright,Jacksonville,113.85,163.29,83.91,163.29,410.5,Single-ply,SBD,M,
Boys,124.74,5,Trey Ferguson,Jacksonville,121.43,151.95,90.72,161.03,403.7,Single-ply,SBD,M,
Boys,139.71,1,Jemaryian Black,Palestine,136.3,213.19,147.42,226.8,587.4,Single-ply,SBD,M,
Boys,139.71,2,Aiden Gay,Jacksonville,131.27,195.04,136.08,217.72,548.85,Single-ply,SBD,M,
Boys,139.71,3,Brayden Brawner,Rusk,135.9,183.7,104.33,158.76,446.79,Single-ply,SBD,M,
Boys,139.71+,1,Jacob Adams,Mexia,141.88,170.1,131.54,170.1,471.74,Single-ply,SBD,M,
Boys,139.71+,2,Alexis Martinez #13,Jacksonville,146.51,174.63,95.25,136.08,405.97,Single-ply,SBD,M,
