Division,WeightClassKg,Place,Name,Team,BodyweightKg,Best3SquatKg,Best3BenchKg,Best3DeadliftKg,TotalKg,Equipment,Event,Sex
Boys,55.79,1,Calvin Ford,Burleson,51.8,142.88,92.99,165.56,401.43,Single-ply,SBD,M
Boys,55.79,2,Dustin Richardson,Lake Worth,51.89,113.4,61.23,165.56,340.19,Single-ply,SBD,M
Boys,51.71,3,Zach Cain,Granbury,51.07,92.99,63.5,108.86,265.35,Single-ply,SBD,M
Boys,51.71,4,Shafiq Asmaty,Kennedale,50.26,92.99,56.7,90.72,240.4,Single-ply,SBD,M
Boys,51.71,5,Kyle Lovejoy,Burleson Centennial,46.72,86.18,43.09,88.45,217.72,Single-ply,SBD,M
Boys,51.71,6,Dakota Martinez,Stephenville,49.62,61.23,38.56,90.72,190.51,Single-ply,SBD,M
Boys,51.71,DQ,Dante Blakemore,Waxahachie,48.35,83.91,,,,Single-ply,SBD,M
Boys,55.79,1,Colton Bedford,Burleson,55.34,149.69,113.4,163.29,426.38,Single-ply,SBD,M
Boys,55.79,2,Peyton Adkins,Midlothian,55.16,147.42,83.91,138.35,369.68,Single-ply,SBD,M
Boys,55.79,3,Wally Garza,Everman,55.61,122.47,70.31,138.35,331.12,Single-ply,SBD,M
Boys,55.79,4,Kevin Huynh,Kennedale,54.61,117.93,61.23,142.88,322.05,Single-ply,SBD,M
Boys,55.79,5,Jose Rodriguez,Lake Worth,55.7,113.4,65.77,136.08,315.25,Single-ply,SBD,M
Boys,55.79,6,Tristan Zamarripa,Lake Worth,54.43,111.13,70.31,131.54,312.98,Single-ply,SBD,M
Boys,55.79,7,Connor Buttgen,Midlothian,54.61,124.74,61.23,124.74,310.71,Single-ply,SBD,M
Boys,55.79,8,Ashton Williams,Everman,52.71,113.4,47.63,113.4,274.42,Single-ply,SBD,M
Boys,55.79,9,Joe Sosa,Fort Worth North Side,55.07,97.52,52.16,117.93,267.62,Single-ply,SBD,M
Boys,55.79,10,Kyler Jordan,Burleson Centennial,55.61,106.59,49.9,106.59,263.08,Single-ply,SBD,M
Boys,59.87,1,Sean Guinyard,Kennedale,59.87,170.1,99.79,176.9,446.79,Single-ply,SBD,M
Boys,59.87,2,Morgan Kirkpatrick,Granbury,59.42,161.03,92.99,167.83,421.84,Single-ply,SBD,M
Boys,59.87,3,Ray Lopez,Granbury,58.79,142.88,92.99,172.37,408.23,Single-ply,SBD,M
Boys,67.13,4,Daniel Cadena,Waxahachie,60.06,140.61,79.38,172.37,392.36,Single-ply,SBD,M
Boys,67.13,5,Chase Porter,Burleson,59.96,138.35,88.45,154.22,381.02,Single-ply,SBD,M
Boys,67.13,6,Zack Rose,Cedar Hill,59.96,136.08,72.57,163.29,371.95,Single-ply,SBD,M
Boys,59.87,7,Alejandra Olmos,Everman,58.33,124.74,108.86,113.4,347,Single-ply,SBD,M
Boys,67.13,8,K. Stewart #1,Cedar Hill,60.06,136.08,74.84,120.2,331.12,Single-ply,SBD,M
Boys,59.87,9,Kyle Kirby #3,Burleson Centennial,58.69,120.2,54.43,129.27,303.91,Single-ply,SBD,M
Boys,59.87,10,Sherman Evans,Cedar Hill,59.06,113.4,56.7,129.27,299.37,Single-ply,SBD,M
Boys,59.87,11,Tyler Madsen,Fort Worth Western Hills,59.6,92.99,61.23,142.88,297.1,Single-ply,SBD,M
Boys,59.87,12,Shane Little,Fort Worth Western Hills,59.78,70.31,56.7,86.18,213.19,Single-ply,SBD,M
Boys,67.13,1,Vinson Sellars,Midlothian,63.32,206.38,106.59,201.85,514.83,Single-ply,SBD,M
Boys,67.13,2,David Carter #3,Everman,66.86,195.04,102.06,204.12,501.22,Single-ply,SBD,M
Boys,67.13,3,Larkin Alexander,Waxahachie,60.51,183.7,115.67,183.7,483.08,Single-ply,SBD,M
Boys,67.13,DQ,Tyler Hickman,Joshua,61.6,,,,,Single-ply,SBD,M
Boys,67.13,5,Charles Crosby,Red Oak,65.77,176.9,97.52,181.44,455.86,Single-ply,SBD,M
Boys,67.13,6,Brandon Marsh,Burleson Centennial,66.95,158.76,113.4,183.7,455.86,Single-ply,SBD,M
Boys,67.13,7,Rene Rivas,Venus,64.41,165.56,97.52,185.97,449.06,Single-ply,SBD,M
Boys,67.13,8,Jared Clark,Burleson,66.86,174.63,108.86,165.56,449.06,Single-ply,SBD,M
Boys,74.84,9,Trey Williams,Kennedale,67.31,172.37,97.52,172.37,442.25,Single-ply,SBD,M
Boys,67.13,10,Joseph Ogunniyi,Cedar Hill,67.13,156.49,90.72,185.97,433.18,Single-ply,SBD,M
Boys,67.13,11,Jake Mears,Joshua,67.04,154.22,83.91,165.56,403.7,Single-ply,SBD,M
Boys,67.13,12,Youset Muwayiet,Waxahachie,62.78,145.15,97.52,151.95,394.63,Single-ply,SBD,M
Boys,67.13,13,Fouad Ali,Kennedale,61.96,133.81,90.72,161.03,385.55,Single-ply,SBD,M
Boys,67.13,14,Uriel Medina,Lake Worth,66.5,142.88,92.99,145.15,381.02,Single-ply,SBD,M
Boys,67.13,15,Riley Paroulek,Kennedale,66.77,131.54,77.11,158.76,367.41,Single-ply,SBD,M
Boys,67.13,16,Travis Hord,Granbury,66.68,136.08,88.45,136.08,360.61,Single-ply,SBD,M
Boys,67.13,17,Gary Hampton,Everman,60.6,117.93,74.84,151.95,344.73,Single-ply,SBD,M
Boys,67.13,18,Derek Adkins,Joshua,66.22,115.67,88.45,133.81,337.93,Single-ply,SBD,M
Boys,67.13,19,Phillip Sifuentes,Venus,61.14,113.4,72.57,145.15,331.12,Single-ply,SBD,M
Boys,67.13,20,Tyler Hunter,Kennedale,62.14,117.93,83.91,129.27,331.12,Single-ply,SBD,M
Boys,67.13,21,Corey Carter,Fort Worth Western Hills,66.86,102.06,83.91,142.88,328.85,Single-ply,SBD,M
Boys,67.13,22,Gary Pittman,Kennedale,66.68,113.4,63.5,149.69,326.59,Single-ply,SBD,M
Boys,67.13,23,Austin Vesper,Venus,62.23,117.93,68.04,136.08,322.05,Single-ply,SBD,M
Boys,67.13,24,Luis Munoz #5,Stephenville,61.42,113.4,70.31,108.86,292.57,Single-ply,SBD,M
Boys,67.13,25,Rhett Edwards,Stephenville,62.32,106.59,70.31,108.86,285.76,Single-ply,SBD,M
Boys,67.13,26,Ricardo Vitela,Castleberry,66.59,99.79,61.23,120.2,281.23,Single-ply,SBD,M
Boys,67.13,27,Keon Connley,Cedar Hill,62.96,90.72,61.23,117.93,269.89,Single-ply,SBD,M
Boys,67.13,28,Tristan Dodson,Stephenville,61.87,83.91,56.7,108.86,249.48,Single-ply,SBD,M
Boys,67.13,DQ,Raekwon Neal,Fort Worth Western Hills,67.13,,72.57,142.88,,Single-ply,SBD,M
Boys,74.84,1,Antonio Alba,Fort Worth North Side,72.39,210.92,115.67,229.06,555.65,Single-ply,SBD,M
Boys,74.84,2,Dashune Barlow,Cedar Hill,71.94,185.97,95.25,229.06,510.29,Single-ply,SBD,M
Boys,74.84,3,Josh Rodriguez,Stephenville,74.75,183.7,108.86,208.65,501.22,Single-ply,SBD,M
Boys,74.84,4,Tarik Crear,Cedar Hill,72.85,188.24,108.86,199.58,496.68,Single-ply,SBD,M
Boys,82.1,5,Victor Gonzales,Midlothian,75.02,176.9,108.86,192.78,478.54,Single-ply,SBD,M
Boys,74.84,6,Ben Adams,Cedar Hill,72.76,183.7,92.99,183.7,460.4,Single-ply,SBD,M
Boys,74.84,7,Dylan Colvin,Midlothian,74.48,165.56,120.2,170.1,455.86,Single-ply,SBD,M
Boys,74.84,8,Devin Walker,Everman,71.67,197.31,111.13,142.88,451.32,Single-ply,SBD,M
Boys,82.1,9,Felipe Gallegos,Lake Worth,75.02,151.95,92.99,181.44,426.38,Single-ply,SBD,M
Boys,74.84,10,Alex Scallion,Castleberry,70.4,172.37,92.99,151.95,417.3,Single-ply,SBD,M
Boys,74.84,11,Coy Hart,Venus,69.13,147.42,97.52,156.49,401.43,Single-ply,SBD,M
Boys,74.84,12,Patrick Eisner,Burleson Centennial,72.85,145.15,90.72,163.29,399.16,Single-ply,SBD,M
Boys,74.84,13,Essix Lightfoot,Everman,73.39,188.24,90.72,120.2,399.16,Single-ply,SBD,M
Boys,74.84,14,Jay Thomas,Kennedale,70.94,156.49,79.38,154.22,390.09,Single-ply,SBD,M
Boys,74.84,15,Thomas Uriostegui,Kennedale,72.94,142.88,102.06,142.88,387.82,Single-ply,SBD,M
Boys,74.84,16,Mitchell King,Kennedale,71.03,154.22,72.57,156.49,383.29,Single-ply,SBD,M
Boys,74.84,17,Colin Radeuro,Joshua,71.44,129.27,92.99,158.76,381.02,Single-ply,SBD,M
Boys,74.84,18,Ashton G,Granbury,68.58,129.27,90.72,158.76,378.75,Single-ply,SBD,M
Boys,74.84,19,No Name No Name,Fort Worth Western Hills,72.21,129.27,92.99,149.69,371.95,Single-ply,SBD,M
Boys,74.84,20,David Hutto,Fort Worth Western Hills,68.76,111.13,88.45,165.56,365.14,Single-ply,SBD,M
Boys,74.84,21,Greg Roberts,Lake Worth,70.49,131.54,72.57,156.49,360.61,Single-ply,SBD,M
Boys,74.84,22,J. Williams,Fort Worth Western Hills,72.67,138.35,65.77,151.95,356.07,Single-ply,SBD,M
Boys,74.84,23,Josue Hernandez,Fort Worth North Side,68.86,127.01,68.04,151.95,347,Single-ply,SBD,M
Boys,74.84,24,Canyon Pritchard,Castleberry,71.85,127.01,74.84,127.01,328.85,Single-ply,SBD,M
Boys,74.84,25,Michael Clift,Venus,73.84,122.47,65.77,124.74,312.98,Single-ply,SBD,M
Boys,74.84,26,Christopher Delk,Castleberry,73.84,102.06,70.31,104.33,276.69,Single-ply,SBD,M
Boys,74.84,27,Bryan Arredondo,Fort Worth Western Hills,71.49,92.99,70.31,106.59,269.89,Single-ply,SBD,M
Boys,74.84,DQ,Trey McGahan,Kennedale,74.84,172.37,,,,Single-ply,SBD,M
Boys,74.84,DQ,Roddale Smith,Cedar Hill,67.59,,,,,Single-ply,SBD,M
Boys,82.1,1,Craig Renfro,Waxahachie,81.47,222.26,115.67,217.72,555.65,Single-ply,SBD,M
Boys,82.1,2,Cameron Bausley,Red Oak,77.11,188.24,106.59,190.51,485.34,Single-ply,SBD,M
Boys,82.1,3,KJ Evans,Joshua,79.65,174.63,102.06,195.04,471.74,Single-ply,SBD,M
Boys,82.1,4,Hunter Smith #10,Kennedale,81.47,179.17,83.91,192.78,455.86,Single-ply,SBD,M
Boys,82.1,5,Payton Wynn,Lake Worth,79.65,158.76,92.99,172.37,424.11,Single-ply,SBD,M
Boys,82.1,6,Ramizes Norris,Everman,80.2,151.95,83.91,185.97,421.84,Single-ply,SBD,M
Boys,82.1,7,Sean Slater,Fort Worth Western Hills,78.2,151.95,74.84,188.24,415.04,Single-ply,SBD,M
Boys,82.1,8,Cameron Bundy,Kennedale,78.38,147.42,92.99,151.95,392.36,Single-ply,SBD,M
Boys,82.1,9,Eric Martinez,Venus,80.2,145.15,83.91,158.76,387.82,Single-ply,SBD,M
Boys,82.1,10,Chris Smith #20,Everman,77.29,142.88,79.38,147.42,369.68,Single-ply,SBD,M
Boys,82.1,11,Hayden Norman,Burleson Centennial,80.92,124.74,86.18,158.76,369.68,Single-ply,SBD,M
Boys,82.1,12,Ben Bryant,Joshua,76.02,142.88,72.57,124.74,340.19,Single-ply,SBD,M
Boys,82.1,13,Daniel Giron,Kennedale,81.28,131.54,88.45,117.93,337.93,Single-ply,SBD,M
Boys,82.1,14,Kendall Adams,Cedar Hill,78.65,127.01,77.11,129.27,333.39,Single-ply,SBD,M
Boys,82.1,DQ,Justice Love,Granbury,77.93,,,,,Single-ply,SBD,M
Boys,82.1,DQ,DeBroderick Waits,Cedar Hill,77.02,,,,,Single-ply,SBD,M
Boys,89.81,1,Stratford Washington,Cedar Hill,88.45,226.8,138.35,219.99,585.13,Single-ply,SBD,M
Boys,89.81,2,Cedric Shaw,Everman,89.81,226.8,122.47,217.72,566.99,Single-ply,SBD,M
Boys,89.81,3,Chris Carnes,Burleson,87.27,206.38,136.08,206.38,548.85,Single-ply,SBD,M
Boys,89.81,4,Caleb Moreau,Fort Worth Western Hills,89.27,226.8,120.2,197.31,544.31,Single-ply,SBD,M
Boys,89.81,5,Justin Campos,Fort Worth North Side,84.01,204.12,127.01,210.92,542.04,Single-ply,SBD,M
Boys,89.81,6,Jerrod King,Midlothian,84.1,210.92,129.27,197.31,537.51,Single-ply,SBD,M
Boys,89.81,7,Casey Cook,Everman,88.72,204.12,113.4,183.7,501.22,Single-ply,SBD,M
Boys,99.79,8,Quinton Slaughter,Red Oak,89.99,188.24,104.33,183.7,476.27,Single-ply,SBD,M
Boys,89.81,9,Lafayette Noble,Red Oak,85.73,176.9,97.52,188.24,462.66,Single-ply,SBD,M
Boys,89.81,10,Arturo Padilla,Fort Worth North Side,88.36,170.1,99.79,190.51,460.4,Single-ply,SBD,M
Boys,89.81,11,Chance Heiser,Lake Worth,85.73,167.83,104.33,181.44,453.59,Single-ply,SBD,M
Boys,89.81,12,Caleb Shaw,Midlothian,88.63,174.63,102.06,174.63,451.32,Single-ply,SBD,M
Boys,89.81,13,Josh Whitworth,Joshua,85.37,156.49,104.33,179.17,439.98,Single-ply,SBD,M
Boys,89.81,14,Doveon Dillard,Cedar Hill,82.83,158.76,99.79,167.83,426.38,Single-ply,SBD,M
Boys,89.81,15,Aaron Maldonado,Castleberry,86.64,151.95,97.52,149.69,399.16,Single-ply,SBD,M
Boys,89.81,16,Jarred Connaly,Cedar Hill,86.55,161.03,97.52,136.08,394.63,Single-ply,SBD,M
Boys,89.81,17,Carlos Diaz,Fort Worth North Side,89.81,163.29,74.84,142.88,381.02,Single-ply,SBD,M
Boys,89.81,18,Colton Fisher,Castleberry,85.73,142.88,81.65,149.69,374.21,Single-ply,SBD,M
Boys,89.81,19,Trent Haynes,Red Oak,84.46,124.74,77.11,149.69,351.53,Single-ply,SBD,M
Boys,89.81,DQ,Devin Jackson,Kennedale,88.54,172.37,,,,Single-ply,SBD,M
Boys,99.79,1,Bryan Randall,Waxahachie,98.43,233.6,161.03,226.8,621.42,Single-ply,SBD,M
Boys,109.77,2,Eissa Eissa,Joshua,99.88,244.94,142.88,199.58,587.4,Single-ply,SBD,M
Boys,99.79,3,Brett Wade,Kennedale,92.26,226.8,122.47,233.6,582.87,Single-ply,SBD,M
Boys,99.79,4,Spencer Heflin,Lake Worth,96.16,219.99,127.01,229.06,576.06,Single-ply,SBD,M
Boys,99.79,5,Austin M,Stephenville,93.8,201.85,127.01,213.19,542.04,Single-ply,SBD,M
Boys,99.79,6,Rene Garcia,Waxahachie,99.52,210.92,142.88,188.24,542.04,Single-ply,SBD,M
Boys,99.79,7,Addison Parish,Burleson,93.8,215.46,117.93,204.12,537.51,Single-ply,SBD,M
Boys,99.79,8,Chris Dimas,Lake Worth,97.89,204.12,117.93,204.12,526.17,Single-ply,SBD,M
Boys,99.79,9,Julian Roland,Cedar Hill,98.79,183.7,113.4,204.12,501.22,Single-ply,SBD,M
Boys,99.79,10,Cayn Miller,Midlothian,90.08,204.12,102.06,192.78,498.95,Single-ply,SBD,M
Boys,99.79,11,Andrew Abamu,Cedar Hill,99.43,192.78,79.38,210.92,483.08,Single-ply,SBD,M
Boys,99.79,12,Dominique Taylor,Cedar Hill,98.7,190.51,120.2,161.03,471.74,Single-ply,SBD,M
Boys,99.79,13,Jonas Guiterrez,Castleberry,93.26,172.37,111.13,181.44,464.93,Single-ply,SBD,M
Boys,99.79,14,Tony Kirk,Midlothian,94.71,151.95,102.06,183.7,437.72,Single-ply,SBD,M
Boys,99.79,15,Matt Kress,Burleson Centennial,98.7,163.29,97.52,167.83,428.64,Single-ply,SBD,M
Boys,99.79,16,Stetson Kinnison,Waxahachie,99.25,136.08,104.33,185.97,426.38,Single-ply,SBD,M
Boys,99.79,17,Marques Cruz,Joshua,96.16,165.56,86.18,151.95,403.7,Single-ply,SBD,M
Boys,99.79,18,Tyler F,Stephenville,96.89,147.42,83.91,158.76,390.09,Single-ply,SBD,M
Boys,99.79,19,Abraham L,Castleberry,99.7,156.49,83.91,136.08,376.48,Single-ply,SBD,M
Boys,99.79,20,Tyler Jones #5,Granbury,94.53,145.15,92.99,136.08,374.21,Single-ply,SBD,M
Boys,99.79,21,Tc Quintana,Burleson Centennial,91.17,136.08,83.91,147.42,367.41,Single-ply,SBD,M
Boys,99.79,22,Dylan Driver,Stephenville,99.16,136.08,90.72,113.4,340.19,Single-ply,SBD,M
Boys,99.79,23,Kagan Jones,Everman,92.62,111.13,61.23,115.67,288.03,Single-ply,SBD,M
Boys,99.79,24,Fransisco G,Castleberry,90.08,68.04,74.84,113.4,256.28,Single-ply,SBD,M
Boys,99.79,DQ,Robert Greene,Fort Worth North Side,98.88,140.61,74.84,,,Single-ply,SBD,M
Boys,99.79,DQ,Koltyn Davis,Kennedale,94.62,195.04,,,,Single-ply,SBD,M
Boys,99.79,DQ,Paul Garcia,Red Oak,97.07,158.76,97.52,,,Single-ply,SBD,M
Boys,109.77,1,Trevor Gardner,Lake Worth,105.23,219.99,149.69,231.33,601.01,Single-ply,SBD,M
Boys,109.77,2,Michael Stanley #3,Burleson,108.23,226.8,142.88,215.46,585.13,Single-ply,SBD,M
Boys,109.77,3,Dustin Upchurch,Waxahachie,109.32,238.14,124.74,219.99,582.87,Single-ply,SBD,M
Boys,109.77,4,Albert Willingham,Fort Worth Western Hills,106.96,215.46,158.76,188.24,562.45,Single-ply,SBD,M
Boys,109.77,5,Sam Jenkins,Red Oak,108.5,192.78,127.01,204.12,523.9,Single-ply,SBD,M
Boys,109.77,6,Denzel Lewis,Cedar Hill,101.51,204.12,115.67,199.58,519.36,Single-ply,SBD,M
Boys,109.77,7,Thomas Marek,Red Oak,105.51,195.04,113.4,195.04,503.49,Single-ply,SBD,M
Boys,109.77,8,Ty Underwood,Burleson Centennial,101.97,172.37,115.67,174.63,462.66,Single-ply,SBD,M
Boys,109.77,9,Dylan Johnson,Red Oak,102.15,181.44,106.59,165.56,453.59,Single-ply,SBD,M
Boys,109.77,10,Kenny DeLeon,Venus,100.33,185.97,79.38,181.44,446.79,Single-ply,SBD,M
Boys,109.77,11,Juan Geitires,Granbury,109.41,181.44,108.86,149.69,439.98,Single-ply,SBD,M
Boys,109.77,12,Nick Manshack,Joshua,104.33,183.7,97.52,147.42,428.64,Single-ply,SBD,M
Boys,109.77,13,Isaiah Suezo,Burleson Centennial,105.23,167.83,74.84,176.9,419.57,Single-ply,SBD,M
Boys,109.77,14,Jessie Deckard,Everman,107.05,170.1,97.52,149.69,417.3,Single-ply,SBD,M
Boys,109.77,15,Lionel Bellazin,Everman,107.05,151.95,86.18,136.08,374.21,Single-ply,SBD,M
Boys,109.77,16,Eric Castruita,Fort Worth Western Hills,107.77,136.08,92.99,142.88,371.95,Single-ply,SBD,M
Boys,109.77,17,Nicolaus Pack,Stephenville,104.51,113.4,102.06,120.2,335.66,Single-ply,SBD,M
Boys,109.77,DQ,Gerardo Rosales,Castleberry,109.04,158.76,,,,Single-ply,SBD,M
Boys,124.74,1,Derek Carrington,Burleson,121.65,272.16,124.74,238.14,635.03,Single-ply,SBD,M
Boys,124.74,DQ,Dj Vondenberg,Stephenville,117.03,,,,,Single-ply,SBD,M
Boys,124.74,3,Ben Davis #4,Waxahachie,115.3,249.48,120.2,229.06,598.74,Single-ply,SBD,M
Boys,124.74,4,Diego Mejia,Everman,118.3,260.82,113.4,210.92,585.13,Single-ply,SBD,M
Boys,124.74+,5,Heath LeMoine,Midlothian,124.92,260.82,120.2,179.17,560.19,Single-ply,SBD,M
Boys,124.74,6,Josh Fisher,Red Oak,119.66,215.46,129.27,197.31,542.04,Single-ply,SBD,M
Boys,124.74,7,Joseph Pilgrim,Granbury,111.22,226.8,124.74,181.44,532.97,Single-ply,SBD,M
Boys,124.74,8,Juan Garciduenas,Burleson Centennial,122.92,201.85,122.47,197.31,521.63,Single-ply,SBD,M
Boys,124.74,9,Kenny Johnson,Fort Worth Western Hills,123.56,183.7,120.2,215.46,519.36,Single-ply,SBD,M
Boys,124.74,10,Anthony Pullins,Cedar Hill,118.3,204.12,124.74,181.44,510.29,Single-ply,SBD,M
Boys,124.74,11,Anthony Zapata,Everman,117.48,215.46,106.59,183.7,505.76,Single-ply,SBD,M
Boys,124.74,12,Jaleil Davis,Cedar Hill,111.58,197.31,124.74,181.44,503.49,Single-ply,SBD,M
Boys,124.74,13,Trevor Stephens,Stephenville,114.49,192.78,124.74,181.44,498.95,Single-ply,SBD,M
Boys,124.74,14,Dakota Larson,Venus,117.84,199.58,102.06,158.76,460.4,Single-ply,SBD,M
Boys,124.74,15,Dvonte Muhammad,Cedar Hill,117.39,176.9,115.67,163.29,455.86,Single-ply,SBD,M
Boys,124.74,16,Luis Salas,Castleberry,113.13,158.76,111.13,158.76,428.64,Single-ply,SBD,M
Boys,124.74,17,Christian Reyes,Fort Worth Western Hills,120.47,129.27,102.06,161.03,392.36,Single-ply,SBD,M
Boys,124.74,DQ,Julio Martinez,Castleberry,112.31,145.15,,,,Single-ply,SBD,M
Boys,124.74,DQ,Geno Whitt,Burleson Centennial,114.76,213.19,,,,Single-ply,SBD,M
Boys,124.74+,1,Xavier Johnson #1,Burleson,145.06,294.84,181.44,294.84,771.11,Single-ply,SBD,M
Boys,124.74+,2,Fred Gipson,Everman,127.01,249.48,181.44,204.12,635.03,Single-ply,SBD,M
Boys,124.74+,3,Gennard Johnson,Waxahachie,140.8,240.4,124.74,249.48,614.62,Single-ply,SBD,M
Boys,124.74+,4,Zeke Clerk,Red Oak,140.89,204.12,136.08,190.51,530.7,Single-ply,SBD,M
Boys,124.74+,5,Albert Torres,Castleberry,130.27,204.12,106.59,204.12,514.83,Single-ply,SBD,M
Boys,124.74+,6,William Jones #5,Cedar Hill,131.63,208.65,142.88,163.29,514.83,Single-ply,SBD,M
Boys,124.74+,7,Jd Brewer,Granbury,132.81,190.51,154.22,163.29,508.02,Single-ply,SBD,M
Boys,124.74+,8,Kyle Green,Joshua,148.96,192.78,136.08,170.1,498.95,Single-ply,SBD,M
Boys,124.74+,9,Jeff Reynolds,Midlothian,136.26,183.7,115.67,161.03,460.4,Single-ply,SBD,M
