Name,Age,Division,Sex,BodyweightKg,WeightClassKg,Squat1Kg,Squat2Kg,Squat3Kg,Squat4Kg,Best3SquatKg,Bench1Kg,Bench2Kg,Bench3Kg,Bench4Kg,Best3BenchKg,Deadlift1Kg,Deadlift2Kg,Deadlift3Kg,Deadlift4Kg,Best3DeadliftKg,TotalKg,Place,Team,Event,Equipment,BirthDate
James Poke,29,M-OR,M,89.8,90,,,,,,150,160,-162.5,,160,230,-250,-250,,230,390,3,,BD,Raw,
Jason Tran,24,M-OR,M,127,140,,,,,,160,170,-180,,170,270,290,-295,,290,460,2,,BD,Raw,
Nicholas Jovanovic,29,M-OR,M,97,100,,,,,,150,160,-165,,160,-200,210,220,,220,380,4,,BD,Raw,
Soraya Timms,35,F-OR,F,117.9,110+,,,,,,117.5,122.5,127.5,,127.5,210,220,-227.5,,220,347.5,1,,BD,Raw,
Vasa Samatua,30,M-OR,M,157,140+,,,,,,230,245,255,,255,270,295,310,,310,565,1,,BD,Raw,
