Place,Name,State,WeightClassKg,BodyweightKg,BirthDate,Age,Squat1Kg,Squat2Kg,Squat3Kg,Best3SquatKg,Bench1Kg,Bench2Kg,Bench3Kg,Best3BenchKg,Deadlift1Kg,Deadlift2Kg,Deadlift3Kg,Best3DeadliftKg,TotalKg,Squat4Kg,Bench4Kg,Deadlift4Kg,Event,Equipment,Sex,Division
1,Athena Xidis,OH,56,56,,21,92.5,100,-112.5,100,47.5,-60,-65,47.5,105,117.5,125,125,272.5,,,,SBD,Raw,F,Juniors 20-23
1,Moorea Boardman,AZ,75,74.7,,22,120,130,137.5,137.5,70,77.5,82.5,82.5,145,160,-182.5,160,380,,,,SBD,Raw,F,Juniors 20-23
2,Isabelle Benammar,OH,75,74.3,,21,-102.5,102.5,-107.5,102.5,57.5,60,-65,60,125,145,160,160,322.5,,,,SBD,Raw,F,Juniors 20-23
1,Alexia Lee,IL,90,88.4,,16,57.5,60,65,65,42.5,45,47.5,47.5,105,110,115,115,227.5,,,,SBD,Raw,F,Juniors 16-17
1,Bryn Wilson,OH,60,59.3,,31,117.5,-127.5,-127.5,117.5,67.5,72.5,77.5,77.5,125,137.5,147.5,147.5,342.5,,,,SBD,Raw,F,Open
1,Hannah Cook,IN,67.5,65.7,,29,115,122.5,-130,122.5,72.5,77.5,-82.5,77.5,147.5,-157.5,-160,147.5,347.5,,,,SBD,Raw,F,Open
2,Renae Clark,OH,67.5,67.3,,29,97.5,107.5,-117.5,107.5,52.5,-57.5,,52.5,120,132.5,-140,132.5,292.5,,,,SBD,Raw,F,Open
3,Chaley Beeman,OH,67.5,63.3,,27,42.5,47.5,55,55,25,30,-35,30,-52.5,60,70,70,155,,,,SBD,Raw,F,Open
1,Marie Stamm,OH,90,88.9,,26,117.5,127.5,-135,127.5,52.5,60,-65,60,142.5,155,-182.5,155,342.5,,,,SBD,Raw,F,Open
1,Casey Smith #2,IL,90+,111.1,,39,-145,145,-157.5,145,77.5,-80,-80,77.5,130,145,150,150,372.5,,,,SBD,Raw,F,Open
2,Lindsey Behymer,OH,90+,133.6,,36,87.5,95,97.5,97.5,72.5,-77.5,-77.5,72.5,132.5,145,-160,145,315,,,,SBD,Raw,F,Open
3,Jenna Backer,OH,90+,93.8,,37,80,-87.5,90,90,50,55,-57.5,55,120,132.5,147.5,147.5,292.5,,,,SBD,Raw,F,Open
1,Casey Smith #2,IL,90+,111.1,,39,-145,145,-157.5,145,77.5,-80,-80,77.5,130,145,150,150,372.5,,,,SBD,Raw,F,Submasters 35-39
1,Fatima Cahall,OH,56,56,,43,85,92.5,97.5,97.5,37.5,-47.5,47.5,47.5,92.5,105,115,115,260,100,,120,SBD,Raw,F,Masters 40-44
1,Yusef Sadat-Hossieny,OH,75,73.3,,17,142.5,155,160,160,75,-82.5,82.5,82.5,165,180,-187.5,180,422.5,,,,SBD,Raw,M,Juniors 16-17
1,Todd Huddleston,KY,82.5,77.9,,17,155,162.5,175,175,105,115,-130,115,160,172.5,182.5,182.5,472.5,,,,SBD,Raw,M,Juniors 16-17
1,Ryon Foubert,OH,100,92.4,,18,145,155,-157.5,155,117.5,-120,120,120,200,210,227.5,227.5,502.5,,,,SBD,Raw,M,Juniors 18-19
1,Rhys Oberding,KY,110,101.3,,23,-185,-190,205,205,-125,135,140,140,247.5,260,-270,260,605,,,,SBD,Raw,M,Juniors 20-23
1,Justin Ho,OH,75,74.1,,28,165,175,185,185,105,-110,-110,105,207.5,217.5,227.5,227.5,517.5,,,,SBD,Raw,M,Open
2,Chris Klammer,OH,75,74.5,,24,142.5,147.5,155,155,80,87.5,-100,87.5,170,175,-182.5,175,417.5,,,,SBD,Raw,M,Open
1,Christian Bradford,OH,82.5,79.6,,24,145,162.5,-175,162.5,-85,97.5,-107.5,97.5,170,185,197.5,197.5,457.5,,,,SBD,Raw,M,Open
1,Preston Senesac,IN,90,88.6,,26,230,-242.5,242.5,242.5,145,155,-165,155,285,-300,-305,285,682.5,,,,SBD,Raw,M,Open
1,Jacob Cottingim,OH,100,91.2,,27,252.5,265,272.5,272.5,172.5,180,182.5,182.5,287.5,307.5,-320,307.5,762.5,,,,SBD,Raw,M,Open
2,Zane Augustine,OH,100,98.9,,26,225,245,255,255,-155,155,,155,260,280,292.5,292.5,702.5,,,,SBD,Raw,M,Open
3,Seth Casto,OH,100,99.3,,25,212.5,220,230,230,130,-140,140,140,250,-265,265,265,635,,,,SBD,Raw,M,Open
DQ,Austin Hensley,OH,100,99.1,,25,-212.5,-227.5,-227.5,,-132.5,-142.5,-142.5,,-225,225,-255,225,,,,,SBD,Raw,M,Open
1,Steven Kearney,OH,110,109.3,,25,245,260,277.5,277.5,192.5,207.5,212.5,212.5,260,282.5,-285,282.5,772.5,,,,SBD,Raw,M,Open
2,Philip Brinkman,NC,110,108.1,,27,265,277.5,285,285,165,170,-175,170,265,280,-292.5,280,735,,,,SBD,Raw,M,Open
3,Jim Hunter,OH,110,105.8,,32,232.5,250,-257.5,250,175,182.5,190,190,282.5,-302.5,-302.5,282.5,722.5,,,,SBD,Raw,M,Open
4,William Yoder,OH,110,105.4,,32,195,205,225,225,147.5,160,-165,160,232.5,245,-255,245,630,,,,SBD,Raw,M,Open
5,Brandon McIntyre #1,OH,110,106.3,,26,-172.5,172.5,192.5,192.5,125,142.5,145,145,210,227.5,245,245,582.5,,,,SBD,Raw,M,Open
6,Mitch Metzler,OH,110,108.7,,32,175,-190,-190,175,130,147.5,-157.5,147.5,190,205,-217.5,205,527.5,,,,SBD,Raw,M,Open
1,Jesse Tewksbury,OH,140+,167.6,,29,185,205,-220,205,145,152.5,160,160,207.5,222.5,235,235,600,,,,SBD,Raw,M,Open
1,Steve Snyder #3,OH,75,74.6,,43,90,-100,100,100,102.5,112.5,-120,112.5,110,125,-135,125,337.5,,,,SBD,Raw,M,Masters 40-44
1,James Mcvey,OH,100,95.1,,44,-160,-160,160,160,-125,125,-130,125,210,222.5,232.5,232.5,517.5,,,,SBD,Raw,M,Masters 40-44
1,Dominick French,OH,90,88.9,,22,225,237.5,242.5,242.5,-132.5,140,142.5,142.5,225,240,245,245,630,245,,252.5,SBD,Wraps,M,Juniors 20-23
1,Bert Olsen,OH,110,109.4,,19,180,190,200,200,-130,130,135,135,190,-210,-220,190,525,,,,SBD,Wraps,M,Juniors 18-19
1,Cody Bone,OH,90,90,,30,245,255,-260,255,165,175,177.5,177.5,250,255,260,260,692.5,,,,SBD,Wraps,M,Open
1,Mike Schaeffer,OH,100,98.8,,26,272.5,287.5,300,300,-175,182.5,-192.5,182.5,297.5,320,-327.5,320,802.5,,,,SBD,Wraps,M,Open
2,Austin Taylor #3,OH,100,99.3,,32,235,242.5,250,250,160,167.5,-172.5,167.5,232.5,242.5,-250,242.5,660,,,,SBD,Wraps,M,Open
1,José Pérez #12,IN,125,114.7,,29,-227.5,247.5,260,260,175,-190,190,190,230,250,-277.5,250,700,,,,SBD,Wraps,M,Open
1,Lauren Ahrens,OH,90+,91,,41,,,,,90,102.5,105,105,,,,,105,,107.5,,B,Raw,F,Open
1,Todd Huddleston,KY,82.5,77.9,,17,,,,,105,115,-130,115,,,,,115,,,,B,Raw,M,Juniors 16-17
1,Treishaun Davis-Sanders,OH,100,97.2,,15,,,,,115,122.5,-125,122.5,,,,,122.5,,,,B,Raw,M,Juniors 13-15
1,Tom Mullaney,OH,110,107.8,,61,,,,,170,182.5,190,190,,,,,190,,192.5,,B,Raw,M,Masters 60-64
1,Nathan Sorn,OH,125,114.6,,18,,,,,,,,,175,182.5,190,190,190,,,,D,Raw,M,Juniors 18-19
1,Nathan Sorn,OH,125,114.6,,18,,,,,,,,,175,182.5,190,190,190,,,,D,Raw,M,Open
