Division,WeightClassKg,Place,Name,Team,BodyweightKg,Best3SquatKg,Best3BenchKg,Best3DeadliftKg,TotalKg,Equipment,Event,Sex
Boys,51.71,1,Angel Garcia #6,Edinburg Idea College Prep,51.26,174.63,102.06,176.9,453.59,Single-ply,SBD,M
Boys,51.71,2,John Ortega,Mercedes,47.26,131.54,79.38,142.88,353.8,Single-ply,SBD,M
Boys,51.71,3,Fernando Gonzalez,McAllen Memorial,50.71,113.4,79.38,149.69,342.46,Single-ply,SBD,M
Boys,51.71,4,Joey Rodriguez,Edinburg Idea College Prep,50.8,129.27,70.31,142.88,342.46,Single-ply,SBD,M
Boys,51.71,5,Fabian Garcia,Edinburg Idea College Prep,50.8,113.4,74.84,117.93,306.17,Single-ply,SBD,M
Boys,51.71,6,Hisaac Guerrero,Rio Hondo,46.72,97.52,56.7,108.86,263.08,Single-ply,SBD,M
Boys,55.79,1,Tyler Salazar,Donna,54.88,170.1,97.52,167.83,435.45,Single-ply,SBD,M
Boys,55.79,2,Bryan Loera,Brownsville Pace,53.07,154.22,83.91,145.15,383.29,Single-ply,SBD,M
Boys,55.79,3,Kevin Trevino,McAllen Memorial,55.29,136.08,95.25,142.88,374.21,Single-ply,SBD,M
Boys,55.79,NS,Jaryd Amaro,PSJA Memorial,,,,,,Single-ply,SBD,M
Boys,55.79,NS,Jerry Jasso Jasso,Mercedes,,,,,,Single-ply,SBD,M
Boys,55.79,DQ,Oscar Gonzalez,Brownsville Pace,55.34,136.08,81.65,,,Single-ply,SBD,M
Boys,59.87,1,Ricky Ortiz #1,Edcouch-Elsa,58.97,249.48,142.88,226.8,619.15,Single-ply,SBD,M
Boys,59.87,2,Joseph Serrino,Brownsville Hanna,58.97,190.51,115.67,204.12,510.29,Single-ply,SBD,M
Boys,59.87,3,Mark Ortega,Mercedes,56.7,151.95,102.06,165.56,419.57,Single-ply,SBD,M
Boys,59.87,4,Frank Hernandez,Rio Hondo,58.06,142.88,83.91,165.56,392.36,Single-ply,SBD,M
Boys,59.87,5,Jesse Rosillo,McAllen,59.87,151.95,81.65,147.42,381.02,Single-ply,SBD,M
Boys,59.87,6,Stanley Davis,McAllen Memorial,59.87,131.54,102.06,142.88,376.48,Single-ply,SBD,M
Boys,59.87,7,Elijah Wheeler,Edinburg Idea College Prep,59.42,136.08,70.31,149.69,356.07,Single-ply,SBD,M
Boys,59.87,8,Ruben Saenz III,McAllen Rowe,58.97,111.13,74.84,117.93,303.91,Single-ply,SBD,M
Boys,59.87,9,Freddy Tamez,Rio Hondo,58.51,113.4,68.04,115.67,297.1,Single-ply,SBD,M
Boys,59.87,10,Jason Penaflor,Mission Veterans Memorial,58.51,102.06,61.23,106.59,269.89,Single-ply,SBD,M
Boys,59.87,NS,Anthony Borrego,McAllen,,,,,,Single-ply,SBD,M
Boys,59.87,DQ,Jose Alvarez,Edinburg,58.97,127.01,77.11,,,Single-ply,SBD,M
Boys,67.13,1,Felix Rizo,Brownsville Pace,64.41,226.8,140.61,222.26,589.67,Single-ply,SBD,M
Boys,67.13,2,Moses Olivarez,McAllen Memorial,66.04,190.51,113.4,190.51,494.42,Single-ply,SBD,M
Boys,67.13,3,Andrew Nevarez,Edinburg Idea College Prep,65.32,183.7,102.06,170.1,455.86,Single-ply,SBD,M
Boys,67.13,4,Aaron Longoria Longoria,Los Fresnos,67.13,195.04,102.06,158.76,455.86,Single-ply,SBD,M
Boys,67.13,5,Aaron Lozano,Edinburg Quest College Prep,62.14,165.56,83.91,185.97,435.45,Single-ply,SBD,M
Boys,67.13,6,Julio Elizondo,Edinburg,63.96,154.22,92.99,181.44,428.64,Single-ply,SBD,M
Boys,67.13,7,Danny Garcia,Edinburg Quest College Prep,61.87,138.35,90.72,151.95,381.02,Single-ply,SBD,M
Boys,67.13,8,Adrian Leija,Mission Veterans Memorial,65.77,142.88,102.06,129.27,374.21,Single-ply,SBD,M
Boys,67.13,9,Daniel Palacios,Edinburg,67.13,124.74,95.25,140.61,360.61,Single-ply,SBD,M
Boys,67.13,10,Matthew Randall,Edinburg Quest College Prep,62.14,124.74,83.91,147.42,356.07,Single-ply,SBD,M
Boys,67.13,11,Kameron Maples,McAllen Memorial,66.22,113.4,92.99,142.88,349.27,Single-ply,SBD,M
Boys,67.13,12,Eric Castro,Mission Veterans Memorial,63.96,142.88,65.77,115.67,324.32,Single-ply,SBD,M
Boys,67.13,13,Brandon Rodriguez,Edinburg Idea College Prep,67.13,113.4,65.77,129.27,308.44,Single-ply,SBD,M
Boys,67.13,NS,Jose Salinas,Brownsville Pace,,,,,,Single-ply,SBD,M
Boys,67.13,NS,Hector Ayala,Los Fresnos,,,,,,Single-ply,SBD,M
Boys,67.13,NS,Danny Melendez,Mercedes,,,,,,Single-ply,SBD,M
Boys,67.13,DQ,Mike Chavez,Brownsville Hanna,67.13,233.6,111.13,,,Single-ply,SBD,M
Boys,67.13,DQ,Frank Estrada,PSJA Memorial,67.13,215.46,117.93,,,Single-ply,SBD,M
Boys,74.84,1,Jose Porras,Brownsville Hanna,73.03,235.87,122.47,240.4,598.74,Single-ply,SBD,M
Boys,74.84,2,Jazaih Escamilla,McAllen Memorial,73.94,235.87,151.95,210.92,598.74,Single-ply,SBD,M
Boys,74.84,3,Adam Walle,Edcouch-Elsa,73.94,233.6,140.61,219.99,594.21,Single-ply,SBD,M
Boys,74.84,4,Roman Garay,Brownsville Hanna,71.89,226.8,106.59,235.87,569.26,Single-ply,SBD,M
Boys,74.84,5,Jorge Cavazos,Mercedes,72.3,224.53,138.35,204.12,566.99,Single-ply,SBD,M
Boys,74.84,6,Rudy Garcia,Brownsville Hanna,69.4,210.92,122.47,195.04,528.44,Single-ply,SBD,M
Boys,74.84,7,Alex Castaneda,Donna,73.48,185.97,113.4,204.12,503.49,Single-ply,SBD,M
Boys,74.84,8,Jose Colunga Colunga,Mercedes,71.67,206.38,113.4,165.56,485.34,Single-ply,SBD,M
Boys,74.84,9,Jaaziel Espinoza,McAllen,68.49,183.7,113.4,183.7,480.81,Single-ply,SBD,M
Boys,74.84,10,Elias Macias,Edinburg,70.76,154.22,104.33,188.24,446.79,Single-ply,SBD,M
Boys,74.84,11,Idris Chargois,McAllen Memorial,68.49,165.56,102.06,163.29,430.91,Single-ply,SBD,M
Boys,74.84,12,Rudy Tercero,Edinburg Quest College Prep,74.16,151.95,102.06,167.83,421.84,Single-ply,SBD,M
Boys,74.84,13,Jaime Garcia Garcia,Mercedes,71.21,149.69,102.06,163.29,415.04,Single-ply,SBD,M
Boys,74.84,14,Kai Jaime,McAllen,74.84,136.08,74.84,156.49,367.41,Single-ply,SBD,M
Boys,74.84,15,Adam Alvarado,McAllen Rowe,68.49,120.2,81.65,145.15,347,Single-ply,SBD,M
Boys,74.84,16,Marcus Flores,McAllen,72.57,120.2,74.84,142.88,337.93,Single-ply,SBD,M
Boys,74.84,17,Alejandro Borland,Brownsville Pace,71.21,117.93,65.77,115.67,299.37,Single-ply,SBD,M
Boys,74.84,18,David Quintanilla,PSJA Memorial,72.12,102.06,70.31,113.4,285.76,Single-ply,SBD,M
Boys,82.1,1,Dominic Ramos,Rio Hondo,75.75,215.46,156.49,210.92,582.87,Single-ply,SBD,M
Boys,82.1,2,Jacob Perez #4,Edcouch-Elsa,82.1,188.24,111.13,199.58,498.95,Single-ply,SBD,M
Boys,82.1,3,Eddie Mujica,Edinburg,78.06,174.63,122.47,183.7,480.81,Single-ply,SBD,M
Boys,82.1,4,Sadge Diaz,McAllen,78.47,192.78,102.06,181.44,476.27,Single-ply,SBD,M
Boys,82.1,5,Eroherto Villarreal,Mission Veterans Memorial,79.83,183.7,111.13,179.17,474,Single-ply,SBD,M
Boys,82.1,6,Tony Gil,Edcouch-Elsa,82.1,201.85,111.13,161.03,474,Single-ply,SBD,M
Boys,82.1,7,Ruben Chavero,Donna,78.93,183.7,106.59,154.22,444.52,Single-ply,SBD,M
Boys,82.1,8,Christopher Espinoza,Brownsville Pace,78.93,170.1,104.33,158.76,433.18,Single-ply,SBD,M
Boys,82.1,9,David Saldana,McAllen Rowe,77.56,136.08,102.06,161.03,399.16,Single-ply,SBD,M
Boys,82.1,10,Miguel Reyes,Donna,78.02,154.22,88.45,154.22,396.89,Single-ply,SBD,M
Boys,82.1,11,Allen Valdez,Edinburg,77.11,136.08,77.11,142.88,356.07,Single-ply,SBD,M
Boys,82.1,NS,Octavian Lewis,McAllen,,,,,,Single-ply,SBD,M
Boys,82.1,DQ,Diego Montemayor,McAllen,82.1,174.63,,,,Single-ply,SBD,M
Boys,82.1,DQ,Luis Cavazos,Rio Hondo,82.1,108.86,56.7,,,Single-ply,SBD,M
Boys,89.81,1,Ernesto Preciado,Pharr Valley View,89.81,242.67,147.42,233.6,623.69,Single-ply,SBD,M
Boys,89.81,2,Juan Rojas,Donna,85.73,238.14,131.54,226.8,596.47,Single-ply,SBD,M
Boys,89.81,3,Nate Vallejo,Edcouch-Elsa,89.81,226.8,147.42,219.99,594.21,Single-ply,SBD,M
Boys,89.81,4,Gabriel Salinas,Donna,89.81,242.67,106.59,213.19,562.45,Single-ply,SBD,M
Boys,89.81,5,Simon Fernandez,Pharr Valley View,88,219.99,124.74,215.46,560.19,Single-ply,SBD,M
Boys,89.81,6,Robert Garza,Los Fresnos,87.09,204.12,117.93,219.99,542.04,Single-ply,SBD,M
Boys,89.81,7,Edgar Castillo,McAllen Rowe,89.81,188.24,120.2,201.85,510.29,Single-ply,SBD,M
Boys,89.81,8,Jose Guzman,Donna,84.82,217.72,92.99,197.31,508.02,Single-ply,SBD,M
Boys,89.81,9,Michael Morales,McAllen Rowe,83.46,176.9,117.93,188.24,483.08,Single-ply,SBD,M
Boys,89.81,10,Aaron Gonzalez,McAllen Rowe,86.18,142.88,90.72,145.15,378.75,Single-ply,SBD,M
Boys,89.81,11,Danny Mata,Edinburg Quest College Prep,83.91,102.06,74.84,140.61,317.51,Single-ply,SBD,M
Boys,89.81,NS,Jonas Garza,Brownsville Pace,,,,,,Single-ply,SBD,M
Boys,99.79,1,Brandon Esteves,Brownsville Hanna,92.53,249.48,147.42,251.74,648.64,Single-ply,SBD,M
Boys,99.79,2,Jose Rangel,La Villa,99.34,260.82,131.54,226.8,619.15,Single-ply,SBD,M
Boys,99.79,3,Dylan Earhart,McAllen Memorial,95.25,242.67,131.54,210.92,585.13,Single-ply,SBD,M
Boys,99.79,4,Joey Raya,Brownsville Hanna,97.98,249.48,142.88,192.78,585.13,Single-ply,SBD,M
Boys,99.79,5,Sebastian Diaz,Brownsville Hanna,91.17,233.6,142.88,206.38,582.87,Single-ply,SBD,M
Boys,99.79,6,Hector Palencia,Donna,93.44,235.87,124.74,201.85,562.45,Single-ply,SBD,M
Boys,99.79,7,Ryan Perales,Donna,94.8,219.99,136.08,183.7,539.77,Single-ply,SBD,M
Boys,99.79,8,Lorenzo Villarreal,Los Fresnos,98.43,199.58,122.47,215.46,537.51,Single-ply,SBD,M
Boys,99.79,9,Cordell Cabrera,Edcouch-Elsa,98.88,210.92,129.27,192.78,532.97,Single-ply,SBD,M
Boys,99.79,10,Pablo Iracheta,Brownsville Pace,92.53,204.12,129.27,192.78,526.17,Single-ply,SBD,M
Boys,99.79,11,Joey Saldana,Brownsville Pace,97.07,206.38,120.2,183.7,510.29,Single-ply,SBD,M
Boys,99.79,12,Frankie Coronado,Edinburg,95.71,183.7,131.54,192.78,508.02,Single-ply,SBD,M
Boys,99.79,13,Santos Gomez,PSJA Memorial,94.35,190.51,111.13,199.58,501.22,Single-ply,SBD,M
Boys,99.79,14,Ricky Bourbois,Edinburg,91.17,183.7,120.2,190.51,494.42,Single-ply,SBD,M
Boys,99.79,15,Jose Quintero,McAllen Rowe,93.89,161.03,129.27,179.17,469.47,Single-ply,SBD,M
Boys,99.79,16,Justin Torres,McAllen Rowe,99.79,158.76,106.59,199.58,464.93,Single-ply,SBD,M
Boys,99.79,17,Joel Garcia,Pharr Valley View,99.11,235.87,129.27,,365.14,Single-ply,SB,M
Boys,99.79,18,Rick Chavez,McAllen Rowe,99.79,113.4,104.33,142.88,360.61,Single-ply,SBD,M
Boys,99.79,19,Tomas Garcia,Rio Hondo,94.35,,83.91,124.74,208.65,Single-ply,BD,M
Boys,99.79,DQ,Jun Aguila,Edcouch-Elsa,99.79,,,,,Single-ply,BD,M
Boys,99.79,NS,Fernando Martinez #1,Brownsville Hanna,,247.21,,,,Single-ply,SBD,M
Boys,109.77,1,Cody Alvarado,Edcouch-Elsa,109.77,317.51,190.51,242.67,750.7,Single-ply,SBD,M
Boys,109.77,2,Adrien Martinez,Brownsville Hanna,108.41,288.03,142.88,226.8,657.71,Single-ply,SBD,M
Boys,109.77,3,Enrique Guajardo,Pharr Valley View,107.73,238.14,142.88,226.8,607.81,Single-ply,SBD,M
Boys,109.77,4,Jonathan De Los Reyes,Brownsville Hanna,106.46,254.01,129.27,222.26,605.55,Single-ply,SBD,M
Boys,109.77,5,Angel Gutierrez,Pharr Valley View,106.59,229.06,147.42,210.92,587.4,Single-ply,SBD,M
Boys,109.77,6,Jeremiah Gonzales,Los Fresnos,104.78,204.12,108.86,201.85,514.83,Single-ply,SBD,M
Boys,109.77,7,Ryan Rodriguez,Edinburg,104.33,185.97,131.54,195.04,512.56,Single-ply,SBD,M
Boys,109.77,8,Nick Rojas,Donna,104.78,199.58,102.06,138.35,439.98,Single-ply,SBD,M
Boys,109.77,9,Alex Guerra,McAllen Memorial,108.41,170.1,90.72,165.56,426.38,Single-ply,SBD,M
Boys,109.77,10,Donavan Rodriguez,Mission Veterans Memorial,103.42,170.1,102.06,138.35,410.5,Single-ply,SBD,M
Boys,109.77,NS,Guadalupe Abrego,PSJA Memorial,,,,,,Single-ply,SBD,M
Boys,109.77,DQ,Anthony Cardona,Edinburg,102.06,,111.13,,,Single-ply,SBD,M
Boys,124.74,1,Jorge Soto,Edcouch-Elsa,124.74,265.35,197.31,233.6,696.26,Single-ply,SBD,M
Boys,124.74,2,Imanol Rodriguez,Edcouch-Elsa,124.74,278.96,151.95,215.46,646.37,Single-ply,SBD,M
Boys,124.74,3,Gerardo Lopez,McAllen,123.83,265.35,165.56,185.97,616.89,Single-ply,SBD,M
Boys,124.74,4,Leeroy Carrizales,PSJA Memorial,124.28,238.14,120.2,226.8,585.13,Single-ply,SBD,M
Boys,124.74,5,Javy Soriano,Los Fresnos,111.58,224.53,136.08,208.65,569.26,Single-ply,SBD,M
Boys,124.74,6,Rogelio Rada,Donna,111.13,199.58,97.52,206.38,503.49,Single-ply,SBD,M
Boys,124.74,7,Damien Gomez,Mission Veterans Memorial,113.85,183.7,92.99,192.78,469.47,Single-ply,SBD,M
Boys,124.74,8,Arturo Garcia,Brownsville Pace,111.13,188.24,106.59,136.08,430.91,Single-ply,SBD,M
Boys,124.74,9,Joey Gonzalez,McAllen Memorial,110.9,170.1,88.45,154.22,412.77,Single-ply,SBD,M
Boys,124.74,10,Daniel Cerroblanco,Mission Veterans Memorial,111.22,156.49,92.99,161.03,410.5,Single-ply,SBD,M
Boys,124.74,11,Kevin Lopez,PSJA Memorial,114.76,161.03,106.59,138.35,405.97,Single-ply,SBD,M
Boys,124.74,12,Aalok Zimmerman,McAllen Rowe,121.11,147.42,81.65,145.15,374.21,Single-ply,SBD,M
Boys,124.74,NS,Ernesto Gamez,Brownsville Pace,,,,,,Single-ply,SBD,M
Boys,124.74+,1,Sebastian Garcia,Brownsville Hanna,138.8,308.44,183.7,210.92,703.07,Single-ply,SBD,M
Boys,124.74+,2,Bobby Gonzalez,Edcouch-Elsa,127.01,256.28,156.49,213.19,625.96,Single-ply,SBD,M
Boys,124.74+,3,Victor Anzaldua,Mission Veterans Memorial,142.88,251.74,129.27,229.06,610.08,Single-ply,SBD,M
Boys,124.74+,4,Sergio Reyna,McAllen Memorial,125.87,235.87,149.69,204.12,589.67,Single-ply,SBD,M
Boys,124.74+,5,Aubrey Elizondo Elizondo,Mercedes,126.1,229.06,136.08,213.19,578.33,Single-ply,SBD,M
Boys,124.74+,6,Josue Vaquera,PSJA Memorial,150.59,215.46,124.74,183.7,523.9,Single-ply,SBD,M
Boys,124.74+,7,Valentin Lopez,PSJA Memorial,151.05,226.8,129.27,147.42,503.49,Single-ply,SBD,M
Boys,124.74+,8,Rolando Zuniga,Rio Hondo,170.1,170.1,124.74,197.31,492.15,Single-ply,SBD,M
Boys,124.74+,9,Jacob Mata,McAllen Rowe,147.87,149.69,136.08,154.22,439.98,Single-ply,SBD,M
Boys,124.74+,10,Justin Delgado,PSJA Memorial,126.55,151.95,97.52,142.88,392.36,Single-ply,SBD,M
Boys,124.74+,NS,Jose Tovar,PSJA Memorial,,,,,,Single-ply,SBD,M
Boys,124.74+,NS,Julio Hernandez,Brownsville Pace,,,,,,Single-ply,SBD,M
